{
  "ast": null,
  "code": "import _asyncToGenerator from \"F:/angulardev/frontWhispeak/node_modules/@babel/runtime/helpers/esm/asyncToGenerator\";\nimport { FormControl, FormGroup, Validators } from \"@angular/forms\";\nimport { Enrollment } from \"../enrollment\";\nimport * as i0 from \"@angular/core\";\nimport * as i1 from \"@angular/forms\";\nimport * as i2 from \"@angular/common\";\n\nfunction EnrollmentComponent_button_10_Template(rf, ctx) {\n  if (rf & 1) {\n    const _r3 = i0.ɵɵgetCurrentView();\n\n    i0.ɵɵelementStart(0, \"button\", 16);\n    i0.ɵɵlistener(\"click\", function EnrollmentComponent_button_10_Template_button_click_0_listener() {\n      i0.ɵɵrestoreView(_r3);\n      const ctx_r2 = i0.ɵɵnextContext();\n      return ctx_r2.paste();\n    });\n    i0.ɵɵtext(1, \"Coller\");\n    i0.ɵɵelementEnd();\n  }\n}\n\nfunction EnrollmentComponent_div_21_div_1_Template(rf, ctx) {\n  if (rf & 1) {\n    i0.ɵɵelementStart(0, \"div\");\n    i0.ɵɵtext(1, \"Language is required.\");\n    i0.ɵɵelementEnd();\n  }\n}\n\nfunction EnrollmentComponent_div_21_Template(rf, ctx) {\n  if (rf & 1) {\n    i0.ɵɵelementStart(0, \"div\", 17);\n    i0.ɵɵtemplate(1, EnrollmentComponent_div_21_div_1_Template, 2, 0, \"div\", 18);\n    i0.ɵɵelementEnd();\n  }\n\n  if (rf & 2) {\n    const ctx_r1 = i0.ɵɵnextContext();\n    i0.ɵɵadvance(1);\n    i0.ɵɵproperty(\"ngIf\", ctx_r1.f[\"lang\"].errors || ctx_r1.f[\"lang\"].errors[\"required\"]);\n  }\n}\n\nexport class EnrollmentComponent {\n  //token:any;\n  constructor() {\n    this.enrollment = new Enrollment();\n    this.name = '';\n    this.form = new FormGroup({\n      lang: new FormControl('', Validators.required)\n    });\n  }\n\n  get f() {\n    return this.form.controls;\n  }\n\n  paste() {\n    var _this = this;\n\n    return _asyncToGenerator(function* () {\n      _this.name = yield navigator.clipboard.readText();\n\n      _this.ngOnInit();\n    })();\n  }\n\n  ngOnInit() {}\n\n}\n\nEnrollmentComponent.ɵfac = function EnrollmentComponent_Factory(t) {\n  return new (t || EnrollmentComponent)();\n};\n\nEnrollmentComponent.ɵcmp = /*@__PURE__*/i0.ɵɵdefineComponent({\n  type: EnrollmentComponent,\n  selectors: [[\"app-enrollment\"]],\n  decls: 24,\n  vars: 8,\n  consts: [[1, \"col-md-4\", \"offset-md-3\", \"register-form\"], [1, \"container\"], [3, \"formGroup\"], [1, \"form-group\"], [1, \"input-group\"], [1, \"input-group-prepend\"], [1, \"input-group-text\"], [\"aria-label\", \"With textarea\", 1, \"form-control\", 3, \"value\"], [\"class\", \"btn btn-primary\", 3, \"click\", 4, \"ngIf\"], [1, \"form-check\"], [\"formControlName\", \"lang\", \"value\", \"en\", \"type\", \"radio\", \"name\", \"lang\", \"id\", \"flexRadioDefault1\", 1, \"form-check-input\", 3, \"ngModel\", \"ngModelChange\"], [\"for\", \"flexRadioDefault1\", 1, \"form-check-label\"], [\"formControlName\", \"lang\", \"value\", \"fr\", \"type\", \"radio\", \"name\", \"lang\", \"id\", \"flexRadioDefault2\", 1, \"form-check-input\", 3, \"ngModel\", \"checked\", \"ngModelChange\"], [\"for\", \"flexRadioDefault2\", 1, \"form-check-label\"], [\"class\", \"alert alert-danger\", 4, \"ngIf\"], [\"type\", \"submit\", 1, \"btn\", \"btn-primary\", 3, \"disabled\"], [1, \"btn\", \"btn-primary\", 3, \"click\"], [1, \"alert\", \"alert-danger\"], [4, \"ngIf\"]],\n  template: function EnrollmentComponent_Template(rf, ctx) {\n    if (rf & 1) {\n      i0.ɵɵelementStart(0, \"div\", 0);\n      i0.ɵɵelementStart(1, \"div\", 1);\n      i0.ɵɵelementStart(2, \"form\", 2);\n      i0.ɵɵelementStart(3, \"div\", 3);\n      i0.ɵɵelementStart(4, \"div\", 4);\n      i0.ɵɵelementStart(5, \"div\", 5);\n      i0.ɵɵelementStart(6, \"span\", 6);\n      i0.ɵɵtext(7, \"Token\");\n      i0.ɵɵelementEnd();\n      i0.ɵɵelementEnd();\n      i0.ɵɵelement(8, \"textarea\", 7);\n      i0.ɵɵelement(9, \"br\");\n      i0.ɵɵtemplate(10, EnrollmentComponent_button_10_Template, 2, 0, \"button\", 8);\n      i0.ɵɵelementEnd();\n      i0.ɵɵelementStart(11, \"p\");\n      i0.ɵɵtext(12, \"Indiquez la langue \\u00E0 utiliser\");\n      i0.ɵɵelementEnd();\n      i0.ɵɵelementStart(13, \"div\", 9);\n      i0.ɵɵelementStart(14, \"input\", 10);\n      i0.ɵɵlistener(\"ngModelChange\", function EnrollmentComponent_Template_input_ngModelChange_14_listener($event) {\n        return ctx.enrollment.langue = $event;\n      });\n      i0.ɵɵelementEnd();\n      i0.ɵɵelementStart(15, \"label\", 11);\n      i0.ɵɵtext(16, \" EN \");\n      i0.ɵɵelementEnd();\n      i0.ɵɵelementEnd();\n      i0.ɵɵelementStart(17, \"div\", 9);\n      i0.ɵɵelementStart(18, \"input\", 12);\n      i0.ɵɵlistener(\"ngModelChange\", function EnrollmentComponent_Template_input_ngModelChange_18_listener($event) {\n        return ctx.enrollment.langue = $event;\n      });\n      i0.ɵɵelementEnd();\n      i0.ɵɵelementStart(19, \"label\", 13);\n      i0.ɵɵtext(20, \" FR \");\n      i0.ɵɵelementEnd();\n      i0.ɵɵelementEnd();\n      i0.ɵɵtemplate(21, EnrollmentComponent_div_21_Template, 2, 1, \"div\", 14);\n      i0.ɵɵelementStart(22, \"button\", 15);\n      i0.ɵɵtext(23, \"G\\u00E9n\\u00E9rer Token\");\n      i0.ɵɵelementEnd();\n      i0.ɵɵelementEnd();\n      i0.ɵɵelementEnd();\n      i0.ɵɵelementEnd();\n      i0.ɵɵelementEnd();\n    }\n\n    if (rf & 2) {\n      i0.ɵɵadvance(2);\n      i0.ɵɵproperty(\"formGroup\", ctx.form);\n      i0.ɵɵadvance(6);\n      i0.ɵɵpropertyInterpolate(\"value\", ctx.name);\n      i0.ɵɵadvance(2);\n      i0.ɵɵproperty(\"ngIf\", ctx.name != \"\");\n      i0.ɵɵadvance(4);\n      i0.ɵɵproperty(\"ngModel\", ctx.enrollment.langue);\n      i0.ɵɵadvance(4);\n      i0.ɵɵproperty(\"ngModel\", ctx.enrollment.langue)(\"checked\", true);\n      i0.ɵɵadvance(3);\n      i0.ɵɵproperty(\"ngIf\", ctx.f[\"lang\"].touched && ctx.f[\"lang\"].invalid);\n      i0.ɵɵadvance(1);\n      i0.ɵɵproperty(\"disabled\", !ctx.form.valid);\n    }\n  },\n  directives: [i1.ɵNgNoValidate, i1.NgControlStatusGroup, i1.FormGroupDirective, i2.NgIf, i1.DefaultValueAccessor, i1.RadioControlValueAccessor, i1.NgControlStatus, i1.FormControlName],\n  styles: [\"\\n/*# sourceMappingURL=data:application/json;base64,eyJ2ZXJzaW9uIjozLCJzb3VyY2VzIjpbXSwibmFtZXMiOltdLCJtYXBwaW5ncyI6IiIsImZpbGUiOiJlbnJvbGxtZW50LmNvbXBvbmVudC5jc3MifQ== */\"]\n});",
  "map": {
    "version": 3,
    "sources": [
      "F:/angulardev/frontWhispeak/src/app/enrollment/enrollment.component.ts"
    ],
    "names": [
      "FormControl",
      "FormGroup",
      "Validators",
      "Enrollment",
      "i0",
      "i1",
      "i2",
      "EnrollmentComponent_button_10_Template",
      "rf",
      "ctx",
      "_r3",
      "ɵɵgetCurrentView",
      "ɵɵelementStart",
      "ɵɵlistener",
      "EnrollmentComponent_button_10_Template_button_click_0_listener",
      "ɵɵrestoreView",
      "ctx_r2",
      "ɵɵnextContext",
      "paste",
      "ɵɵtext",
      "ɵɵelementEnd",
      "EnrollmentComponent_div_21_div_1_Template",
      "EnrollmentComponent_div_21_Template",
      "ɵɵtemplate",
      "ctx_r1",
      "ɵɵadvance",
      "ɵɵproperty",
      "f",
      "errors",
      "EnrollmentComponent",
      "constructor",
      "enrollment",
      "name",
      "form",
      "lang",
      "required",
      "controls",
      "navigator",
      "clipboard",
      "readText",
      "ngOnInit",
      "ɵfac",
      "EnrollmentComponent_Factory",
      "t",
      "ɵcmp",
      "ɵɵdefineComponent",
      "type",
      "selectors",
      "decls",
      "vars",
      "consts",
      "template",
      "EnrollmentComponent_Template",
      "ɵɵelement",
      "EnrollmentComponent_Template_input_ngModelChange_14_listener",
      "$event",
      "langue",
      "EnrollmentComponent_Template_input_ngModelChange_18_listener",
      "ɵɵpropertyInterpolate",
      "touched",
      "invalid",
      "valid",
      "directives",
      "ɵNgNoValidate",
      "NgControlStatusGroup",
      "FormGroupDirective",
      "NgIf",
      "DefaultValueAccessor",
      "RadioControlValueAccessor",
      "NgControlStatus",
      "FormControlName",
      "styles"
    ],
    "mappings": ";AAAA,SAASA,WAAT,EAAsBC,SAAtB,EAAiCC,UAAjC,QAAmD,gBAAnD;AACA,SAASC,UAAT,QAA2B,eAA3B;AACA,OAAO,KAAKC,EAAZ,MAAoB,eAApB;AACA,OAAO,KAAKC,EAAZ,MAAoB,gBAApB;AACA,OAAO,KAAKC,EAAZ,MAAoB,iBAApB;;AACA,SAASC,sCAAT,CAAgDC,EAAhD,EAAoDC,GAApD,EAAyD;AAAE,MAAID,EAAE,GAAG,CAAT,EAAY;AACnE,UAAME,GAAG,GAAGN,EAAE,CAACO,gBAAH,EAAZ;;AACAP,IAAAA,EAAE,CAACQ,cAAH,CAAkB,CAAlB,EAAqB,QAArB,EAA+B,EAA/B;AACAR,IAAAA,EAAE,CAACS,UAAH,CAAc,OAAd,EAAuB,SAASC,8DAAT,GAA0E;AAAEV,MAAAA,EAAE,CAACW,aAAH,CAAiBL,GAAjB;AAAuB,YAAMM,MAAM,GAAGZ,EAAE,CAACa,aAAH,EAAf;AAAmC,aAAOD,MAAM,CAACE,KAAP,EAAP;AAAwB,KAArL;AACAd,IAAAA,EAAE,CAACe,MAAH,CAAU,CAAV,EAAa,QAAb;AACAf,IAAAA,EAAE,CAACgB,YAAH;AACH;AAAE;;AACH,SAASC,yCAAT,CAAmDb,EAAnD,EAAuDC,GAAvD,EAA4D;AAAE,MAAID,EAAE,GAAG,CAAT,EAAY;AACtEJ,IAAAA,EAAE,CAACQ,cAAH,CAAkB,CAAlB,EAAqB,KAArB;AACAR,IAAAA,EAAE,CAACe,MAAH,CAAU,CAAV,EAAa,uBAAb;AACAf,IAAAA,EAAE,CAACgB,YAAH;AACH;AAAE;;AACH,SAASE,mCAAT,CAA6Cd,EAA7C,EAAiDC,GAAjD,EAAsD;AAAE,MAAID,EAAE,GAAG,CAAT,EAAY;AAChEJ,IAAAA,EAAE,CAACQ,cAAH,CAAkB,CAAlB,EAAqB,KAArB,EAA4B,EAA5B;AACAR,IAAAA,EAAE,CAACmB,UAAH,CAAc,CAAd,EAAiBF,yCAAjB,EAA4D,CAA5D,EAA+D,CAA/D,EAAkE,KAAlE,EAAyE,EAAzE;AACAjB,IAAAA,EAAE,CAACgB,YAAH;AACH;;AAAC,MAAIZ,EAAE,GAAG,CAAT,EAAY;AACV,UAAMgB,MAAM,GAAGpB,EAAE,CAACa,aAAH,EAAf;AACAb,IAAAA,EAAE,CAACqB,SAAH,CAAa,CAAb;AACArB,IAAAA,EAAE,CAACsB,UAAH,CAAc,MAAd,EAAsBF,MAAM,CAACG,CAAP,CAAS,MAAT,EAAiBC,MAAjB,IAA2BJ,MAAM,CAACG,CAAP,CAAS,MAAT,EAAiBC,MAAjB,CAAwB,UAAxB,CAAjD;AACH;AAAE;;AACH,OAAO,MAAMC,mBAAN,CAA0B;AAC7B;AACAC,EAAAA,WAAW,GAAG;AACV,SAAKC,UAAL,GAAkB,IAAI5B,UAAJ,EAAlB;AACA,SAAK6B,IAAL,GAAY,EAAZ;AACA,SAAKC,IAAL,GAAY,IAAIhC,SAAJ,CAAc;AACtBiC,MAAAA,IAAI,EAAE,IAAIlC,WAAJ,CAAgB,EAAhB,EAAoBE,UAAU,CAACiC,QAA/B;AADgB,KAAd,CAAZ;AAGH;;AACI,MAADR,CAAC,GAAG;AACJ,WAAO,KAAKM,IAAL,CAAUG,QAAjB;AACH;;AACKlB,EAAAA,KAAK,GAAG;AAAA;;AAAA;AACV,MAAA,KAAI,CAACc,IAAL,SAAkBK,SAAS,CAACC,SAAV,CAAoBC,QAApB,EAAlB;;AACA,MAAA,KAAI,CAACC,QAAL;AAFU;AAGb;;AACDA,EAAAA,QAAQ,GAAG,CACV;;AAjB4B;;AAmBjCX,mBAAmB,CAACY,IAApB,GAA2B,SAASC,2BAAT,CAAqCC,CAArC,EAAwC;AAAE,SAAO,KAAKA,CAAC,IAAId,mBAAV,GAAP;AAA0C,CAA/G;;AACAA,mBAAmB,CAACe,IAApB,GAA2B,aAAcxC,EAAE,CAACyC,iBAAH,CAAqB;AAAEC,EAAAA,IAAI,EAAEjB,mBAAR;AAA6BkB,EAAAA,SAAS,EAAE,CAAC,CAAC,gBAAD,CAAD,CAAxC;AAA8DC,EAAAA,KAAK,EAAE,EAArE;AAAyEC,EAAAA,IAAI,EAAE,CAA/E;AAAkFC,EAAAA,MAAM,EAAE,CAAC,CAAC,CAAD,EAAI,UAAJ,EAAgB,aAAhB,EAA+B,eAA/B,CAAD,EAAkD,CAAC,CAAD,EAAI,WAAJ,CAAlD,EAAoE,CAAC,CAAD,EAAI,WAAJ,CAApE,EAAsF,CAAC,CAAD,EAAI,YAAJ,CAAtF,EAAyG,CAAC,CAAD,EAAI,aAAJ,CAAzG,EAA6H,CAAC,CAAD,EAAI,qBAAJ,CAA7H,EAAyJ,CAAC,CAAD,EAAI,kBAAJ,CAAzJ,EAAkL,CAAC,YAAD,EAAe,eAAf,EAAgC,CAAhC,EAAmC,cAAnC,EAAmD,CAAnD,EAAsD,OAAtD,CAAlL,EAAkP,CAAC,OAAD,EAAU,iBAAV,EAA6B,CAA7B,EAAgC,OAAhC,EAAyC,CAAzC,EAA4C,MAA5C,CAAlP,EAAuS,CAAC,CAAD,EAAI,YAAJ,CAAvS,EAA0T,CAAC,iBAAD,EAAoB,MAApB,EAA4B,OAA5B,EAAqC,IAArC,EAA2C,MAA3C,EAAmD,OAAnD,EAA4D,MAA5D,EAAoE,MAApE,EAA4E,IAA5E,EAAkF,mBAAlF,EAAuG,CAAvG,EAA0G,kBAA1G,EAA8H,CAA9H,EAAiI,SAAjI,EAA4I,eAA5I,CAA1T,EAAwd,CAAC,KAAD,EAAQ,mBAAR,EAA6B,CAA7B,EAAgC,kBAAhC,CAAxd,EAA6gB,CAAC,iBAAD,EAAoB,MAApB,EAA4B,OAA5B,EAAqC,IAArC,EAA2C,MAA3C,EAAmD,OAAnD,EAA4D,MAA5D,EAAoE,MAApE,EAA4E,IAA5E,EAAkF,mBAAlF,EAAuG,CAAvG,EAA0G,kBAA1G,EAA8H,CAA9H,EAAiI,SAAjI,EAA4I,SAA5I,EAAuJ,eAAvJ,CAA7gB,EAAsrB,CAAC,KAAD,EAAQ,mBAAR,EAA6B,CAA7B,EAAgC,kBAAhC,CAAtrB,EAA2uB,CAAC,OAAD,EAAU,oBAAV,EAAgC,CAAhC,EAAmC,MAAnC,CAA3uB,EAAuxB,CAAC,MAAD,EAAS,QAAT,EAAmB,CAAnB,EAAsB,KAAtB,EAA6B,aAA7B,EAA4C,CAA5C,EAA+C,UAA/C,CAAvxB,EAAm1B,CAAC,CAAD,EAAI,KAAJ,EAAW,aAAX,EAA0B,CAA1B,EAA6B,OAA7B,CAAn1B,EAA03B,CAAC,CAAD,EAAI,OAAJ,EAAa,cAAb,CAA13B,EAAw5B,CAAC,CAAD,EAAI,MAAJ,CAAx5B,CAA1F;AAAggCC,EAAAA,QAAQ,EAAE,SAASC,4BAAT,CAAsC5C,EAAtC,EAA0CC,GAA1C,EAA+C;AAAE,QAAID,EAAE,GAAG,CAAT,EAAY;AAC7nCJ,MAAAA,EAAE,CAACQ,cAAH,CAAkB,CAAlB,EAAqB,KAArB,EAA4B,CAA5B;AACAR,MAAAA,EAAE,CAACQ,cAAH,CAAkB,CAAlB,EAAqB,KAArB,EAA4B,CAA5B;AACAR,MAAAA,EAAE,CAACQ,cAAH,CAAkB,CAAlB,EAAqB,MAArB,EAA6B,CAA7B;AACAR,MAAAA,EAAE,CAACQ,cAAH,CAAkB,CAAlB,EAAqB,KAArB,EAA4B,CAA5B;AACAR,MAAAA,EAAE,CAACQ,cAAH,CAAkB,CAAlB,EAAqB,KAArB,EAA4B,CAA5B;AACAR,MAAAA,EAAE,CAACQ,cAAH,CAAkB,CAAlB,EAAqB,KAArB,EAA4B,CAA5B;AACAR,MAAAA,EAAE,CAACQ,cAAH,CAAkB,CAAlB,EAAqB,MAArB,EAA6B,CAA7B;AACAR,MAAAA,EAAE,CAACe,MAAH,CAAU,CAAV,EAAa,OAAb;AACAf,MAAAA,EAAE,CAACgB,YAAH;AACAhB,MAAAA,EAAE,CAACgB,YAAH;AACAhB,MAAAA,EAAE,CAACiD,SAAH,CAAa,CAAb,EAAgB,UAAhB,EAA4B,CAA5B;AACAjD,MAAAA,EAAE,CAACiD,SAAH,CAAa,CAAb,EAAgB,IAAhB;AACAjD,MAAAA,EAAE,CAACmB,UAAH,CAAc,EAAd,EAAkBhB,sCAAlB,EAA0D,CAA1D,EAA6D,CAA7D,EAAgE,QAAhE,EAA0E,CAA1E;AACAH,MAAAA,EAAE,CAACgB,YAAH;AACAhB,MAAAA,EAAE,CAACQ,cAAH,CAAkB,EAAlB,EAAsB,GAAtB;AACAR,MAAAA,EAAE,CAACe,MAAH,CAAU,EAAV,EAAc,oCAAd;AACAf,MAAAA,EAAE,CAACgB,YAAH;AACAhB,MAAAA,EAAE,CAACQ,cAAH,CAAkB,EAAlB,EAAsB,KAAtB,EAA6B,CAA7B;AACAR,MAAAA,EAAE,CAACQ,cAAH,CAAkB,EAAlB,EAAsB,OAAtB,EAA+B,EAA/B;AACAR,MAAAA,EAAE,CAACS,UAAH,CAAc,eAAd,EAA+B,SAASyC,4DAAT,CAAsEC,MAAtE,EAA8E;AAAE,eAAO9C,GAAG,CAACsB,UAAJ,CAAeyB,MAAf,GAAwBD,MAA/B;AAAwC,OAAvJ;AACAnD,MAAAA,EAAE,CAACgB,YAAH;AACAhB,MAAAA,EAAE,CAACQ,cAAH,CAAkB,EAAlB,EAAsB,OAAtB,EAA+B,EAA/B;AACAR,MAAAA,EAAE,CAACe,MAAH,CAAU,EAAV,EAAc,MAAd;AACAf,MAAAA,EAAE,CAACgB,YAAH;AACAhB,MAAAA,EAAE,CAACgB,YAAH;AACAhB,MAAAA,EAAE,CAACQ,cAAH,CAAkB,EAAlB,EAAsB,KAAtB,EAA6B,CAA7B;AACAR,MAAAA,EAAE,CAACQ,cAAH,CAAkB,EAAlB,EAAsB,OAAtB,EAA+B,EAA/B;AACAR,MAAAA,EAAE,CAACS,UAAH,CAAc,eAAd,EAA+B,SAAS4C,4DAAT,CAAsEF,MAAtE,EAA8E;AAAE,eAAO9C,GAAG,CAACsB,UAAJ,CAAeyB,MAAf,GAAwBD,MAA/B;AAAwC,OAAvJ;AACAnD,MAAAA,EAAE,CAACgB,YAAH;AACAhB,MAAAA,EAAE,CAACQ,cAAH,CAAkB,EAAlB,EAAsB,OAAtB,EAA+B,EAA/B;AACAR,MAAAA,EAAE,CAACe,MAAH,CAAU,EAAV,EAAc,MAAd;AACAf,MAAAA,EAAE,CAACgB,YAAH;AACAhB,MAAAA,EAAE,CAACgB,YAAH;AACAhB,MAAAA,EAAE,CAACmB,UAAH,CAAc,EAAd,EAAkBD,mCAAlB,EAAuD,CAAvD,EAA0D,CAA1D,EAA6D,KAA7D,EAAoE,EAApE;AACAlB,MAAAA,EAAE,CAACQ,cAAH,CAAkB,EAAlB,EAAsB,QAAtB,EAAgC,EAAhC;AACAR,MAAAA,EAAE,CAACe,MAAH,CAAU,EAAV,EAAc,yBAAd;AACAf,MAAAA,EAAE,CAACgB,YAAH;AACAhB,MAAAA,EAAE,CAACgB,YAAH;AACAhB,MAAAA,EAAE,CAACgB,YAAH;AACAhB,MAAAA,EAAE,CAACgB,YAAH;AACAhB,MAAAA,EAAE,CAACgB,YAAH;AACH;;AAAC,QAAIZ,EAAE,GAAG,CAAT,EAAY;AACVJ,MAAAA,EAAE,CAACqB,SAAH,CAAa,CAAb;AACArB,MAAAA,EAAE,CAACsB,UAAH,CAAc,WAAd,EAA2BjB,GAAG,CAACwB,IAA/B;AACA7B,MAAAA,EAAE,CAACqB,SAAH,CAAa,CAAb;AACArB,MAAAA,EAAE,CAACsD,qBAAH,CAAyB,OAAzB,EAAkCjD,GAAG,CAACuB,IAAtC;AACA5B,MAAAA,EAAE,CAACqB,SAAH,CAAa,CAAb;AACArB,MAAAA,EAAE,CAACsB,UAAH,CAAc,MAAd,EAAsBjB,GAAG,CAACuB,IAAJ,IAAY,EAAlC;AACA5B,MAAAA,EAAE,CAACqB,SAAH,CAAa,CAAb;AACArB,MAAAA,EAAE,CAACsB,UAAH,CAAc,SAAd,EAAyBjB,GAAG,CAACsB,UAAJ,CAAeyB,MAAxC;AACApD,MAAAA,EAAE,CAACqB,SAAH,CAAa,CAAb;AACArB,MAAAA,EAAE,CAACsB,UAAH,CAAc,SAAd,EAAyBjB,GAAG,CAACsB,UAAJ,CAAeyB,MAAxC,EAAgD,SAAhD,EAA2D,IAA3D;AACApD,MAAAA,EAAE,CAACqB,SAAH,CAAa,CAAb;AACArB,MAAAA,EAAE,CAACsB,UAAH,CAAc,MAAd,EAAsBjB,GAAG,CAACkB,CAAJ,CAAM,MAAN,EAAcgC,OAAd,IAAyBlD,GAAG,CAACkB,CAAJ,CAAM,MAAN,EAAciC,OAA7D;AACAxD,MAAAA,EAAE,CAACqB,SAAH,CAAa,CAAb;AACArB,MAAAA,EAAE,CAACsB,UAAH,CAAc,UAAd,EAA0B,CAACjB,GAAG,CAACwB,IAAJ,CAAS4B,KAApC;AACH;AAAE,GAzDuD;AAyDrDC,EAAAA,UAAU,EAAE,CAACzD,EAAE,CAAC0D,aAAJ,EAAmB1D,EAAE,CAAC2D,oBAAtB,EAA4C3D,EAAE,CAAC4D,kBAA/C,EAAmE3D,EAAE,CAAC4D,IAAtE,EAA4E7D,EAAE,CAAC8D,oBAA/E,EAAqG9D,EAAE,CAAC+D,yBAAxG,EAAmI/D,EAAE,CAACgE,eAAtI,EAAuJhE,EAAE,CAACiE,eAA1J,CAzDyC;AAyDmIC,EAAAA,MAAM,EAAE,CAAC,6KAAD;AAzD3I,CAArB,CAAzC",
    "sourcesContent": [
      "import { FormControl, FormGroup, Validators } from \"@angular/forms\";\r\nimport { Enrollment } from \"../enrollment\";\r\nimport * as i0 from \"@angular/core\";\r\nimport * as i1 from \"@angular/forms\";\r\nimport * as i2 from \"@angular/common\";\r\nfunction EnrollmentComponent_button_10_Template(rf, ctx) { if (rf & 1) {\r\n    const _r3 = i0.ɵɵgetCurrentView();\r\n    i0.ɵɵelementStart(0, \"button\", 16);\r\n    i0.ɵɵlistener(\"click\", function EnrollmentComponent_button_10_Template_button_click_0_listener() { i0.ɵɵrestoreView(_r3); const ctx_r2 = i0.ɵɵnextContext(); return ctx_r2.paste(); });\r\n    i0.ɵɵtext(1, \"Coller\");\r\n    i0.ɵɵelementEnd();\r\n} }\r\nfunction EnrollmentComponent_div_21_div_1_Template(rf, ctx) { if (rf & 1) {\r\n    i0.ɵɵelementStart(0, \"div\");\r\n    i0.ɵɵtext(1, \"Language is required.\");\r\n    i0.ɵɵelementEnd();\r\n} }\r\nfunction EnrollmentComponent_div_21_Template(rf, ctx) { if (rf & 1) {\r\n    i0.ɵɵelementStart(0, \"div\", 17);\r\n    i0.ɵɵtemplate(1, EnrollmentComponent_div_21_div_1_Template, 2, 0, \"div\", 18);\r\n    i0.ɵɵelementEnd();\r\n} if (rf & 2) {\r\n    const ctx_r1 = i0.ɵɵnextContext();\r\n    i0.ɵɵadvance(1);\r\n    i0.ɵɵproperty(\"ngIf\", ctx_r1.f[\"lang\"].errors || ctx_r1.f[\"lang\"].errors[\"required\"]);\r\n} }\r\nexport class EnrollmentComponent {\r\n    //token:any;\r\n    constructor() {\r\n        this.enrollment = new Enrollment();\r\n        this.name = '';\r\n        this.form = new FormGroup({\r\n            lang: new FormControl('', Validators.required)\r\n        });\r\n    }\r\n    get f() {\r\n        return this.form.controls;\r\n    }\r\n    async paste() {\r\n        this.name = await navigator.clipboard.readText();\r\n        this.ngOnInit();\r\n    }\r\n    ngOnInit() {\r\n    }\r\n}\r\nEnrollmentComponent.ɵfac = function EnrollmentComponent_Factory(t) { return new (t || EnrollmentComponent)(); };\r\nEnrollmentComponent.ɵcmp = /*@__PURE__*/ i0.ɵɵdefineComponent({ type: EnrollmentComponent, selectors: [[\"app-enrollment\"]], decls: 24, vars: 8, consts: [[1, \"col-md-4\", \"offset-md-3\", \"register-form\"], [1, \"container\"], [3, \"formGroup\"], [1, \"form-group\"], [1, \"input-group\"], [1, \"input-group-prepend\"], [1, \"input-group-text\"], [\"aria-label\", \"With textarea\", 1, \"form-control\", 3, \"value\"], [\"class\", \"btn btn-primary\", 3, \"click\", 4, \"ngIf\"], [1, \"form-check\"], [\"formControlName\", \"lang\", \"value\", \"en\", \"type\", \"radio\", \"name\", \"lang\", \"id\", \"flexRadioDefault1\", 1, \"form-check-input\", 3, \"ngModel\", \"ngModelChange\"], [\"for\", \"flexRadioDefault1\", 1, \"form-check-label\"], [\"formControlName\", \"lang\", \"value\", \"fr\", \"type\", \"radio\", \"name\", \"lang\", \"id\", \"flexRadioDefault2\", 1, \"form-check-input\", 3, \"ngModel\", \"checked\", \"ngModelChange\"], [\"for\", \"flexRadioDefault2\", 1, \"form-check-label\"], [\"class\", \"alert alert-danger\", 4, \"ngIf\"], [\"type\", \"submit\", 1, \"btn\", \"btn-primary\", 3, \"disabled\"], [1, \"btn\", \"btn-primary\", 3, \"click\"], [1, \"alert\", \"alert-danger\"], [4, \"ngIf\"]], template: function EnrollmentComponent_Template(rf, ctx) { if (rf & 1) {\r\n        i0.ɵɵelementStart(0, \"div\", 0);\r\n        i0.ɵɵelementStart(1, \"div\", 1);\r\n        i0.ɵɵelementStart(2, \"form\", 2);\r\n        i0.ɵɵelementStart(3, \"div\", 3);\r\n        i0.ɵɵelementStart(4, \"div\", 4);\r\n        i0.ɵɵelementStart(5, \"div\", 5);\r\n        i0.ɵɵelementStart(6, \"span\", 6);\r\n        i0.ɵɵtext(7, \"Token\");\r\n        i0.ɵɵelementEnd();\r\n        i0.ɵɵelementEnd();\r\n        i0.ɵɵelement(8, \"textarea\", 7);\r\n        i0.ɵɵelement(9, \"br\");\r\n        i0.ɵɵtemplate(10, EnrollmentComponent_button_10_Template, 2, 0, \"button\", 8);\r\n        i0.ɵɵelementEnd();\r\n        i0.ɵɵelementStart(11, \"p\");\r\n        i0.ɵɵtext(12, \"Indiquez la langue \\u00E0 utiliser\");\r\n        i0.ɵɵelementEnd();\r\n        i0.ɵɵelementStart(13, \"div\", 9);\r\n        i0.ɵɵelementStart(14, \"input\", 10);\r\n        i0.ɵɵlistener(\"ngModelChange\", function EnrollmentComponent_Template_input_ngModelChange_14_listener($event) { return ctx.enrollment.langue = $event; });\r\n        i0.ɵɵelementEnd();\r\n        i0.ɵɵelementStart(15, \"label\", 11);\r\n        i0.ɵɵtext(16, \" EN \");\r\n        i0.ɵɵelementEnd();\r\n        i0.ɵɵelementEnd();\r\n        i0.ɵɵelementStart(17, \"div\", 9);\r\n        i0.ɵɵelementStart(18, \"input\", 12);\r\n        i0.ɵɵlistener(\"ngModelChange\", function EnrollmentComponent_Template_input_ngModelChange_18_listener($event) { return ctx.enrollment.langue = $event; });\r\n        i0.ɵɵelementEnd();\r\n        i0.ɵɵelementStart(19, \"label\", 13);\r\n        i0.ɵɵtext(20, \" FR \");\r\n        i0.ɵɵelementEnd();\r\n        i0.ɵɵelementEnd();\r\n        i0.ɵɵtemplate(21, EnrollmentComponent_div_21_Template, 2, 1, \"div\", 14);\r\n        i0.ɵɵelementStart(22, \"button\", 15);\r\n        i0.ɵɵtext(23, \"G\\u00E9n\\u00E9rer Token\");\r\n        i0.ɵɵelementEnd();\r\n        i0.ɵɵelementEnd();\r\n        i0.ɵɵelementEnd();\r\n        i0.ɵɵelementEnd();\r\n        i0.ɵɵelementEnd();\r\n    } if (rf & 2) {\r\n        i0.ɵɵadvance(2);\r\n        i0.ɵɵproperty(\"formGroup\", ctx.form);\r\n        i0.ɵɵadvance(6);\r\n        i0.ɵɵpropertyInterpolate(\"value\", ctx.name);\r\n        i0.ɵɵadvance(2);\r\n        i0.ɵɵproperty(\"ngIf\", ctx.name != \"\");\r\n        i0.ɵɵadvance(4);\r\n        i0.ɵɵproperty(\"ngModel\", ctx.enrollment.langue);\r\n        i0.ɵɵadvance(4);\r\n        i0.ɵɵproperty(\"ngModel\", ctx.enrollment.langue)(\"checked\", true);\r\n        i0.ɵɵadvance(3);\r\n        i0.ɵɵproperty(\"ngIf\", ctx.f[\"lang\"].touched && ctx.f[\"lang\"].invalid);\r\n        i0.ɵɵadvance(1);\r\n        i0.ɵɵproperty(\"disabled\", !ctx.form.valid);\r\n    } }, directives: [i1.ɵNgNoValidate, i1.NgControlStatusGroup, i1.FormGroupDirective, i2.NgIf, i1.DefaultValueAccessor, i1.RadioControlValueAccessor, i1.NgControlStatus, i1.FormControlName], styles: [\"\\n/*# sourceMappingURL=data:application/json;base64,eyJ2ZXJzaW9uIjozLCJzb3VyY2VzIjpbXSwibmFtZXMiOltdLCJtYXBwaW5ncyI6IiIsImZpbGUiOiJlbnJvbGxtZW50LmNvbXBvbmVudC5jc3MifQ== */\"] });\r\n"
    ]
  },
  "metadata": {},
  "sourceType": "module"
}
