{
  "ast": null,
  "code": "import _asyncToGenerator from \"F:/angulardev/frontWhispeak/node_modules/@babel/runtime/helpers/esm/asyncToGenerator\";\nimport { GenerateToken } from \"../generate-token\";\nimport { FormControl, FormGroup, Validators } from \"@angular/forms\";\nimport * as i0 from \"@angular/core\";\nimport * as i1 from \"../generate-token.service\";\nimport * as i2 from \"@angular/router\";\n\nfunction GenerateTokenComponent_div_16_div_1_Template(rf, ctx) {\n  if (rf & 1) {\n    i0.ɵɵelementStart(0, \"div\");\n    i0.ɵɵtext(1, \"Language is required.\");\n    i0.ɵɵelementEnd();\n  }\n}\n\nfunction GenerateTokenComponent_div_16_Template(rf, ctx) {\n  if (rf & 1) {\n    i0.ɵɵelementStart(0, \"div\", 15);\n    i0.ɵɵtemplate(1, GenerateTokenComponent_div_16_div_1_Template, 2, 0, \"div\", 16);\n    i0.ɵɵelementEnd();\n  }\n\n  if (rf & 2) {\n    const ctx_r0 = i0.ɵɵnextContext();\n    i0.ɵɵadvance(1);\n    i0.ɵɵproperty(\"ngIf\", ctx_r0.f[\"lang\"].errors || ctx_r0.f[\"lang\"].errors[\"required\"]);\n  }\n}\n\nfunction GenerateTokenComponent_div_17_Template(rf, ctx) {\n  if (rf & 1) {\n    const _r8 = i0.ɵɵgetCurrentView();\n\n    i0.ɵɵelementStart(0, \"div\", 17);\n    i0.ɵɵelementStart(1, \"div\", 18);\n    i0.ɵɵelementStart(2, \"span\", 19);\n    i0.ɵɵtext(3, \"Token\");\n    i0.ɵɵelementEnd();\n    i0.ɵɵelementEnd();\n    i0.ɵɵelement(4, \"textarea\", 20, 21);\n    i0.ɵɵelement(6, \"br\");\n    i0.ɵɵelementStart(7, \"button\", 22);\n    i0.ɵɵlistener(\"click\", function GenerateTokenComponent_div_17_Template_button_click_7_listener() {\n      i0.ɵɵrestoreView(_r8);\n      const ctx_r7 = i0.ɵɵnextContext();\n      return ctx_r7.increment();\n    });\n    i0.ɵɵtext(8, \"Copier\");\n    i0.ɵɵelementEnd();\n    i0.ɵɵelementEnd();\n  }\n\n  if (rf & 2) {\n    const _r6 = i0.ɵɵreference(5);\n\n    const ctx_r1 = i0.ɵɵnextContext();\n    i0.ɵɵadvance(4);\n    i0.ɵɵpropertyInterpolate(\"value\", ctx_r1.token);\n    i0.ɵɵproperty(\"readonly\", true);\n    i0.ɵɵadvance(3);\n    i0.ɵɵproperty(\"ngxClipboard\", _r6);\n  }\n}\n\nfunction GenerateTokenComponent_div_19_Template(rf, ctx) {\n  if (rf & 1) {\n    i0.ɵɵelementStart(0, \"div\", 23);\n    i0.ɵɵelementStart(1, \"div\", 18);\n    i0.ɵɵelementStart(2, \"span\", 24);\n    i0.ɵɵtext(3, \"Date cr\\u00E9ation\");\n    i0.ɵɵelementEnd();\n    i0.ɵɵelementEnd();\n    i0.ɵɵelement(4, \"input\", 25);\n    i0.ɵɵpipe(5, \"date\");\n    i0.ɵɵelementEnd();\n  }\n\n  if (rf & 2) {\n    const ctx_r2 = i0.ɵɵnextContext();\n    i0.ɵɵadvance(4);\n    i0.ɵɵpropertyInterpolate(\"value\", i0.ɵɵpipeBind2(5, 2, ctx_r2.date_creation, \"dd-MMM-yyyy hh:mm:ss\"));\n    i0.ɵɵproperty(\"readonly\", true);\n  }\n}\n\nfunction GenerateTokenComponent_div_20_Template(rf, ctx) {\n  if (rf & 1) {\n    i0.ɵɵelementStart(0, \"div\", 23);\n    i0.ɵɵelementStart(1, \"div\", 18);\n    i0.ɵɵelementStart(2, \"span\", 26);\n    i0.ɵɵtext(3, \"Date expiration\");\n    i0.ɵɵelementEnd();\n    i0.ɵɵelementEnd();\n    i0.ɵɵelement(4, \"input\", 27);\n    i0.ɵɵpipe(5, \"date\");\n    i0.ɵɵelementEnd();\n  }\n\n  if (rf & 2) {\n    const ctx_r3 = i0.ɵɵnextContext();\n    i0.ɵɵadvance(4);\n    i0.ɵɵpropertyInterpolate(\"value\", i0.ɵɵpipeBind2(5, 2, ctx_r3.date_expiration, \"dd-MMM-yyyy hh:mm:ss\"));\n    i0.ɵɵproperty(\"readonly\", true);\n  }\n}\n\nfunction GenerateTokenComponent_div_24_button_10_Template(rf, ctx) {\n  if (rf & 1) {\n    const _r12 = i0.ɵɵgetCurrentView();\n\n    i0.ɵɵelementStart(0, \"button\", 33);\n    i0.ɵɵlistener(\"click\", function GenerateTokenComponent_div_24_button_10_Template_button_click_0_listener() {\n      i0.ɵɵrestoreView(_r12);\n      const ctx_r11 = i0.ɵɵnextContext(2);\n      return ctx_r11.paste();\n    });\n    i0.ɵɵtext(1, \"Coller\");\n    i0.ɵɵelementEnd();\n  }\n}\n\nfunction GenerateTokenComponent_div_24_div_21_div_1_Template(rf, ctx) {\n  if (rf & 1) {\n    i0.ɵɵelementStart(0, \"div\");\n    i0.ɵɵtext(1, \"Language is required.\");\n    i0.ɵɵelementEnd();\n  }\n}\n\nfunction GenerateTokenComponent_div_24_div_21_Template(rf, ctx) {\n  if (rf & 1) {\n    i0.ɵɵelementStart(0, \"div\", 15);\n    i0.ɵɵtemplate(1, GenerateTokenComponent_div_24_div_21_div_1_Template, 2, 0, \"div\", 16);\n    i0.ɵɵelementEnd();\n  }\n\n  if (rf & 2) {\n    const ctx_r10 = i0.ɵɵnextContext(2);\n    i0.ɵɵadvance(1);\n    i0.ɵɵproperty(\"ngIf\", ctx_r10.f2[\"langu\"].errors || ctx_r10.f[\"langu\"].errors[\"required\"]);\n  }\n}\n\nfunction GenerateTokenComponent_div_24_Template(rf, ctx) {\n  if (rf & 1) {\n    const _r15 = i0.ɵɵgetCurrentView();\n\n    i0.ɵɵelementStart(0, \"div\", 0);\n    i0.ɵɵelementStart(1, \"div\", 1);\n    i0.ɵɵelementStart(2, \"form\", 28);\n    i0.ɵɵelementStart(3, \"div\", 4);\n    i0.ɵɵelementStart(4, \"div\", 17);\n    i0.ɵɵelementStart(5, \"div\", 18);\n    i0.ɵɵelementStart(6, \"span\", 19);\n    i0.ɵɵtext(7, \"Token\");\n    i0.ɵɵelementEnd();\n    i0.ɵɵelementEnd();\n    i0.ɵɵelement(8, \"textarea\", 29);\n    i0.ɵɵelement(9, \"br\");\n    i0.ɵɵtemplate(10, GenerateTokenComponent_div_24_button_10_Template, 2, 0, \"button\", 30);\n    i0.ɵɵelementEnd();\n    i0.ɵɵelementStart(11, \"p\");\n    i0.ɵɵtext(12, \"Indiquez la langue \\u00E0 utiliser\");\n    i0.ɵɵelementEnd();\n    i0.ɵɵelementStart(13, \"div\", 5);\n    i0.ɵɵelementStart(14, \"input\", 31);\n    i0.ɵɵlistener(\"ngModelChange\", function GenerateTokenComponent_div_24_Template_input_ngModelChange_14_listener($event) {\n      i0.ɵɵrestoreView(_r15);\n      const ctx_r14 = i0.ɵɵnextContext();\n      return ctx_r14.generatetoken.langue2 = $event;\n    });\n    i0.ɵɵelementEnd();\n    i0.ɵɵelementStart(15, \"label\", 7);\n    i0.ɵɵtext(16, \" EN \");\n    i0.ɵɵelementEnd();\n    i0.ɵɵelementEnd();\n    i0.ɵɵelementStart(17, \"div\", 5);\n    i0.ɵɵelementStart(18, \"input\", 32);\n    i0.ɵɵlistener(\"ngModelChange\", function GenerateTokenComponent_div_24_Template_input_ngModelChange_18_listener($event) {\n      i0.ɵɵrestoreView(_r15);\n      const ctx_r16 = i0.ɵɵnextContext();\n      return ctx_r16.generatetoken.langue2 = $event;\n    });\n    i0.ɵɵelementEnd();\n    i0.ɵɵelementStart(19, \"label\", 9);\n    i0.ɵɵtext(20, \" FR \");\n    i0.ɵɵelementEnd();\n    i0.ɵɵelementEnd();\n    i0.ɵɵtemplate(21, GenerateTokenComponent_div_24_div_21_Template, 2, 1, \"div\", 10);\n    i0.ɵɵelementStart(22, \"button\", 13);\n    i0.ɵɵtext(23, \"G\\u00E9n\\u00E9rer Token\");\n    i0.ɵɵelementEnd();\n    i0.ɵɵelementEnd();\n    i0.ɵɵelementEnd();\n    i0.ɵɵelementEnd();\n    i0.ɵɵelementEnd();\n  }\n\n  if (rf & 2) {\n    const ctx_r4 = i0.ɵɵnextContext();\n    i0.ɵɵadvance(2);\n    i0.ɵɵproperty(\"formGroup\", ctx_r4.form1);\n    i0.ɵɵadvance(6);\n    i0.ɵɵpropertyInterpolate(\"value\", ctx_r4.name);\n    i0.ɵɵadvance(2);\n    i0.ɵɵproperty(\"ngIf\", ctx_r4.p > 0);\n    i0.ɵɵadvance(4);\n    i0.ɵɵproperty(\"ngModel\", ctx_r4.generatetoken.langue2);\n    i0.ɵɵadvance(4);\n    i0.ɵɵproperty(\"ngModel\", ctx_r4.generatetoken.langue2)(\"checked\", true);\n    i0.ɵɵadvance(3);\n    i0.ɵɵproperty(\"ngIf\", ctx_r4.f2[\"langu\"].touched && ctx_r4.f[\"langu\"].invalid);\n    i0.ɵɵadvance(1);\n    i0.ɵɵproperty(\"disabled\", !ctx_r4.form1.valid);\n  }\n}\n\nexport class GenerateTokenComponent {\n  constructor(genTokenService, router) {\n    this.genTokenService = genTokenService;\n    this.router = router;\n    this.afficher = false;\n    this.r = 0;\n    this.p = 0;\n    this.generatetoken = new GenerateToken();\n    this.form = new FormGroup({\n      lang: new FormControl('', Validators.required)\n    });\n    this.name = ''; //token:any;\n\n    this.form1 = new FormGroup({\n      langu: new FormControl('', Validators.required)\n    });\n  }\n\n  get f() {\n    return this.form.controls;\n  }\n\n  genToken() {\n    let langue = this.form.value + \"\";\n    console.log(typeof langue.toString());\n\n    if (langue.includes('f')) {\n      langue = \"fr\";\n    } else {\n      langue = \"en\";\n    }\n\n    this.genTokenService.generateToken(langue).subscribe(data => {\n      this.afficher = true; //this.copyToken(data['token']);\n\n      this.r++;\n      console.log(data['token']);\n      this.token = data['token'];\n      this.date_creation = data['created_at'];\n      this.date_expiration = data['expire_at']; //this.enrollment.copyToken();\n    }, error => console.log(error));\n  }\n  /*copyToken(tk):string{\r\n    this.token=tk;\r\n    return this.token;\r\n  }*/\n\n\n  ngOnInit() {}\n\n  increment() {\n    this.p++;\n  }\n\n  get f2() {\n    return this.form1.controls;\n  }\n\n  paste() {\n    var _this = this;\n\n    return _asyncToGenerator(function* () {\n      _this.name = yield navigator.clipboard.readText();\n    })();\n  }\n\n}\n\nGenerateTokenComponent.ɵfac = function GenerateTokenComponent_Factory(t) {\n  return new (t || GenerateTokenComponent)(i0.ɵɵdirectiveInject(i1.GenerateTokenService), i0.ɵɵdirectiveInject(i2.Router));\n};\n\nGenerateTokenComponent.ɵcmp = /*@__PURE__*/i0.ɵɵdefineComponent({\n  type: GenerateTokenComponent,\n  selectors: [[\"app-generate-token\"]],\n  decls: 25,\n  vars: 10,\n  consts: [[1, \"col-md-4\", \"offset-md-3\", \"register-form\"], [1, \"container\"], [\"text-weight\", \"bold\"], [3, \"formGroup\", \"ngSubmit\"], [1, \"form-group\"], [1, \"form-check\"], [\"formControlName\", \"lang\", \"value\", \"en\", \"type\", \"radio\", \"name\", \"lang\", \"id\", \"flexRadioDefault1\", 1, \"form-check-input\", 3, \"ngModel\", \"ngModelChange\"], [\"for\", \"flexRadioDefault1\", 1, \"form-check-label\"], [\"formControlName\", \"lang\", \"value\", \"fr\", \"type\", \"radio\", \"name\", \"lang\", \"id\", \"flexRadioDefault2\", 1, \"form-check-input\", 3, \"ngModel\", \"checked\", \"ngModelChange\"], [\"for\", \"flexRadioDefault2\", 1, \"form-check-label\"], [\"class\", \"alert alert-danger\", 4, \"ngIf\"], [\"class\", \"input-group\", 4, \"ngIf\"], [\"class\", \"input-group mb-3\", 4, \"ngIf\"], [\"type\", \"submit\", 1, \"btn\", \"btn-primary\", 3, \"disabled\"], [\"class\", \"col-md-4 offset-md-3 register-form\", 4, \"ngIf\"], [1, \"alert\", \"alert-danger\"], [4, \"ngIf\"], [1, \"input-group\"], [1, \"input-group-prepend\"], [1, \"input-group-text\"], [\"aria-label\", \"With textarea\", 1, \"form-control\", 3, \"readonly\", \"value\"], [\"text\", \"\"], [1, \"btn\", \"btn-primary\", 3, \"ngxClipboard\", \"click\"], [1, \"input-group\", \"mb-3\"], [\"id\", \"basic-addon2\", 1, \"input-group-text\"], [\"type\", \"text\", \"id\", \"basic-url2\", \"aria-describedby\", \"basic-addon3\", 1, \"form-control\", 3, \"value\", \"readonly\"], [\"id\", \"basic-addon3\", 1, \"input-group-text\"], [\"type\", \"text\", \"id\", \"basic-url\", \"aria-describedby\", \"basic-addon3\", 1, \"form-control\", 3, \"value\", \"readonly\"], [3, \"formGroup\"], [\"aria-label\", \"With textarea\", 1, \"form-control\", 3, \"value\"], [\"class\", \"btn btn-primary\", 3, \"click\", 4, \"ngIf\"], [\"formControlName\", \"langu\", \"value\", \"en\", \"type\", \"radio\", \"name\", \"langu\", \"id\", \"flexRadioDefault3\", 1, \"form-check-input\", 3, \"ngModel\", \"ngModelChange\"], [\"formControlName\", \"langu\", \"value\", \"fr\", \"type\", \"radio\", \"name\", \"langu\", \"id\", \"flexRadioDefault4\", 1, \"form-check-input\", 3, \"ngModel\", \"checked\", \"ngModelChange\"], [1, \"btn\", \"btn-primary\", 3, \"click\"]],\n  template: function GenerateTokenComponent_Template(rf, ctx) {\n    if (rf & 1) {\n      i0.ɵɵelementStart(0, \"div\", 0);\n      i0.ɵɵelementStart(1, \"div\", 1);\n      i0.ɵɵelementStart(2, \"p\", 2);\n      i0.ɵɵtext(3, \"NB: Le token ne dure que 5 minutes\");\n      i0.ɵɵelementEnd();\n      i0.ɵɵelementStart(4, \"form\", 3);\n      i0.ɵɵlistener(\"ngSubmit\", function GenerateTokenComponent_Template_form_ngSubmit_4_listener() {\n        return ctx.genToken();\n      });\n      i0.ɵɵelementStart(5, \"div\", 4);\n      i0.ɵɵelementStart(6, \"p\");\n      i0.ɵɵtext(7, \"Indiquez la langue \\u00E0 utiliser\");\n      i0.ɵɵelementEnd();\n      i0.ɵɵelementStart(8, \"div\", 5);\n      i0.ɵɵelementStart(9, \"input\", 6);\n      i0.ɵɵlistener(\"ngModelChange\", function GenerateTokenComponent_Template_input_ngModelChange_9_listener($event) {\n        return ctx.generatetoken.langue = $event;\n      });\n      i0.ɵɵelementEnd();\n      i0.ɵɵelementStart(10, \"label\", 7);\n      i0.ɵɵtext(11, \" EN \");\n      i0.ɵɵelementEnd();\n      i0.ɵɵelementEnd();\n      i0.ɵɵelementStart(12, \"div\", 5);\n      i0.ɵɵelementStart(13, \"input\", 8);\n      i0.ɵɵlistener(\"ngModelChange\", function GenerateTokenComponent_Template_input_ngModelChange_13_listener($event) {\n        return ctx.generatetoken.langue = $event;\n      });\n      i0.ɵɵelementEnd();\n      i0.ɵɵelementStart(14, \"label\", 9);\n      i0.ɵɵtext(15, \" FR \");\n      i0.ɵɵelementEnd();\n      i0.ɵɵelementEnd();\n      i0.ɵɵtemplate(16, GenerateTokenComponent_div_16_Template, 2, 1, \"div\", 10);\n      i0.ɵɵtemplate(17, GenerateTokenComponent_div_17_Template, 9, 3, \"div\", 11);\n      i0.ɵɵelement(18, \"br\");\n      i0.ɵɵtemplate(19, GenerateTokenComponent_div_19_Template, 6, 5, \"div\", 12);\n      i0.ɵɵtemplate(20, GenerateTokenComponent_div_20_Template, 6, 5, \"div\", 12);\n      i0.ɵɵelementStart(21, \"button\", 13);\n      i0.ɵɵtext(22, \"G\\u00E9n\\u00E9rer Token\");\n      i0.ɵɵelementEnd();\n      i0.ɵɵelementEnd();\n      i0.ɵɵelementEnd();\n      i0.ɵɵelementEnd();\n      i0.ɵɵelementEnd();\n      i0.ɵɵelement(23, \"br\");\n      i0.ɵɵtemplate(24, GenerateTokenComponent_div_24_Template, 24, 8, \"div\", 14);\n    }\n\n    if (rf & 2) {\n      i0.ɵɵadvance(4);\n      i0.ɵɵproperty(\"formGroup\", ctx.form);\n      i0.ɵɵadvance(5);\n      i0.ɵɵproperty(\"ngModel\", ctx.generatetoken.langue);\n      i0.ɵɵadvance(4);\n      i0.ɵɵproperty(\"ngModel\", ctx.generatetoken.langue)(\"checked\", true);\n      i0.ɵɵadvance(3);\n      i0.ɵɵproperty(\"ngIf\", ctx.f[\"lang\"].touched && ctx.f[\"lang\"].invalid);\n      i0.ɵɵadvance(1);\n      i0.ɵɵproperty(\"ngIf\", ctx.afficher);\n      i0.ɵɵadvance(2);\n      i0.ɵɵproperty(\"ngIf\", ctx.afficher);\n      i0.ɵɵadvance(1);\n      i0.ɵɵproperty(\"ngIf\", ctx.afficher);\n      i0.ɵɵadvance(1);\n      i0.ɵɵproperty(\"disabled\", !ctx.form.valid);\n      i0.ɵɵadvance(3);\n      i0.ɵɵproperty(\"ngIf\", ctx.r > 0);\n    }\n  },\n  styles: [\"\\n/*# sourceMappingURL=data:application/json;base64,eyJ2ZXJzaW9uIjozLCJzb3VyY2VzIjpbXSwibmFtZXMiOltdLCJtYXBwaW5ncyI6IiIsImZpbGUiOiJnZW5lcmF0ZS10b2tlbi5jb21wb25lbnQuY3NzIn0= */\"]\n});",
  "map": {
    "version": 3,
    "sources": [
      "F:/angulardev/frontWhispeak/src/app/generate-token/generate-token.component.ts"
    ],
    "names": [
      "GenerateToken",
      "FormControl",
      "FormGroup",
      "Validators",
      "i0",
      "i1",
      "i2",
      "GenerateTokenComponent_div_16_div_1_Template",
      "rf",
      "ctx",
      "ɵɵelementStart",
      "ɵɵtext",
      "ɵɵelementEnd",
      "GenerateTokenComponent_div_16_Template",
      "ɵɵtemplate",
      "ctx_r0",
      "ɵɵnextContext",
      "ɵɵadvance",
      "ɵɵproperty",
      "f",
      "errors",
      "GenerateTokenComponent_div_17_Template",
      "_r8",
      "ɵɵgetCurrentView",
      "ɵɵelement",
      "ɵɵlistener",
      "GenerateTokenComponent_div_17_Template_button_click_7_listener",
      "ɵɵrestoreView",
      "ctx_r7",
      "increment",
      "_r6",
      "ɵɵreference",
      "ctx_r1",
      "ɵɵpropertyInterpolate",
      "token",
      "GenerateTokenComponent_div_19_Template",
      "ɵɵpipe",
      "ctx_r2",
      "ɵɵpipeBind2",
      "date_creation",
      "GenerateTokenComponent_div_20_Template",
      "ctx_r3",
      "date_expiration",
      "GenerateTokenComponent_div_24_button_10_Template",
      "_r12",
      "GenerateTokenComponent_div_24_button_10_Template_button_click_0_listener",
      "ctx_r11",
      "paste",
      "GenerateTokenComponent_div_24_div_21_div_1_Template",
      "GenerateTokenComponent_div_24_div_21_Template",
      "ctx_r10",
      "f2",
      "GenerateTokenComponent_div_24_Template",
      "_r15",
      "GenerateTokenComponent_div_24_Template_input_ngModelChange_14_listener",
      "$event",
      "ctx_r14",
      "generatetoken",
      "langue2",
      "GenerateTokenComponent_div_24_Template_input_ngModelChange_18_listener",
      "ctx_r16",
      "ctx_r4",
      "form1",
      "name",
      "p",
      "touched",
      "invalid",
      "valid",
      "GenerateTokenComponent",
      "constructor",
      "genTokenService",
      "router",
      "afficher",
      "r",
      "form",
      "lang",
      "required",
      "langu",
      "controls",
      "genToken",
      "langue",
      "value",
      "console",
      "log",
      "toString",
      "includes",
      "generateToken",
      "subscribe",
      "data",
      "error",
      "ngOnInit",
      "navigator",
      "clipboard",
      "readText",
      "ɵfac",
      "GenerateTokenComponent_Factory",
      "t",
      "ɵɵdirectiveInject",
      "GenerateTokenService",
      "Router",
      "ɵcmp",
      "ɵɵdefineComponent",
      "type",
      "selectors",
      "decls",
      "vars",
      "consts",
      "template",
      "GenerateTokenComponent_Template",
      "GenerateTokenComponent_Template_form_ngSubmit_4_listener",
      "GenerateTokenComponent_Template_input_ngModelChange_9_listener",
      "GenerateTokenComponent_Template_input_ngModelChange_13_listener",
      "styles"
    ],
    "mappings": ";AAAA,SAASA,aAAT,QAA8B,mBAA9B;AACA,SAASC,WAAT,EAAsBC,SAAtB,EAAiCC,UAAjC,QAAmD,gBAAnD;AACA,OAAO,KAAKC,EAAZ,MAAoB,eAApB;AACA,OAAO,KAAKC,EAAZ,MAAoB,2BAApB;AACA,OAAO,KAAKC,EAAZ,MAAoB,iBAApB;;AACA,SAASC,4CAAT,CAAsDC,EAAtD,EAA0DC,GAA1D,EAA+D;AAAE,MAAID,EAAE,GAAG,CAAT,EAAY;AACzEJ,IAAAA,EAAE,CAACM,cAAH,CAAkB,CAAlB,EAAqB,KAArB;AACAN,IAAAA,EAAE,CAACO,MAAH,CAAU,CAAV,EAAa,uBAAb;AACAP,IAAAA,EAAE,CAACQ,YAAH;AACH;AAAE;;AACH,SAASC,sCAAT,CAAgDL,EAAhD,EAAoDC,GAApD,EAAyD;AAAE,MAAID,EAAE,GAAG,CAAT,EAAY;AACnEJ,IAAAA,EAAE,CAACM,cAAH,CAAkB,CAAlB,EAAqB,KAArB,EAA4B,EAA5B;AACAN,IAAAA,EAAE,CAACU,UAAH,CAAc,CAAd,EAAiBP,4CAAjB,EAA+D,CAA/D,EAAkE,CAAlE,EAAqE,KAArE,EAA4E,EAA5E;AACAH,IAAAA,EAAE,CAACQ,YAAH;AACH;;AAAC,MAAIJ,EAAE,GAAG,CAAT,EAAY;AACV,UAAMO,MAAM,GAAGX,EAAE,CAACY,aAAH,EAAf;AACAZ,IAAAA,EAAE,CAACa,SAAH,CAAa,CAAb;AACAb,IAAAA,EAAE,CAACc,UAAH,CAAc,MAAd,EAAsBH,MAAM,CAACI,CAAP,CAAS,MAAT,EAAiBC,MAAjB,IAA2BL,MAAM,CAACI,CAAP,CAAS,MAAT,EAAiBC,MAAjB,CAAwB,UAAxB,CAAjD;AACH;AAAE;;AACH,SAASC,sCAAT,CAAgDb,EAAhD,EAAoDC,GAApD,EAAyD;AAAE,MAAID,EAAE,GAAG,CAAT,EAAY;AACnE,UAAMc,GAAG,GAAGlB,EAAE,CAACmB,gBAAH,EAAZ;;AACAnB,IAAAA,EAAE,CAACM,cAAH,CAAkB,CAAlB,EAAqB,KAArB,EAA4B,EAA5B;AACAN,IAAAA,EAAE,CAACM,cAAH,CAAkB,CAAlB,EAAqB,KAArB,EAA4B,EAA5B;AACAN,IAAAA,EAAE,CAACM,cAAH,CAAkB,CAAlB,EAAqB,MAArB,EAA6B,EAA7B;AACAN,IAAAA,EAAE,CAACO,MAAH,CAAU,CAAV,EAAa,OAAb;AACAP,IAAAA,EAAE,CAACQ,YAAH;AACAR,IAAAA,EAAE,CAACQ,YAAH;AACAR,IAAAA,EAAE,CAACoB,SAAH,CAAa,CAAb,EAAgB,UAAhB,EAA4B,EAA5B,EAAgC,EAAhC;AACApB,IAAAA,EAAE,CAACoB,SAAH,CAAa,CAAb,EAAgB,IAAhB;AACApB,IAAAA,EAAE,CAACM,cAAH,CAAkB,CAAlB,EAAqB,QAArB,EAA+B,EAA/B;AACAN,IAAAA,EAAE,CAACqB,UAAH,CAAc,OAAd,EAAuB,SAASC,8DAAT,GAA0E;AAAEtB,MAAAA,EAAE,CAACuB,aAAH,CAAiBL,GAAjB;AAAuB,YAAMM,MAAM,GAAGxB,EAAE,CAACY,aAAH,EAAf;AAAmC,aAAOY,MAAM,CAACC,SAAP,EAAP;AAA4B,KAAzL;AACAzB,IAAAA,EAAE,CAACO,MAAH,CAAU,CAAV,EAAa,QAAb;AACAP,IAAAA,EAAE,CAACQ,YAAH;AACAR,IAAAA,EAAE,CAACQ,YAAH;AACH;;AAAC,MAAIJ,EAAE,GAAG,CAAT,EAAY;AACV,UAAMsB,GAAG,GAAG1B,EAAE,CAAC2B,WAAH,CAAe,CAAf,CAAZ;;AACA,UAAMC,MAAM,GAAG5B,EAAE,CAACY,aAAH,EAAf;AACAZ,IAAAA,EAAE,CAACa,SAAH,CAAa,CAAb;AACAb,IAAAA,EAAE,CAAC6B,qBAAH,CAAyB,OAAzB,EAAkCD,MAAM,CAACE,KAAzC;AACA9B,IAAAA,EAAE,CAACc,UAAH,CAAc,UAAd,EAA0B,IAA1B;AACAd,IAAAA,EAAE,CAACa,SAAH,CAAa,CAAb;AACAb,IAAAA,EAAE,CAACc,UAAH,CAAc,cAAd,EAA8BY,GAA9B;AACH;AAAE;;AACH,SAASK,sCAAT,CAAgD3B,EAAhD,EAAoDC,GAApD,EAAyD;AAAE,MAAID,EAAE,GAAG,CAAT,EAAY;AACnEJ,IAAAA,EAAE,CAACM,cAAH,CAAkB,CAAlB,EAAqB,KAArB,EAA4B,EAA5B;AACAN,IAAAA,EAAE,CAACM,cAAH,CAAkB,CAAlB,EAAqB,KAArB,EAA4B,EAA5B;AACAN,IAAAA,EAAE,CAACM,cAAH,CAAkB,CAAlB,EAAqB,MAArB,EAA6B,EAA7B;AACAN,IAAAA,EAAE,CAACO,MAAH,CAAU,CAAV,EAAa,oBAAb;AACAP,IAAAA,EAAE,CAACQ,YAAH;AACAR,IAAAA,EAAE,CAACQ,YAAH;AACAR,IAAAA,EAAE,CAACoB,SAAH,CAAa,CAAb,EAAgB,OAAhB,EAAyB,EAAzB;AACApB,IAAAA,EAAE,CAACgC,MAAH,CAAU,CAAV,EAAa,MAAb;AACAhC,IAAAA,EAAE,CAACQ,YAAH;AACH;;AAAC,MAAIJ,EAAE,GAAG,CAAT,EAAY;AACV,UAAM6B,MAAM,GAAGjC,EAAE,CAACY,aAAH,EAAf;AACAZ,IAAAA,EAAE,CAACa,SAAH,CAAa,CAAb;AACAb,IAAAA,EAAE,CAAC6B,qBAAH,CAAyB,OAAzB,EAAkC7B,EAAE,CAACkC,WAAH,CAAe,CAAf,EAAkB,CAAlB,EAAqBD,MAAM,CAACE,aAA5B,EAA2C,sBAA3C,CAAlC;AACAnC,IAAAA,EAAE,CAACc,UAAH,CAAc,UAAd,EAA0B,IAA1B;AACH;AAAE;;AACH,SAASsB,sCAAT,CAAgDhC,EAAhD,EAAoDC,GAApD,EAAyD;AAAE,MAAID,EAAE,GAAG,CAAT,EAAY;AACnEJ,IAAAA,EAAE,CAACM,cAAH,CAAkB,CAAlB,EAAqB,KAArB,EAA4B,EAA5B;AACAN,IAAAA,EAAE,CAACM,cAAH,CAAkB,CAAlB,EAAqB,KAArB,EAA4B,EAA5B;AACAN,IAAAA,EAAE,CAACM,cAAH,CAAkB,CAAlB,EAAqB,MAArB,EAA6B,EAA7B;AACAN,IAAAA,EAAE,CAACO,MAAH,CAAU,CAAV,EAAa,iBAAb;AACAP,IAAAA,EAAE,CAACQ,YAAH;AACAR,IAAAA,EAAE,CAACQ,YAAH;AACAR,IAAAA,EAAE,CAACoB,SAAH,CAAa,CAAb,EAAgB,OAAhB,EAAyB,EAAzB;AACApB,IAAAA,EAAE,CAACgC,MAAH,CAAU,CAAV,EAAa,MAAb;AACAhC,IAAAA,EAAE,CAACQ,YAAH;AACH;;AAAC,MAAIJ,EAAE,GAAG,CAAT,EAAY;AACV,UAAMiC,MAAM,GAAGrC,EAAE,CAACY,aAAH,EAAf;AACAZ,IAAAA,EAAE,CAACa,SAAH,CAAa,CAAb;AACAb,IAAAA,EAAE,CAAC6B,qBAAH,CAAyB,OAAzB,EAAkC7B,EAAE,CAACkC,WAAH,CAAe,CAAf,EAAkB,CAAlB,EAAqBG,MAAM,CAACC,eAA5B,EAA6C,sBAA7C,CAAlC;AACAtC,IAAAA,EAAE,CAACc,UAAH,CAAc,UAAd,EAA0B,IAA1B;AACH;AAAE;;AACH,SAASyB,gDAAT,CAA0DnC,EAA1D,EAA8DC,GAA9D,EAAmE;AAAE,MAAID,EAAE,GAAG,CAAT,EAAY;AAC7E,UAAMoC,IAAI,GAAGxC,EAAE,CAACmB,gBAAH,EAAb;;AACAnB,IAAAA,EAAE,CAACM,cAAH,CAAkB,CAAlB,EAAqB,QAArB,EAA+B,EAA/B;AACAN,IAAAA,EAAE,CAACqB,UAAH,CAAc,OAAd,EAAuB,SAASoB,wEAAT,GAAoF;AAAEzC,MAAAA,EAAE,CAACuB,aAAH,CAAiBiB,IAAjB;AAAwB,YAAME,OAAO,GAAG1C,EAAE,CAACY,aAAH,CAAiB,CAAjB,CAAhB;AAAqC,aAAO8B,OAAO,CAACC,KAAR,EAAP;AAAyB,KAAnM;AACA3C,IAAAA,EAAE,CAACO,MAAH,CAAU,CAAV,EAAa,QAAb;AACAP,IAAAA,EAAE,CAACQ,YAAH;AACH;AAAE;;AACH,SAASoC,mDAAT,CAA6DxC,EAA7D,EAAiEC,GAAjE,EAAsE;AAAE,MAAID,EAAE,GAAG,CAAT,EAAY;AAChFJ,IAAAA,EAAE,CAACM,cAAH,CAAkB,CAAlB,EAAqB,KAArB;AACAN,IAAAA,EAAE,CAACO,MAAH,CAAU,CAAV,EAAa,uBAAb;AACAP,IAAAA,EAAE,CAACQ,YAAH;AACH;AAAE;;AACH,SAASqC,6CAAT,CAAuDzC,EAAvD,EAA2DC,GAA3D,EAAgE;AAAE,MAAID,EAAE,GAAG,CAAT,EAAY;AAC1EJ,IAAAA,EAAE,CAACM,cAAH,CAAkB,CAAlB,EAAqB,KAArB,EAA4B,EAA5B;AACAN,IAAAA,EAAE,CAACU,UAAH,CAAc,CAAd,EAAiBkC,mDAAjB,EAAsE,CAAtE,EAAyE,CAAzE,EAA4E,KAA5E,EAAmF,EAAnF;AACA5C,IAAAA,EAAE,CAACQ,YAAH;AACH;;AAAC,MAAIJ,EAAE,GAAG,CAAT,EAAY;AACV,UAAM0C,OAAO,GAAG9C,EAAE,CAACY,aAAH,CAAiB,CAAjB,CAAhB;AACAZ,IAAAA,EAAE,CAACa,SAAH,CAAa,CAAb;AACAb,IAAAA,EAAE,CAACc,UAAH,CAAc,MAAd,EAAsBgC,OAAO,CAACC,EAAR,CAAW,OAAX,EAAoB/B,MAApB,IAA8B8B,OAAO,CAAC/B,CAAR,CAAU,OAAV,EAAmBC,MAAnB,CAA0B,UAA1B,CAApD;AACH;AAAE;;AACH,SAASgC,sCAAT,CAAgD5C,EAAhD,EAAoDC,GAApD,EAAyD;AAAE,MAAID,EAAE,GAAG,CAAT,EAAY;AACnE,UAAM6C,IAAI,GAAGjD,EAAE,CAACmB,gBAAH,EAAb;;AACAnB,IAAAA,EAAE,CAACM,cAAH,CAAkB,CAAlB,EAAqB,KAArB,EAA4B,CAA5B;AACAN,IAAAA,EAAE,CAACM,cAAH,CAAkB,CAAlB,EAAqB,KAArB,EAA4B,CAA5B;AACAN,IAAAA,EAAE,CAACM,cAAH,CAAkB,CAAlB,EAAqB,MAArB,EAA6B,EAA7B;AACAN,IAAAA,EAAE,CAACM,cAAH,CAAkB,CAAlB,EAAqB,KAArB,EAA4B,CAA5B;AACAN,IAAAA,EAAE,CAACM,cAAH,CAAkB,CAAlB,EAAqB,KAArB,EAA4B,EAA5B;AACAN,IAAAA,EAAE,CAACM,cAAH,CAAkB,CAAlB,EAAqB,KAArB,EAA4B,EAA5B;AACAN,IAAAA,EAAE,CAACM,cAAH,CAAkB,CAAlB,EAAqB,MAArB,EAA6B,EAA7B;AACAN,IAAAA,EAAE,CAACO,MAAH,CAAU,CAAV,EAAa,OAAb;AACAP,IAAAA,EAAE,CAACQ,YAAH;AACAR,IAAAA,EAAE,CAACQ,YAAH;AACAR,IAAAA,EAAE,CAACoB,SAAH,CAAa,CAAb,EAAgB,UAAhB,EAA4B,EAA5B;AACApB,IAAAA,EAAE,CAACoB,SAAH,CAAa,CAAb,EAAgB,IAAhB;AACApB,IAAAA,EAAE,CAACU,UAAH,CAAc,EAAd,EAAkB6B,gDAAlB,EAAoE,CAApE,EAAuE,CAAvE,EAA0E,QAA1E,EAAoF,EAApF;AACAvC,IAAAA,EAAE,CAACQ,YAAH;AACAR,IAAAA,EAAE,CAACM,cAAH,CAAkB,EAAlB,EAAsB,GAAtB;AACAN,IAAAA,EAAE,CAACO,MAAH,CAAU,EAAV,EAAc,oCAAd;AACAP,IAAAA,EAAE,CAACQ,YAAH;AACAR,IAAAA,EAAE,CAACM,cAAH,CAAkB,EAAlB,EAAsB,KAAtB,EAA6B,CAA7B;AACAN,IAAAA,EAAE,CAACM,cAAH,CAAkB,EAAlB,EAAsB,OAAtB,EAA+B,EAA/B;AACAN,IAAAA,EAAE,CAACqB,UAAH,CAAc,eAAd,EAA+B,SAAS6B,sEAAT,CAAgFC,MAAhF,EAAwF;AAAEnD,MAAAA,EAAE,CAACuB,aAAH,CAAiB0B,IAAjB;AAAwB,YAAMG,OAAO,GAAGpD,EAAE,CAACY,aAAH,EAAhB;AAAoC,aAAOwC,OAAO,CAACC,aAAR,CAAsBC,OAAtB,GAAgCH,MAAvC;AAAgD,KAArO;AACAnD,IAAAA,EAAE,CAACQ,YAAH;AACAR,IAAAA,EAAE,CAACM,cAAH,CAAkB,EAAlB,EAAsB,OAAtB,EAA+B,CAA/B;AACAN,IAAAA,EAAE,CAACO,MAAH,CAAU,EAAV,EAAc,MAAd;AACAP,IAAAA,EAAE,CAACQ,YAAH;AACAR,IAAAA,EAAE,CAACQ,YAAH;AACAR,IAAAA,EAAE,CAACM,cAAH,CAAkB,EAAlB,EAAsB,KAAtB,EAA6B,CAA7B;AACAN,IAAAA,EAAE,CAACM,cAAH,CAAkB,EAAlB,EAAsB,OAAtB,EAA+B,EAA/B;AACAN,IAAAA,EAAE,CAACqB,UAAH,CAAc,eAAd,EAA+B,SAASkC,sEAAT,CAAgFJ,MAAhF,EAAwF;AAAEnD,MAAAA,EAAE,CAACuB,aAAH,CAAiB0B,IAAjB;AAAwB,YAAMO,OAAO,GAAGxD,EAAE,CAACY,aAAH,EAAhB;AAAoC,aAAO4C,OAAO,CAACH,aAAR,CAAsBC,OAAtB,GAAgCH,MAAvC;AAAgD,KAArO;AACAnD,IAAAA,EAAE,CAACQ,YAAH;AACAR,IAAAA,EAAE,CAACM,cAAH,CAAkB,EAAlB,EAAsB,OAAtB,EAA+B,CAA/B;AACAN,IAAAA,EAAE,CAACO,MAAH,CAAU,EAAV,EAAc,MAAd;AACAP,IAAAA,EAAE,CAACQ,YAAH;AACAR,IAAAA,EAAE,CAACQ,YAAH;AACAR,IAAAA,EAAE,CAACU,UAAH,CAAc,EAAd,EAAkBmC,6CAAlB,EAAiE,CAAjE,EAAoE,CAApE,EAAuE,KAAvE,EAA8E,EAA9E;AACA7C,IAAAA,EAAE,CAACM,cAAH,CAAkB,EAAlB,EAAsB,QAAtB,EAAgC,EAAhC;AACAN,IAAAA,EAAE,CAACO,MAAH,CAAU,EAAV,EAAc,yBAAd;AACAP,IAAAA,EAAE,CAACQ,YAAH;AACAR,IAAAA,EAAE,CAACQ,YAAH;AACAR,IAAAA,EAAE,CAACQ,YAAH;AACAR,IAAAA,EAAE,CAACQ,YAAH;AACAR,IAAAA,EAAE,CAACQ,YAAH;AACH;;AAAC,MAAIJ,EAAE,GAAG,CAAT,EAAY;AACV,UAAMqD,MAAM,GAAGzD,EAAE,CAACY,aAAH,EAAf;AACAZ,IAAAA,EAAE,CAACa,SAAH,CAAa,CAAb;AACAb,IAAAA,EAAE,CAACc,UAAH,CAAc,WAAd,EAA2B2C,MAAM,CAACC,KAAlC;AACA1D,IAAAA,EAAE,CAACa,SAAH,CAAa,CAAb;AACAb,IAAAA,EAAE,CAAC6B,qBAAH,CAAyB,OAAzB,EAAkC4B,MAAM,CAACE,IAAzC;AACA3D,IAAAA,EAAE,CAACa,SAAH,CAAa,CAAb;AACAb,IAAAA,EAAE,CAACc,UAAH,CAAc,MAAd,EAAsB2C,MAAM,CAACG,CAAP,GAAW,CAAjC;AACA5D,IAAAA,EAAE,CAACa,SAAH,CAAa,CAAb;AACAb,IAAAA,EAAE,CAACc,UAAH,CAAc,SAAd,EAAyB2C,MAAM,CAACJ,aAAP,CAAqBC,OAA9C;AACAtD,IAAAA,EAAE,CAACa,SAAH,CAAa,CAAb;AACAb,IAAAA,EAAE,CAACc,UAAH,CAAc,SAAd,EAAyB2C,MAAM,CAACJ,aAAP,CAAqBC,OAA9C,EAAuD,SAAvD,EAAkE,IAAlE;AACAtD,IAAAA,EAAE,CAACa,SAAH,CAAa,CAAb;AACAb,IAAAA,EAAE,CAACc,UAAH,CAAc,MAAd,EAAsB2C,MAAM,CAACV,EAAP,CAAU,OAAV,EAAmBc,OAAnB,IAA8BJ,MAAM,CAAC1C,CAAP,CAAS,OAAT,EAAkB+C,OAAtE;AACA9D,IAAAA,EAAE,CAACa,SAAH,CAAa,CAAb;AACAb,IAAAA,EAAE,CAACc,UAAH,CAAc,UAAd,EAA0B,CAAC2C,MAAM,CAACC,KAAP,CAAaK,KAAxC;AACH;AAAE;;AACH,OAAO,MAAMC,sBAAN,CAA6B;AAChCC,EAAAA,WAAW,CAACC,eAAD,EAAkBC,MAAlB,EAA0B;AACjC,SAAKD,eAAL,GAAuBA,eAAvB;AACA,SAAKC,MAAL,GAAcA,MAAd;AACA,SAAKC,QAAL,GAAgB,KAAhB;AACA,SAAKC,CAAL,GAAS,CAAT;AACA,SAAKT,CAAL,GAAS,CAAT;AACA,SAAKP,aAAL,GAAqB,IAAIzD,aAAJ,EAArB;AACA,SAAK0E,IAAL,GAAY,IAAIxE,SAAJ,CAAc;AACtByE,MAAAA,IAAI,EAAE,IAAI1E,WAAJ,CAAgB,EAAhB,EAAoBE,UAAU,CAACyE,QAA/B;AADgB,KAAd,CAAZ;AAGA,SAAKb,IAAL,GAAY,EAAZ,CAViC,CAWjC;;AACA,SAAKD,KAAL,GAAa,IAAI5D,SAAJ,CAAc;AACvB2E,MAAAA,KAAK,EAAE,IAAI5E,WAAJ,CAAgB,EAAhB,EAAoBE,UAAU,CAACyE,QAA/B;AADgB,KAAd,CAAb;AAGH;;AACI,MAADzD,CAAC,GAAG;AACJ,WAAO,KAAKuD,IAAL,CAAUI,QAAjB;AACH;;AACDC,EAAAA,QAAQ,GAAG;AACP,QAAIC,MAAM,GAAG,KAAKN,IAAL,CAAUO,KAAV,GAAkB,EAA/B;AACAC,IAAAA,OAAO,CAACC,GAAR,CAAY,OAAQH,MAAM,CAACI,QAAP,EAApB;;AACA,QAAIJ,MAAM,CAACK,QAAP,CAAgB,GAAhB,CAAJ,EAA0B;AACtBL,MAAAA,MAAM,GAAG,IAAT;AACH,KAFD,MAGK;AACDA,MAAAA,MAAM,GAAG,IAAT;AACH;;AACD,SAAKV,eAAL,CAAqBgB,aAArB,CAAmCN,MAAnC,EAA2CO,SAA3C,CAAqDC,IAAI,IAAI;AACzD,WAAKhB,QAAL,GAAgB,IAAhB,CADyD,CAEzD;;AACA,WAAKC,CAAL;AACAS,MAAAA,OAAO,CAACC,GAAR,CAAYK,IAAI,CAAC,OAAD,CAAhB;AACA,WAAKtD,KAAL,GAAasD,IAAI,CAAC,OAAD,CAAjB;AACA,WAAKjD,aAAL,GAAqBiD,IAAI,CAAC,YAAD,CAAzB;AACA,WAAK9C,eAAL,GAAuB8C,IAAI,CAAC,WAAD,CAA3B,CAPyD,CAQzD;AACH,KATD,EASGC,KAAK,IAAIP,OAAO,CAACC,GAAR,CAAYM,KAAZ,CATZ;AAUH;AACD;AACJ;AACA;AACA;;;AACIC,EAAAA,QAAQ,GAAG,CACV;;AACD7D,EAAAA,SAAS,GAAG;AACR,SAAKmC,CAAL;AACH;;AACK,MAAFb,EAAE,GAAG;AACL,WAAO,KAAKW,KAAL,CAAWgB,QAAlB;AACH;;AACK/B,EAAAA,KAAK,GAAG;AAAA;;AAAA;AACV,MAAA,KAAI,CAACgB,IAAL,SAAkB4B,SAAS,CAACC,SAAV,CAAoBC,QAApB,EAAlB;AADU;AAEb;;AAtD+B;;AAwDpCzB,sBAAsB,CAAC0B,IAAvB,GAA8B,SAASC,8BAAT,CAAwCC,CAAxC,EAA2C;AAAE,SAAO,KAAKA,CAAC,IAAI5B,sBAAV,EAAkChE,EAAE,CAAC6F,iBAAH,CAAqB5F,EAAE,CAAC6F,oBAAxB,CAAlC,EAAiF9F,EAAE,CAAC6F,iBAAH,CAAqB3F,EAAE,CAAC6F,MAAxB,CAAjF,CAAP;AAA2H,CAAtM;;AACA/B,sBAAsB,CAACgC,IAAvB,GAA8B,aAAchG,EAAE,CAACiG,iBAAH,CAAqB;AAAEC,EAAAA,IAAI,EAAElC,sBAAR;AAAgCmC,EAAAA,SAAS,EAAE,CAAC,CAAC,oBAAD,CAAD,CAA3C;AAAqEC,EAAAA,KAAK,EAAE,EAA5E;AAAgFC,EAAAA,IAAI,EAAE,EAAtF;AAA0FC,EAAAA,MAAM,EAAE,CAAC,CAAC,CAAD,EAAI,UAAJ,EAAgB,aAAhB,EAA+B,eAA/B,CAAD,EAAkD,CAAC,CAAD,EAAI,WAAJ,CAAlD,EAAoE,CAAC,aAAD,EAAgB,MAAhB,CAApE,EAA6F,CAAC,CAAD,EAAI,WAAJ,EAAiB,UAAjB,CAA7F,EAA2H,CAAC,CAAD,EAAI,YAAJ,CAA3H,EAA8I,CAAC,CAAD,EAAI,YAAJ,CAA9I,EAAiK,CAAC,iBAAD,EAAoB,MAApB,EAA4B,OAA5B,EAAqC,IAArC,EAA2C,MAA3C,EAAmD,OAAnD,EAA4D,MAA5D,EAAoE,MAApE,EAA4E,IAA5E,EAAkF,mBAAlF,EAAuG,CAAvG,EAA0G,kBAA1G,EAA8H,CAA9H,EAAiI,SAAjI,EAA4I,eAA5I,CAAjK,EAA+T,CAAC,KAAD,EAAQ,mBAAR,EAA6B,CAA7B,EAAgC,kBAAhC,CAA/T,EAAoX,CAAC,iBAAD,EAAoB,MAApB,EAA4B,OAA5B,EAAqC,IAArC,EAA2C,MAA3C,EAAmD,OAAnD,EAA4D,MAA5D,EAAoE,MAApE,EAA4E,IAA5E,EAAkF,mBAAlF,EAAuG,CAAvG,EAA0G,kBAA1G,EAA8H,CAA9H,EAAiI,SAAjI,EAA4I,SAA5I,EAAuJ,eAAvJ,CAApX,EAA6hB,CAAC,KAAD,EAAQ,mBAAR,EAA6B,CAA7B,EAAgC,kBAAhC,CAA7hB,EAAklB,CAAC,OAAD,EAAU,oBAAV,EAAgC,CAAhC,EAAmC,MAAnC,CAAllB,EAA8nB,CAAC,OAAD,EAAU,aAAV,EAAyB,CAAzB,EAA4B,MAA5B,CAA9nB,EAAmqB,CAAC,OAAD,EAAU,kBAAV,EAA8B,CAA9B,EAAiC,MAAjC,CAAnqB,EAA6sB,CAAC,MAAD,EAAS,QAAT,EAAmB,CAAnB,EAAsB,KAAtB,EAA6B,aAA7B,EAA4C,CAA5C,EAA+C,UAA/C,CAA7sB,EAAywB,CAAC,OAAD,EAAU,oCAAV,EAAgD,CAAhD,EAAmD,MAAnD,CAAzwB,EAAq0B,CAAC,CAAD,EAAI,OAAJ,EAAa,cAAb,CAAr0B,EAAm2B,CAAC,CAAD,EAAI,MAAJ,CAAn2B,EAAg3B,CAAC,CAAD,EAAI,aAAJ,CAAh3B,EAAo4B,CAAC,CAAD,EAAI,qBAAJ,CAAp4B,EAAg6B,CAAC,CAAD,EAAI,kBAAJ,CAAh6B,EAAy7B,CAAC,YAAD,EAAe,eAAf,EAAgC,CAAhC,EAAmC,cAAnC,EAAmD,CAAnD,EAAsD,UAAtD,EAAkE,OAAlE,CAAz7B,EAAqgC,CAAC,MAAD,EAAS,EAAT,CAArgC,EAAmhC,CAAC,CAAD,EAAI,KAAJ,EAAW,aAAX,EAA0B,CAA1B,EAA6B,cAA7B,EAA6C,OAA7C,CAAnhC,EAA0kC,CAAC,CAAD,EAAI,aAAJ,EAAmB,MAAnB,CAA1kC,EAAsmC,CAAC,IAAD,EAAO,cAAP,EAAuB,CAAvB,EAA0B,kBAA1B,CAAtmC,EAAqpC,CAAC,MAAD,EAAS,MAAT,EAAiB,IAAjB,EAAuB,YAAvB,EAAqC,kBAArC,EAAyD,cAAzD,EAAyE,CAAzE,EAA4E,cAA5E,EAA4F,CAA5F,EAA+F,OAA/F,EAAwG,UAAxG,CAArpC,EAA0wC,CAAC,IAAD,EAAO,cAAP,EAAuB,CAAvB,EAA0B,kBAA1B,CAA1wC,EAAyzC,CAAC,MAAD,EAAS,MAAT,EAAiB,IAAjB,EAAuB,WAAvB,EAAoC,kBAApC,EAAwD,cAAxD,EAAwE,CAAxE,EAA2E,cAA3E,EAA2F,CAA3F,EAA8F,OAA9F,EAAuG,UAAvG,CAAzzC,EAA66C,CAAC,CAAD,EAAI,WAAJ,CAA76C,EAA+7C,CAAC,YAAD,EAAe,eAAf,EAAgC,CAAhC,EAAmC,cAAnC,EAAmD,CAAnD,EAAsD,OAAtD,CAA/7C,EAA+/C,CAAC,OAAD,EAAU,iBAAV,EAA6B,CAA7B,EAAgC,OAAhC,EAAyC,CAAzC,EAA4C,MAA5C,CAA//C,EAAojD,CAAC,iBAAD,EAAoB,OAApB,EAA6B,OAA7B,EAAsC,IAAtC,EAA4C,MAA5C,EAAoD,OAApD,EAA6D,MAA7D,EAAqE,OAArE,EAA8E,IAA9E,EAAoF,mBAApF,EAAyG,CAAzG,EAA4G,kBAA5G,EAAgI,CAAhI,EAAmI,SAAnI,EAA8I,eAA9I,CAApjD,EAAotD,CAAC,iBAAD,EAAoB,OAApB,EAA6B,OAA7B,EAAsC,IAAtC,EAA4C,MAA5C,EAAoD,OAApD,EAA6D,MAA7D,EAAqE,OAArE,EAA8E,IAA9E,EAAoF,mBAApF,EAAyG,CAAzG,EAA4G,kBAA5G,EAAgI,CAAhI,EAAmI,SAAnI,EAA8I,SAA9I,EAAyJ,eAAzJ,CAAptD,EAA+3D,CAAC,CAAD,EAAI,KAAJ,EAAW,aAAX,EAA0B,CAA1B,EAA6B,OAA7B,CAA/3D,CAAlG;AAAygEC,EAAAA,QAAQ,EAAE,SAASC,+BAAT,CAAyCpG,EAAzC,EAA6CC,GAA7C,EAAkD;AAAE,QAAID,EAAE,GAAG,CAAT,EAAY;AAC5oEJ,MAAAA,EAAE,CAACM,cAAH,CAAkB,CAAlB,EAAqB,KAArB,EAA4B,CAA5B;AACAN,MAAAA,EAAE,CAACM,cAAH,CAAkB,CAAlB,EAAqB,KAArB,EAA4B,CAA5B;AACAN,MAAAA,EAAE,CAACM,cAAH,CAAkB,CAAlB,EAAqB,GAArB,EAA0B,CAA1B;AACAN,MAAAA,EAAE,CAACO,MAAH,CAAU,CAAV,EAAa,oCAAb;AACAP,MAAAA,EAAE,CAACQ,YAAH;AACAR,MAAAA,EAAE,CAACM,cAAH,CAAkB,CAAlB,EAAqB,MAArB,EAA6B,CAA7B;AACAN,MAAAA,EAAE,CAACqB,UAAH,CAAc,UAAd,EAA0B,SAASoF,wDAAT,GAAoE;AAAE,eAAOpG,GAAG,CAACsE,QAAJ,EAAP;AAAwB,OAAxH;AACA3E,MAAAA,EAAE,CAACM,cAAH,CAAkB,CAAlB,EAAqB,KAArB,EAA4B,CAA5B;AACAN,MAAAA,EAAE,CAACM,cAAH,CAAkB,CAAlB,EAAqB,GAArB;AACAN,MAAAA,EAAE,CAACO,MAAH,CAAU,CAAV,EAAa,oCAAb;AACAP,MAAAA,EAAE,CAACQ,YAAH;AACAR,MAAAA,EAAE,CAACM,cAAH,CAAkB,CAAlB,EAAqB,KAArB,EAA4B,CAA5B;AACAN,MAAAA,EAAE,CAACM,cAAH,CAAkB,CAAlB,EAAqB,OAArB,EAA8B,CAA9B;AACAN,MAAAA,EAAE,CAACqB,UAAH,CAAc,eAAd,EAA+B,SAASqF,8DAAT,CAAwEvD,MAAxE,EAAgF;AAAE,eAAO9C,GAAG,CAACgD,aAAJ,CAAkBuB,MAAlB,GAA2BzB,MAAlC;AAA2C,OAA5J;AACAnD,MAAAA,EAAE,CAACQ,YAAH;AACAR,MAAAA,EAAE,CAACM,cAAH,CAAkB,EAAlB,EAAsB,OAAtB,EAA+B,CAA/B;AACAN,MAAAA,EAAE,CAACO,MAAH,CAAU,EAAV,EAAc,MAAd;AACAP,MAAAA,EAAE,CAACQ,YAAH;AACAR,MAAAA,EAAE,CAACQ,YAAH;AACAR,MAAAA,EAAE,CAACM,cAAH,CAAkB,EAAlB,EAAsB,KAAtB,EAA6B,CAA7B;AACAN,MAAAA,EAAE,CAACM,cAAH,CAAkB,EAAlB,EAAsB,OAAtB,EAA+B,CAA/B;AACAN,MAAAA,EAAE,CAACqB,UAAH,CAAc,eAAd,EAA+B,SAASsF,+DAAT,CAAyExD,MAAzE,EAAiF;AAAE,eAAO9C,GAAG,CAACgD,aAAJ,CAAkBuB,MAAlB,GAA2BzB,MAAlC;AAA2C,OAA7J;AACAnD,MAAAA,EAAE,CAACQ,YAAH;AACAR,MAAAA,EAAE,CAACM,cAAH,CAAkB,EAAlB,EAAsB,OAAtB,EAA+B,CAA/B;AACAN,MAAAA,EAAE,CAACO,MAAH,CAAU,EAAV,EAAc,MAAd;AACAP,MAAAA,EAAE,CAACQ,YAAH;AACAR,MAAAA,EAAE,CAACQ,YAAH;AACAR,MAAAA,EAAE,CAACU,UAAH,CAAc,EAAd,EAAkBD,sCAAlB,EAA0D,CAA1D,EAA6D,CAA7D,EAAgE,KAAhE,EAAuE,EAAvE;AACAT,MAAAA,EAAE,CAACU,UAAH,CAAc,EAAd,EAAkBO,sCAAlB,EAA0D,CAA1D,EAA6D,CAA7D,EAAgE,KAAhE,EAAuE,EAAvE;AACAjB,MAAAA,EAAE,CAACoB,SAAH,CAAa,EAAb,EAAiB,IAAjB;AACApB,MAAAA,EAAE,CAACU,UAAH,CAAc,EAAd,EAAkBqB,sCAAlB,EAA0D,CAA1D,EAA6D,CAA7D,EAAgE,KAAhE,EAAuE,EAAvE;AACA/B,MAAAA,EAAE,CAACU,UAAH,CAAc,EAAd,EAAkB0B,sCAAlB,EAA0D,CAA1D,EAA6D,CAA7D,EAAgE,KAAhE,EAAuE,EAAvE;AACApC,MAAAA,EAAE,CAACM,cAAH,CAAkB,EAAlB,EAAsB,QAAtB,EAAgC,EAAhC;AACAN,MAAAA,EAAE,CAACO,MAAH,CAAU,EAAV,EAAc,yBAAd;AACAP,MAAAA,EAAE,CAACQ,YAAH;AACAR,MAAAA,EAAE,CAACQ,YAAH;AACAR,MAAAA,EAAE,CAACQ,YAAH;AACAR,MAAAA,EAAE,CAACQ,YAAH;AACAR,MAAAA,EAAE,CAACQ,YAAH;AACAR,MAAAA,EAAE,CAACoB,SAAH,CAAa,EAAb,EAAiB,IAAjB;AACApB,MAAAA,EAAE,CAACU,UAAH,CAAc,EAAd,EAAkBsC,sCAAlB,EAA0D,EAA1D,EAA8D,CAA9D,EAAiE,KAAjE,EAAwE,EAAxE;AACH;;AAAC,QAAI5C,EAAE,GAAG,CAAT,EAAY;AACVJ,MAAAA,EAAE,CAACa,SAAH,CAAa,CAAb;AACAb,MAAAA,EAAE,CAACc,UAAH,CAAc,WAAd,EAA2BT,GAAG,CAACiE,IAA/B;AACAtE,MAAAA,EAAE,CAACa,SAAH,CAAa,CAAb;AACAb,MAAAA,EAAE,CAACc,UAAH,CAAc,SAAd,EAAyBT,GAAG,CAACgD,aAAJ,CAAkBuB,MAA3C;AACA5E,MAAAA,EAAE,CAACa,SAAH,CAAa,CAAb;AACAb,MAAAA,EAAE,CAACc,UAAH,CAAc,SAAd,EAAyBT,GAAG,CAACgD,aAAJ,CAAkBuB,MAA3C,EAAmD,SAAnD,EAA8D,IAA9D;AACA5E,MAAAA,EAAE,CAACa,SAAH,CAAa,CAAb;AACAb,MAAAA,EAAE,CAACc,UAAH,CAAc,MAAd,EAAsBT,GAAG,CAACU,CAAJ,CAAM,MAAN,EAAc8C,OAAd,IAAyBxD,GAAG,CAACU,CAAJ,CAAM,MAAN,EAAc+C,OAA7D;AACA9D,MAAAA,EAAE,CAACa,SAAH,CAAa,CAAb;AACAb,MAAAA,EAAE,CAACc,UAAH,CAAc,MAAd,EAAsBT,GAAG,CAAC+D,QAA1B;AACApE,MAAAA,EAAE,CAACa,SAAH,CAAa,CAAb;AACAb,MAAAA,EAAE,CAACc,UAAH,CAAc,MAAd,EAAsBT,GAAG,CAAC+D,QAA1B;AACApE,MAAAA,EAAE,CAACa,SAAH,CAAa,CAAb;AACAb,MAAAA,EAAE,CAACc,UAAH,CAAc,MAAd,EAAsBT,GAAG,CAAC+D,QAA1B;AACApE,MAAAA,EAAE,CAACa,SAAH,CAAa,CAAb;AACAb,MAAAA,EAAE,CAACc,UAAH,CAAc,UAAd,EAA0B,CAACT,GAAG,CAACiE,IAAJ,CAASP,KAApC;AACA/D,MAAAA,EAAE,CAACa,SAAH,CAAa,CAAb;AACAb,MAAAA,EAAE,CAACc,UAAH,CAAc,MAAd,EAAsBT,GAAG,CAACgE,CAAJ,GAAQ,CAA9B;AACH;AAAE,GA7D0D;AA6DxDuC,EAAAA,MAAM,EAAE,CAAC,iLAAD;AA7DgD,CAArB,CAA5C",
    "sourcesContent": [
      "import { GenerateToken } from \"../generate-token\";\r\nimport { FormControl, FormGroup, Validators } from \"@angular/forms\";\r\nimport * as i0 from \"@angular/core\";\r\nimport * as i1 from \"../generate-token.service\";\r\nimport * as i2 from \"@angular/router\";\r\nfunction GenerateTokenComponent_div_16_div_1_Template(rf, ctx) { if (rf & 1) {\r\n    i0.ɵɵelementStart(0, \"div\");\r\n    i0.ɵɵtext(1, \"Language is required.\");\r\n    i0.ɵɵelementEnd();\r\n} }\r\nfunction GenerateTokenComponent_div_16_Template(rf, ctx) { if (rf & 1) {\r\n    i0.ɵɵelementStart(0, \"div\", 15);\r\n    i0.ɵɵtemplate(1, GenerateTokenComponent_div_16_div_1_Template, 2, 0, \"div\", 16);\r\n    i0.ɵɵelementEnd();\r\n} if (rf & 2) {\r\n    const ctx_r0 = i0.ɵɵnextContext();\r\n    i0.ɵɵadvance(1);\r\n    i0.ɵɵproperty(\"ngIf\", ctx_r0.f[\"lang\"].errors || ctx_r0.f[\"lang\"].errors[\"required\"]);\r\n} }\r\nfunction GenerateTokenComponent_div_17_Template(rf, ctx) { if (rf & 1) {\r\n    const _r8 = i0.ɵɵgetCurrentView();\r\n    i0.ɵɵelementStart(0, \"div\", 17);\r\n    i0.ɵɵelementStart(1, \"div\", 18);\r\n    i0.ɵɵelementStart(2, \"span\", 19);\r\n    i0.ɵɵtext(3, \"Token\");\r\n    i0.ɵɵelementEnd();\r\n    i0.ɵɵelementEnd();\r\n    i0.ɵɵelement(4, \"textarea\", 20, 21);\r\n    i0.ɵɵelement(6, \"br\");\r\n    i0.ɵɵelementStart(7, \"button\", 22);\r\n    i0.ɵɵlistener(\"click\", function GenerateTokenComponent_div_17_Template_button_click_7_listener() { i0.ɵɵrestoreView(_r8); const ctx_r7 = i0.ɵɵnextContext(); return ctx_r7.increment(); });\r\n    i0.ɵɵtext(8, \"Copier\");\r\n    i0.ɵɵelementEnd();\r\n    i0.ɵɵelementEnd();\r\n} if (rf & 2) {\r\n    const _r6 = i0.ɵɵreference(5);\r\n    const ctx_r1 = i0.ɵɵnextContext();\r\n    i0.ɵɵadvance(4);\r\n    i0.ɵɵpropertyInterpolate(\"value\", ctx_r1.token);\r\n    i0.ɵɵproperty(\"readonly\", true);\r\n    i0.ɵɵadvance(3);\r\n    i0.ɵɵproperty(\"ngxClipboard\", _r6);\r\n} }\r\nfunction GenerateTokenComponent_div_19_Template(rf, ctx) { if (rf & 1) {\r\n    i0.ɵɵelementStart(0, \"div\", 23);\r\n    i0.ɵɵelementStart(1, \"div\", 18);\r\n    i0.ɵɵelementStart(2, \"span\", 24);\r\n    i0.ɵɵtext(3, \"Date cr\\u00E9ation\");\r\n    i0.ɵɵelementEnd();\r\n    i0.ɵɵelementEnd();\r\n    i0.ɵɵelement(4, \"input\", 25);\r\n    i0.ɵɵpipe(5, \"date\");\r\n    i0.ɵɵelementEnd();\r\n} if (rf & 2) {\r\n    const ctx_r2 = i0.ɵɵnextContext();\r\n    i0.ɵɵadvance(4);\r\n    i0.ɵɵpropertyInterpolate(\"value\", i0.ɵɵpipeBind2(5, 2, ctx_r2.date_creation, \"dd-MMM-yyyy hh:mm:ss\"));\r\n    i0.ɵɵproperty(\"readonly\", true);\r\n} }\r\nfunction GenerateTokenComponent_div_20_Template(rf, ctx) { if (rf & 1) {\r\n    i0.ɵɵelementStart(0, \"div\", 23);\r\n    i0.ɵɵelementStart(1, \"div\", 18);\r\n    i0.ɵɵelementStart(2, \"span\", 26);\r\n    i0.ɵɵtext(3, \"Date expiration\");\r\n    i0.ɵɵelementEnd();\r\n    i0.ɵɵelementEnd();\r\n    i0.ɵɵelement(4, \"input\", 27);\r\n    i0.ɵɵpipe(5, \"date\");\r\n    i0.ɵɵelementEnd();\r\n} if (rf & 2) {\r\n    const ctx_r3 = i0.ɵɵnextContext();\r\n    i0.ɵɵadvance(4);\r\n    i0.ɵɵpropertyInterpolate(\"value\", i0.ɵɵpipeBind2(5, 2, ctx_r3.date_expiration, \"dd-MMM-yyyy hh:mm:ss\"));\r\n    i0.ɵɵproperty(\"readonly\", true);\r\n} }\r\nfunction GenerateTokenComponent_div_24_button_10_Template(rf, ctx) { if (rf & 1) {\r\n    const _r12 = i0.ɵɵgetCurrentView();\r\n    i0.ɵɵelementStart(0, \"button\", 33);\r\n    i0.ɵɵlistener(\"click\", function GenerateTokenComponent_div_24_button_10_Template_button_click_0_listener() { i0.ɵɵrestoreView(_r12); const ctx_r11 = i0.ɵɵnextContext(2); return ctx_r11.paste(); });\r\n    i0.ɵɵtext(1, \"Coller\");\r\n    i0.ɵɵelementEnd();\r\n} }\r\nfunction GenerateTokenComponent_div_24_div_21_div_1_Template(rf, ctx) { if (rf & 1) {\r\n    i0.ɵɵelementStart(0, \"div\");\r\n    i0.ɵɵtext(1, \"Language is required.\");\r\n    i0.ɵɵelementEnd();\r\n} }\r\nfunction GenerateTokenComponent_div_24_div_21_Template(rf, ctx) { if (rf & 1) {\r\n    i0.ɵɵelementStart(0, \"div\", 15);\r\n    i0.ɵɵtemplate(1, GenerateTokenComponent_div_24_div_21_div_1_Template, 2, 0, \"div\", 16);\r\n    i0.ɵɵelementEnd();\r\n} if (rf & 2) {\r\n    const ctx_r10 = i0.ɵɵnextContext(2);\r\n    i0.ɵɵadvance(1);\r\n    i0.ɵɵproperty(\"ngIf\", ctx_r10.f2[\"langu\"].errors || ctx_r10.f[\"langu\"].errors[\"required\"]);\r\n} }\r\nfunction GenerateTokenComponent_div_24_Template(rf, ctx) { if (rf & 1) {\r\n    const _r15 = i0.ɵɵgetCurrentView();\r\n    i0.ɵɵelementStart(0, \"div\", 0);\r\n    i0.ɵɵelementStart(1, \"div\", 1);\r\n    i0.ɵɵelementStart(2, \"form\", 28);\r\n    i0.ɵɵelementStart(3, \"div\", 4);\r\n    i0.ɵɵelementStart(4, \"div\", 17);\r\n    i0.ɵɵelementStart(5, \"div\", 18);\r\n    i0.ɵɵelementStart(6, \"span\", 19);\r\n    i0.ɵɵtext(7, \"Token\");\r\n    i0.ɵɵelementEnd();\r\n    i0.ɵɵelementEnd();\r\n    i0.ɵɵelement(8, \"textarea\", 29);\r\n    i0.ɵɵelement(9, \"br\");\r\n    i0.ɵɵtemplate(10, GenerateTokenComponent_div_24_button_10_Template, 2, 0, \"button\", 30);\r\n    i0.ɵɵelementEnd();\r\n    i0.ɵɵelementStart(11, \"p\");\r\n    i0.ɵɵtext(12, \"Indiquez la langue \\u00E0 utiliser\");\r\n    i0.ɵɵelementEnd();\r\n    i0.ɵɵelementStart(13, \"div\", 5);\r\n    i0.ɵɵelementStart(14, \"input\", 31);\r\n    i0.ɵɵlistener(\"ngModelChange\", function GenerateTokenComponent_div_24_Template_input_ngModelChange_14_listener($event) { i0.ɵɵrestoreView(_r15); const ctx_r14 = i0.ɵɵnextContext(); return ctx_r14.generatetoken.langue2 = $event; });\r\n    i0.ɵɵelementEnd();\r\n    i0.ɵɵelementStart(15, \"label\", 7);\r\n    i0.ɵɵtext(16, \" EN \");\r\n    i0.ɵɵelementEnd();\r\n    i0.ɵɵelementEnd();\r\n    i0.ɵɵelementStart(17, \"div\", 5);\r\n    i0.ɵɵelementStart(18, \"input\", 32);\r\n    i0.ɵɵlistener(\"ngModelChange\", function GenerateTokenComponent_div_24_Template_input_ngModelChange_18_listener($event) { i0.ɵɵrestoreView(_r15); const ctx_r16 = i0.ɵɵnextContext(); return ctx_r16.generatetoken.langue2 = $event; });\r\n    i0.ɵɵelementEnd();\r\n    i0.ɵɵelementStart(19, \"label\", 9);\r\n    i0.ɵɵtext(20, \" FR \");\r\n    i0.ɵɵelementEnd();\r\n    i0.ɵɵelementEnd();\r\n    i0.ɵɵtemplate(21, GenerateTokenComponent_div_24_div_21_Template, 2, 1, \"div\", 10);\r\n    i0.ɵɵelementStart(22, \"button\", 13);\r\n    i0.ɵɵtext(23, \"G\\u00E9n\\u00E9rer Token\");\r\n    i0.ɵɵelementEnd();\r\n    i0.ɵɵelementEnd();\r\n    i0.ɵɵelementEnd();\r\n    i0.ɵɵelementEnd();\r\n    i0.ɵɵelementEnd();\r\n} if (rf & 2) {\r\n    const ctx_r4 = i0.ɵɵnextContext();\r\n    i0.ɵɵadvance(2);\r\n    i0.ɵɵproperty(\"formGroup\", ctx_r4.form1);\r\n    i0.ɵɵadvance(6);\r\n    i0.ɵɵpropertyInterpolate(\"value\", ctx_r4.name);\r\n    i0.ɵɵadvance(2);\r\n    i0.ɵɵproperty(\"ngIf\", ctx_r4.p > 0);\r\n    i0.ɵɵadvance(4);\r\n    i0.ɵɵproperty(\"ngModel\", ctx_r4.generatetoken.langue2);\r\n    i0.ɵɵadvance(4);\r\n    i0.ɵɵproperty(\"ngModel\", ctx_r4.generatetoken.langue2)(\"checked\", true);\r\n    i0.ɵɵadvance(3);\r\n    i0.ɵɵproperty(\"ngIf\", ctx_r4.f2[\"langu\"].touched && ctx_r4.f[\"langu\"].invalid);\r\n    i0.ɵɵadvance(1);\r\n    i0.ɵɵproperty(\"disabled\", !ctx_r4.form1.valid);\r\n} }\r\nexport class GenerateTokenComponent {\r\n    constructor(genTokenService, router) {\r\n        this.genTokenService = genTokenService;\r\n        this.router = router;\r\n        this.afficher = false;\r\n        this.r = 0;\r\n        this.p = 0;\r\n        this.generatetoken = new GenerateToken();\r\n        this.form = new FormGroup({\r\n            lang: new FormControl('', Validators.required)\r\n        });\r\n        this.name = '';\r\n        //token:any;\r\n        this.form1 = new FormGroup({\r\n            langu: new FormControl('', Validators.required)\r\n        });\r\n    }\r\n    get f() {\r\n        return this.form.controls;\r\n    }\r\n    genToken() {\r\n        let langue = this.form.value + \"\";\r\n        console.log(typeof (langue.toString()));\r\n        if (langue.includes('f')) {\r\n            langue = \"fr\";\r\n        }\r\n        else {\r\n            langue = \"en\";\r\n        }\r\n        this.genTokenService.generateToken(langue).subscribe(data => {\r\n            this.afficher = true;\r\n            //this.copyToken(data['token']);\r\n            this.r++;\r\n            console.log(data['token']);\r\n            this.token = data['token'];\r\n            this.date_creation = data['created_at'];\r\n            this.date_expiration = data['expire_at'];\r\n            //this.enrollment.copyToken();\r\n        }, error => console.log(error));\r\n    }\r\n    /*copyToken(tk):string{\r\n      this.token=tk;\r\n      return this.token;\r\n    }*/\r\n    ngOnInit() {\r\n    }\r\n    increment() {\r\n        this.p++;\r\n    }\r\n    get f2() {\r\n        return this.form1.controls;\r\n    }\r\n    async paste() {\r\n        this.name = await navigator.clipboard.readText();\r\n    }\r\n}\r\nGenerateTokenComponent.ɵfac = function GenerateTokenComponent_Factory(t) { return new (t || GenerateTokenComponent)(i0.ɵɵdirectiveInject(i1.GenerateTokenService), i0.ɵɵdirectiveInject(i2.Router)); };\r\nGenerateTokenComponent.ɵcmp = /*@__PURE__*/ i0.ɵɵdefineComponent({ type: GenerateTokenComponent, selectors: [[\"app-generate-token\"]], decls: 25, vars: 10, consts: [[1, \"col-md-4\", \"offset-md-3\", \"register-form\"], [1, \"container\"], [\"text-weight\", \"bold\"], [3, \"formGroup\", \"ngSubmit\"], [1, \"form-group\"], [1, \"form-check\"], [\"formControlName\", \"lang\", \"value\", \"en\", \"type\", \"radio\", \"name\", \"lang\", \"id\", \"flexRadioDefault1\", 1, \"form-check-input\", 3, \"ngModel\", \"ngModelChange\"], [\"for\", \"flexRadioDefault1\", 1, \"form-check-label\"], [\"formControlName\", \"lang\", \"value\", \"fr\", \"type\", \"radio\", \"name\", \"lang\", \"id\", \"flexRadioDefault2\", 1, \"form-check-input\", 3, \"ngModel\", \"checked\", \"ngModelChange\"], [\"for\", \"flexRadioDefault2\", 1, \"form-check-label\"], [\"class\", \"alert alert-danger\", 4, \"ngIf\"], [\"class\", \"input-group\", 4, \"ngIf\"], [\"class\", \"input-group mb-3\", 4, \"ngIf\"], [\"type\", \"submit\", 1, \"btn\", \"btn-primary\", 3, \"disabled\"], [\"class\", \"col-md-4 offset-md-3 register-form\", 4, \"ngIf\"], [1, \"alert\", \"alert-danger\"], [4, \"ngIf\"], [1, \"input-group\"], [1, \"input-group-prepend\"], [1, \"input-group-text\"], [\"aria-label\", \"With textarea\", 1, \"form-control\", 3, \"readonly\", \"value\"], [\"text\", \"\"], [1, \"btn\", \"btn-primary\", 3, \"ngxClipboard\", \"click\"], [1, \"input-group\", \"mb-3\"], [\"id\", \"basic-addon2\", 1, \"input-group-text\"], [\"type\", \"text\", \"id\", \"basic-url2\", \"aria-describedby\", \"basic-addon3\", 1, \"form-control\", 3, \"value\", \"readonly\"], [\"id\", \"basic-addon3\", 1, \"input-group-text\"], [\"type\", \"text\", \"id\", \"basic-url\", \"aria-describedby\", \"basic-addon3\", 1, \"form-control\", 3, \"value\", \"readonly\"], [3, \"formGroup\"], [\"aria-label\", \"With textarea\", 1, \"form-control\", 3, \"value\"], [\"class\", \"btn btn-primary\", 3, \"click\", 4, \"ngIf\"], [\"formControlName\", \"langu\", \"value\", \"en\", \"type\", \"radio\", \"name\", \"langu\", \"id\", \"flexRadioDefault3\", 1, \"form-check-input\", 3, \"ngModel\", \"ngModelChange\"], [\"formControlName\", \"langu\", \"value\", \"fr\", \"type\", \"radio\", \"name\", \"langu\", \"id\", \"flexRadioDefault4\", 1, \"form-check-input\", 3, \"ngModel\", \"checked\", \"ngModelChange\"], [1, \"btn\", \"btn-primary\", 3, \"click\"]], template: function GenerateTokenComponent_Template(rf, ctx) { if (rf & 1) {\r\n        i0.ɵɵelementStart(0, \"div\", 0);\r\n        i0.ɵɵelementStart(1, \"div\", 1);\r\n        i0.ɵɵelementStart(2, \"p\", 2);\r\n        i0.ɵɵtext(3, \"NB: Le token ne dure que 5 minutes\");\r\n        i0.ɵɵelementEnd();\r\n        i0.ɵɵelementStart(4, \"form\", 3);\r\n        i0.ɵɵlistener(\"ngSubmit\", function GenerateTokenComponent_Template_form_ngSubmit_4_listener() { return ctx.genToken(); });\r\n        i0.ɵɵelementStart(5, \"div\", 4);\r\n        i0.ɵɵelementStart(6, \"p\");\r\n        i0.ɵɵtext(7, \"Indiquez la langue \\u00E0 utiliser\");\r\n        i0.ɵɵelementEnd();\r\n        i0.ɵɵelementStart(8, \"div\", 5);\r\n        i0.ɵɵelementStart(9, \"input\", 6);\r\n        i0.ɵɵlistener(\"ngModelChange\", function GenerateTokenComponent_Template_input_ngModelChange_9_listener($event) { return ctx.generatetoken.langue = $event; });\r\n        i0.ɵɵelementEnd();\r\n        i0.ɵɵelementStart(10, \"label\", 7);\r\n        i0.ɵɵtext(11, \" EN \");\r\n        i0.ɵɵelementEnd();\r\n        i0.ɵɵelementEnd();\r\n        i0.ɵɵelementStart(12, \"div\", 5);\r\n        i0.ɵɵelementStart(13, \"input\", 8);\r\n        i0.ɵɵlistener(\"ngModelChange\", function GenerateTokenComponent_Template_input_ngModelChange_13_listener($event) { return ctx.generatetoken.langue = $event; });\r\n        i0.ɵɵelementEnd();\r\n        i0.ɵɵelementStart(14, \"label\", 9);\r\n        i0.ɵɵtext(15, \" FR \");\r\n        i0.ɵɵelementEnd();\r\n        i0.ɵɵelementEnd();\r\n        i0.ɵɵtemplate(16, GenerateTokenComponent_div_16_Template, 2, 1, \"div\", 10);\r\n        i0.ɵɵtemplate(17, GenerateTokenComponent_div_17_Template, 9, 3, \"div\", 11);\r\n        i0.ɵɵelement(18, \"br\");\r\n        i0.ɵɵtemplate(19, GenerateTokenComponent_div_19_Template, 6, 5, \"div\", 12);\r\n        i0.ɵɵtemplate(20, GenerateTokenComponent_div_20_Template, 6, 5, \"div\", 12);\r\n        i0.ɵɵelementStart(21, \"button\", 13);\r\n        i0.ɵɵtext(22, \"G\\u00E9n\\u00E9rer Token\");\r\n        i0.ɵɵelementEnd();\r\n        i0.ɵɵelementEnd();\r\n        i0.ɵɵelementEnd();\r\n        i0.ɵɵelementEnd();\r\n        i0.ɵɵelementEnd();\r\n        i0.ɵɵelement(23, \"br\");\r\n        i0.ɵɵtemplate(24, GenerateTokenComponent_div_24_Template, 24, 8, \"div\", 14);\r\n    } if (rf & 2) {\r\n        i0.ɵɵadvance(4);\r\n        i0.ɵɵproperty(\"formGroup\", ctx.form);\r\n        i0.ɵɵadvance(5);\r\n        i0.ɵɵproperty(\"ngModel\", ctx.generatetoken.langue);\r\n        i0.ɵɵadvance(4);\r\n        i0.ɵɵproperty(\"ngModel\", ctx.generatetoken.langue)(\"checked\", true);\r\n        i0.ɵɵadvance(3);\r\n        i0.ɵɵproperty(\"ngIf\", ctx.f[\"lang\"].touched && ctx.f[\"lang\"].invalid);\r\n        i0.ɵɵadvance(1);\r\n        i0.ɵɵproperty(\"ngIf\", ctx.afficher);\r\n        i0.ɵɵadvance(2);\r\n        i0.ɵɵproperty(\"ngIf\", ctx.afficher);\r\n        i0.ɵɵadvance(1);\r\n        i0.ɵɵproperty(\"ngIf\", ctx.afficher);\r\n        i0.ɵɵadvance(1);\r\n        i0.ɵɵproperty(\"disabled\", !ctx.form.valid);\r\n        i0.ɵɵadvance(3);\r\n        i0.ɵɵproperty(\"ngIf\", ctx.r > 0);\r\n    } }, styles: [\"\\n/*# sourceMappingURL=data:application/json;base64,eyJ2ZXJzaW9uIjozLCJzb3VyY2VzIjpbXSwibmFtZXMiOltdLCJtYXBwaW5ncyI6IiIsImZpbGUiOiJnZW5lcmF0ZS10b2tlbi5jb21wb25lbnQuY3NzIn0= */\"] });\r\n"
    ]
  },
  "metadata": {},
  "sourceType": "module"
}
