{
  "ast": null,
  "code": "import _asyncToGenerator from \"F:/angulardev/frontWhispeak/node_modules/@babel/runtime/helpers/esm/asyncToGenerator\";\nimport { FormControl, FormGroup, Validators } from \"@angular/forms\";\nimport { Enrollment } from \"../enrollment\";\nimport * as i0 from \"@angular/core\";\nimport * as i1 from \"@angular/forms\";\nimport * as i2 from \"@angular/common\";\n\nfunction EnrollmentComponent_div_19_div_1_Template(rf, ctx) {\n  if (rf & 1) {\n    i0.ɵɵelementStart(0, \"div\");\n    i0.ɵɵtext(1, \"Language is required.\");\n    i0.ɵɵelementEnd();\n  }\n}\n\nfunction EnrollmentComponent_div_19_Template(rf, ctx) {\n  if (rf & 1) {\n    i0.ɵɵelementStart(0, \"div\", 15);\n    i0.ɵɵtemplate(1, EnrollmentComponent_div_19_div_1_Template, 2, 0, \"div\", 16);\n    i0.ɵɵelementEnd();\n  }\n\n  if (rf & 2) {\n    const ctx_r0 = i0.ɵɵnextContext();\n    i0.ɵɵadvance(1);\n    i0.ɵɵproperty(\"ngIf\", ctx_r0.f[\"lang\"].errors || ctx_r0.f[\"lang\"].errors[\"required\"]);\n  }\n}\n\nexport class EnrollmentComponent {\n  //token:any;\n  constructor() {\n    this.enrollment = new Enrollment();\n    this.form = new FormGroup({\n      lang: new FormControl('', Validators.required)\n    });\n  }\n\n  get f() {\n    return this.form.controls;\n  }\n\n  paste() {\n    var _this = this;\n\n    return _asyncToGenerator(function* () {\n      _this.name = yield navigator.clipboard.readText();\n    })();\n  }\n\n  ngOnInit() {}\n\n}\n\nEnrollmentComponent.ɵfac = function EnrollmentComponent_Factory(t) {\n  return new (t || EnrollmentComponent)();\n};\n\nEnrollmentComponent.ɵcmp = /*@__PURE__*/i0.ɵɵdefineComponent({\n  type: EnrollmentComponent,\n  selectors: [[\"app-enrollment\"]],\n  decls: 22,\n  vars: 6,\n  consts: [[1, \"col-md-4\", \"offset-md-3\", \"register-form\"], [1, \"container\"], [3, \"formGroup\"], [1, \"form-group\"], [1, \"input-group\"], [1, \"input-group-prepend\"], [1, \"input-group-text\"], [\"value\", \"\", \"aria-label\", \"With textarea\", 1, \"form-control\"], [1, \"form-check\"], [\"formControlName\", \"lang\", \"value\", \"en\", \"type\", \"radio\", \"name\", \"lang\", \"id\", \"flexRadioDefault1\", 1, \"form-check-input\", 3, \"ngModel\", \"ngModelChange\"], [\"for\", \"flexRadioDefault1\", 1, \"form-check-label\"], [\"formControlName\", \"lang\", \"value\", \"fr\", \"type\", \"radio\", \"name\", \"lang\", \"id\", \"flexRadioDefault2\", 1, \"form-check-input\", 3, \"ngModel\", \"checked\", \"ngModelChange\"], [\"for\", \"flexRadioDefault2\", 1, \"form-check-label\"], [\"class\", \"alert alert-danger\", 4, \"ngIf\"], [\"type\", \"submit\", 1, \"btn\", \"btn-primary\", 3, \"disabled\"], [1, \"alert\", \"alert-danger\"], [4, \"ngIf\"]],\n  template: function EnrollmentComponent_Template(rf, ctx) {\n    if (rf & 1) {\n      i0.ɵɵelementStart(0, \"div\", 0);\n      i0.ɵɵelementStart(1, \"div\", 1);\n      i0.ɵɵelementStart(2, \"form\", 2);\n      i0.ɵɵelementStart(3, \"div\", 3);\n      i0.ɵɵelementStart(4, \"div\", 4);\n      i0.ɵɵelementStart(5, \"div\", 5);\n      i0.ɵɵelementStart(6, \"span\", 6);\n      i0.ɵɵtext(7, \"Token\");\n      i0.ɵɵelementEnd();\n      i0.ɵɵelementEnd();\n      i0.ɵɵelement(8, \"textarea\", 7);\n      i0.ɵɵelementEnd();\n      i0.ɵɵelementStart(9, \"p\");\n      i0.ɵɵtext(10, \"Indiquez la langue \\u00E0 utiliser\");\n      i0.ɵɵelementEnd();\n      i0.ɵɵelementStart(11, \"div\", 8);\n      i0.ɵɵelementStart(12, \"input\", 9);\n      i0.ɵɵlistener(\"ngModelChange\", function EnrollmentComponent_Template_input_ngModelChange_12_listener($event) {\n        return ctx.enrollment.langue = $event;\n      });\n      i0.ɵɵelementEnd();\n      i0.ɵɵelementStart(13, \"label\", 10);\n      i0.ɵɵtext(14, \" EN \");\n      i0.ɵɵelementEnd();\n      i0.ɵɵelementEnd();\n      i0.ɵɵelementStart(15, \"div\", 8);\n      i0.ɵɵelementStart(16, \"input\", 11);\n      i0.ɵɵlistener(\"ngModelChange\", function EnrollmentComponent_Template_input_ngModelChange_16_listener($event) {\n        return ctx.enrollment.langue = $event;\n      });\n      i0.ɵɵelementEnd();\n      i0.ɵɵelementStart(17, \"label\", 12);\n      i0.ɵɵtext(18, \" FR \");\n      i0.ɵɵelementEnd();\n      i0.ɵɵelementEnd();\n      i0.ɵɵtemplate(19, EnrollmentComponent_div_19_Template, 2, 1, \"div\", 13);\n      i0.ɵɵelementStart(20, \"button\", 14);\n      i0.ɵɵtext(21, \"G\\u00E9n\\u00E9rer Token\");\n      i0.ɵɵelementEnd();\n      i0.ɵɵelementEnd();\n      i0.ɵɵelementEnd();\n      i0.ɵɵelementEnd();\n      i0.ɵɵelementEnd();\n    }\n\n    if (rf & 2) {\n      i0.ɵɵadvance(2);\n      i0.ɵɵproperty(\"formGroup\", ctx.form);\n      i0.ɵɵadvance(10);\n      i0.ɵɵproperty(\"ngModel\", ctx.enrollment.langue);\n      i0.ɵɵadvance(4);\n      i0.ɵɵproperty(\"ngModel\", ctx.enrollment.langue)(\"checked\", true);\n      i0.ɵɵadvance(3);\n      i0.ɵɵproperty(\"ngIf\", ctx.f[\"lang\"].touched && ctx.f[\"lang\"].invalid);\n      i0.ɵɵadvance(1);\n      i0.ɵɵproperty(\"disabled\", !ctx.form.valid);\n    }\n  },\n  directives: [i1.ɵNgNoValidate, i1.NgControlStatusGroup, i1.FormGroupDirective, i1.DefaultValueAccessor, i1.RadioControlValueAccessor, i1.NgControlStatus, i1.FormControlName, i2.NgIf],\n  styles: [\"\\n/*# sourceMappingURL=data:application/json;base64,eyJ2ZXJzaW9uIjozLCJzb3VyY2VzIjpbXSwibmFtZXMiOltdLCJtYXBwaW5ncyI6IiIsImZpbGUiOiJlbnJvbGxtZW50LmNvbXBvbmVudC5jc3MifQ== */\"]\n});",
  "map": {
    "version": 3,
    "sources": [
      "F:/angulardev/frontWhispeak/src/app/enrollment/enrollment.component.ts"
    ],
    "names": [
      "FormControl",
      "FormGroup",
      "Validators",
      "Enrollment",
      "i0",
      "i1",
      "i2",
      "EnrollmentComponent_div_19_div_1_Template",
      "rf",
      "ctx",
      "ɵɵelementStart",
      "ɵɵtext",
      "ɵɵelementEnd",
      "EnrollmentComponent_div_19_Template",
      "ɵɵtemplate",
      "ctx_r0",
      "ɵɵnextContext",
      "ɵɵadvance",
      "ɵɵproperty",
      "f",
      "errors",
      "EnrollmentComponent",
      "constructor",
      "enrollment",
      "form",
      "lang",
      "required",
      "controls",
      "paste",
      "name",
      "navigator",
      "clipboard",
      "readText",
      "ngOnInit",
      "ɵfac",
      "EnrollmentComponent_Factory",
      "t",
      "ɵcmp",
      "ɵɵdefineComponent",
      "type",
      "selectors",
      "decls",
      "vars",
      "consts",
      "template",
      "EnrollmentComponent_Template",
      "ɵɵelement",
      "ɵɵlistener",
      "EnrollmentComponent_Template_input_ngModelChange_12_listener",
      "$event",
      "langue",
      "EnrollmentComponent_Template_input_ngModelChange_16_listener",
      "touched",
      "invalid",
      "valid",
      "directives",
      "ɵNgNoValidate",
      "NgControlStatusGroup",
      "FormGroupDirective",
      "DefaultValueAccessor",
      "RadioControlValueAccessor",
      "NgControlStatus",
      "FormControlName",
      "NgIf",
      "styles"
    ],
    "mappings": ";AAAA,SAASA,WAAT,EAAsBC,SAAtB,EAAiCC,UAAjC,QAAmD,gBAAnD;AACA,SAASC,UAAT,QAA2B,eAA3B;AACA,OAAO,KAAKC,EAAZ,MAAoB,eAApB;AACA,OAAO,KAAKC,EAAZ,MAAoB,gBAApB;AACA,OAAO,KAAKC,EAAZ,MAAoB,iBAApB;;AACA,SAASC,yCAAT,CAAmDC,EAAnD,EAAuDC,GAAvD,EAA4D;AAAE,MAAID,EAAE,GAAG,CAAT,EAAY;AACtEJ,IAAAA,EAAE,CAACM,cAAH,CAAkB,CAAlB,EAAqB,KAArB;AACAN,IAAAA,EAAE,CAACO,MAAH,CAAU,CAAV,EAAa,uBAAb;AACAP,IAAAA,EAAE,CAACQ,YAAH;AACH;AAAE;;AACH,SAASC,mCAAT,CAA6CL,EAA7C,EAAiDC,GAAjD,EAAsD;AAAE,MAAID,EAAE,GAAG,CAAT,EAAY;AAChEJ,IAAAA,EAAE,CAACM,cAAH,CAAkB,CAAlB,EAAqB,KAArB,EAA4B,EAA5B;AACAN,IAAAA,EAAE,CAACU,UAAH,CAAc,CAAd,EAAiBP,yCAAjB,EAA4D,CAA5D,EAA+D,CAA/D,EAAkE,KAAlE,EAAyE,EAAzE;AACAH,IAAAA,EAAE,CAACQ,YAAH;AACH;;AAAC,MAAIJ,EAAE,GAAG,CAAT,EAAY;AACV,UAAMO,MAAM,GAAGX,EAAE,CAACY,aAAH,EAAf;AACAZ,IAAAA,EAAE,CAACa,SAAH,CAAa,CAAb;AACAb,IAAAA,EAAE,CAACc,UAAH,CAAc,MAAd,EAAsBH,MAAM,CAACI,CAAP,CAAS,MAAT,EAAiBC,MAAjB,IAA2BL,MAAM,CAACI,CAAP,CAAS,MAAT,EAAiBC,MAAjB,CAAwB,UAAxB,CAAjD;AACH;AAAE;;AACH,OAAO,MAAMC,mBAAN,CAA0B;AAC7B;AACAC,EAAAA,WAAW,GAAG;AACV,SAAKC,UAAL,GAAkB,IAAIpB,UAAJ,EAAlB;AACA,SAAKqB,IAAL,GAAY,IAAIvB,SAAJ,CAAc;AACtBwB,MAAAA,IAAI,EAAE,IAAIzB,WAAJ,CAAgB,EAAhB,EAAoBE,UAAU,CAACwB,QAA/B;AADgB,KAAd,CAAZ;AAGH;;AACI,MAADP,CAAC,GAAG;AACJ,WAAO,KAAKK,IAAL,CAAUG,QAAjB;AACH;;AACKC,EAAAA,KAAK,GAAG;AAAA;;AAAA;AACV,MAAA,KAAI,CAACC,IAAL,SAAkBC,SAAS,CAACC,SAAV,CAAoBC,QAApB,EAAlB;AADU;AAEb;;AACDC,EAAAA,QAAQ,GAAG,CACV;;AAf4B;;AAiBjCZ,mBAAmB,CAACa,IAApB,GAA2B,SAASC,2BAAT,CAAqCC,CAArC,EAAwC;AAAE,SAAO,KAAKA,CAAC,IAAIf,mBAAV,GAAP;AAA0C,CAA/G;;AACAA,mBAAmB,CAACgB,IAApB,GAA2B,aAAcjC,EAAE,CAACkC,iBAAH,CAAqB;AAAEC,EAAAA,IAAI,EAAElB,mBAAR;AAA6BmB,EAAAA,SAAS,EAAE,CAAC,CAAC,gBAAD,CAAD,CAAxC;AAA8DC,EAAAA,KAAK,EAAE,EAArE;AAAyEC,EAAAA,IAAI,EAAE,CAA/E;AAAkFC,EAAAA,MAAM,EAAE,CAAC,CAAC,CAAD,EAAI,UAAJ,EAAgB,aAAhB,EAA+B,eAA/B,CAAD,EAAkD,CAAC,CAAD,EAAI,WAAJ,CAAlD,EAAoE,CAAC,CAAD,EAAI,WAAJ,CAApE,EAAsF,CAAC,CAAD,EAAI,YAAJ,CAAtF,EAAyG,CAAC,CAAD,EAAI,aAAJ,CAAzG,EAA6H,CAAC,CAAD,EAAI,qBAAJ,CAA7H,EAAyJ,CAAC,CAAD,EAAI,kBAAJ,CAAzJ,EAAkL,CAAC,OAAD,EAAU,EAAV,EAAc,YAAd,EAA4B,eAA5B,EAA6C,CAA7C,EAAgD,cAAhD,CAAlL,EAAmP,CAAC,CAAD,EAAI,YAAJ,CAAnP,EAAsQ,CAAC,iBAAD,EAAoB,MAApB,EAA4B,OAA5B,EAAqC,IAArC,EAA2C,MAA3C,EAAmD,OAAnD,EAA4D,MAA5D,EAAoE,MAApE,EAA4E,IAA5E,EAAkF,mBAAlF,EAAuG,CAAvG,EAA0G,kBAA1G,EAA8H,CAA9H,EAAiI,SAAjI,EAA4I,eAA5I,CAAtQ,EAAoa,CAAC,KAAD,EAAQ,mBAAR,EAA6B,CAA7B,EAAgC,kBAAhC,CAApa,EAAyd,CAAC,iBAAD,EAAoB,MAApB,EAA4B,OAA5B,EAAqC,IAArC,EAA2C,MAA3C,EAAmD,OAAnD,EAA4D,MAA5D,EAAoE,MAApE,EAA4E,IAA5E,EAAkF,mBAAlF,EAAuG,CAAvG,EAA0G,kBAA1G,EAA8H,CAA9H,EAAiI,SAAjI,EAA4I,SAA5I,EAAuJ,eAAvJ,CAAzd,EAAkoB,CAAC,KAAD,EAAQ,mBAAR,EAA6B,CAA7B,EAAgC,kBAAhC,CAAloB,EAAurB,CAAC,OAAD,EAAU,oBAAV,EAAgC,CAAhC,EAAmC,MAAnC,CAAvrB,EAAmuB,CAAC,MAAD,EAAS,QAAT,EAAmB,CAAnB,EAAsB,KAAtB,EAA6B,aAA7B,EAA4C,CAA5C,EAA+C,UAA/C,CAAnuB,EAA+xB,CAAC,CAAD,EAAI,OAAJ,EAAa,cAAb,CAA/xB,EAA6zB,CAAC,CAAD,EAAI,MAAJ,CAA7zB,CAA1F;AAAq6BC,EAAAA,QAAQ,EAAE,SAASC,4BAAT,CAAsCrC,EAAtC,EAA0CC,GAA1C,EAA+C;AAAE,QAAID,EAAE,GAAG,CAAT,EAAY;AACliCJ,MAAAA,EAAE,CAACM,cAAH,CAAkB,CAAlB,EAAqB,KAArB,EAA4B,CAA5B;AACAN,MAAAA,EAAE,CAACM,cAAH,CAAkB,CAAlB,EAAqB,KAArB,EAA4B,CAA5B;AACAN,MAAAA,EAAE,CAACM,cAAH,CAAkB,CAAlB,EAAqB,MAArB,EAA6B,CAA7B;AACAN,MAAAA,EAAE,CAACM,cAAH,CAAkB,CAAlB,EAAqB,KAArB,EAA4B,CAA5B;AACAN,MAAAA,EAAE,CAACM,cAAH,CAAkB,CAAlB,EAAqB,KAArB,EAA4B,CAA5B;AACAN,MAAAA,EAAE,CAACM,cAAH,CAAkB,CAAlB,EAAqB,KAArB,EAA4B,CAA5B;AACAN,MAAAA,EAAE,CAACM,cAAH,CAAkB,CAAlB,EAAqB,MAArB,EAA6B,CAA7B;AACAN,MAAAA,EAAE,CAACO,MAAH,CAAU,CAAV,EAAa,OAAb;AACAP,MAAAA,EAAE,CAACQ,YAAH;AACAR,MAAAA,EAAE,CAACQ,YAAH;AACAR,MAAAA,EAAE,CAAC0C,SAAH,CAAa,CAAb,EAAgB,UAAhB,EAA4B,CAA5B;AACA1C,MAAAA,EAAE,CAACQ,YAAH;AACAR,MAAAA,EAAE,CAACM,cAAH,CAAkB,CAAlB,EAAqB,GAArB;AACAN,MAAAA,EAAE,CAACO,MAAH,CAAU,EAAV,EAAc,oCAAd;AACAP,MAAAA,EAAE,CAACQ,YAAH;AACAR,MAAAA,EAAE,CAACM,cAAH,CAAkB,EAAlB,EAAsB,KAAtB,EAA6B,CAA7B;AACAN,MAAAA,EAAE,CAACM,cAAH,CAAkB,EAAlB,EAAsB,OAAtB,EAA+B,CAA/B;AACAN,MAAAA,EAAE,CAAC2C,UAAH,CAAc,eAAd,EAA+B,SAASC,4DAAT,CAAsEC,MAAtE,EAA8E;AAAE,eAAOxC,GAAG,CAACc,UAAJ,CAAe2B,MAAf,GAAwBD,MAA/B;AAAwC,OAAvJ;AACA7C,MAAAA,EAAE,CAACQ,YAAH;AACAR,MAAAA,EAAE,CAACM,cAAH,CAAkB,EAAlB,EAAsB,OAAtB,EAA+B,EAA/B;AACAN,MAAAA,EAAE,CAACO,MAAH,CAAU,EAAV,EAAc,MAAd;AACAP,MAAAA,EAAE,CAACQ,YAAH;AACAR,MAAAA,EAAE,CAACQ,YAAH;AACAR,MAAAA,EAAE,CAACM,cAAH,CAAkB,EAAlB,EAAsB,KAAtB,EAA6B,CAA7B;AACAN,MAAAA,EAAE,CAACM,cAAH,CAAkB,EAAlB,EAAsB,OAAtB,EAA+B,EAA/B;AACAN,MAAAA,EAAE,CAAC2C,UAAH,CAAc,eAAd,EAA+B,SAASI,4DAAT,CAAsEF,MAAtE,EAA8E;AAAE,eAAOxC,GAAG,CAACc,UAAJ,CAAe2B,MAAf,GAAwBD,MAA/B;AAAwC,OAAvJ;AACA7C,MAAAA,EAAE,CAACQ,YAAH;AACAR,MAAAA,EAAE,CAACM,cAAH,CAAkB,EAAlB,EAAsB,OAAtB,EAA+B,EAA/B;AACAN,MAAAA,EAAE,CAACO,MAAH,CAAU,EAAV,EAAc,MAAd;AACAP,MAAAA,EAAE,CAACQ,YAAH;AACAR,MAAAA,EAAE,CAACQ,YAAH;AACAR,MAAAA,EAAE,CAACU,UAAH,CAAc,EAAd,EAAkBD,mCAAlB,EAAuD,CAAvD,EAA0D,CAA1D,EAA6D,KAA7D,EAAoE,EAApE;AACAT,MAAAA,EAAE,CAACM,cAAH,CAAkB,EAAlB,EAAsB,QAAtB,EAAgC,EAAhC;AACAN,MAAAA,EAAE,CAACO,MAAH,CAAU,EAAV,EAAc,yBAAd;AACAP,MAAAA,EAAE,CAACQ,YAAH;AACAR,MAAAA,EAAE,CAACQ,YAAH;AACAR,MAAAA,EAAE,CAACQ,YAAH;AACAR,MAAAA,EAAE,CAACQ,YAAH;AACAR,MAAAA,EAAE,CAACQ,YAAH;AACH;;AAAC,QAAIJ,EAAE,GAAG,CAAT,EAAY;AACVJ,MAAAA,EAAE,CAACa,SAAH,CAAa,CAAb;AACAb,MAAAA,EAAE,CAACc,UAAH,CAAc,WAAd,EAA2BT,GAAG,CAACe,IAA/B;AACApB,MAAAA,EAAE,CAACa,SAAH,CAAa,EAAb;AACAb,MAAAA,EAAE,CAACc,UAAH,CAAc,SAAd,EAAyBT,GAAG,CAACc,UAAJ,CAAe2B,MAAxC;AACA9C,MAAAA,EAAE,CAACa,SAAH,CAAa,CAAb;AACAb,MAAAA,EAAE,CAACc,UAAH,CAAc,SAAd,EAAyBT,GAAG,CAACc,UAAJ,CAAe2B,MAAxC,EAAgD,SAAhD,EAA2D,IAA3D;AACA9C,MAAAA,EAAE,CAACa,SAAH,CAAa,CAAb;AACAb,MAAAA,EAAE,CAACc,UAAH,CAAc,MAAd,EAAsBT,GAAG,CAACU,CAAJ,CAAM,MAAN,EAAciC,OAAd,IAAyB3C,GAAG,CAACU,CAAJ,CAAM,MAAN,EAAckC,OAA7D;AACAjD,MAAAA,EAAE,CAACa,SAAH,CAAa,CAAb;AACAb,MAAAA,EAAE,CAACc,UAAH,CAAc,UAAd,EAA0B,CAACT,GAAG,CAACe,IAAJ,CAAS8B,KAApC;AACH;AAAE,GAnDuD;AAmDrDC,EAAAA,UAAU,EAAE,CAAClD,EAAE,CAACmD,aAAJ,EAAmBnD,EAAE,CAACoD,oBAAtB,EAA4CpD,EAAE,CAACqD,kBAA/C,EAAmErD,EAAE,CAACsD,oBAAtE,EAA4FtD,EAAE,CAACuD,yBAA/F,EAA0HvD,EAAE,CAACwD,eAA7H,EAA8IxD,EAAE,CAACyD,eAAjJ,EAAkKxD,EAAE,CAACyD,IAArK,CAnDyC;AAmDmIC,EAAAA,MAAM,EAAE,CAAC,6KAAD;AAnD3I,CAArB,CAAzC",
    "sourcesContent": [
      "import { FormControl, FormGroup, Validators } from \"@angular/forms\";\r\nimport { Enrollment } from \"../enrollment\";\r\nimport * as i0 from \"@angular/core\";\r\nimport * as i1 from \"@angular/forms\";\r\nimport * as i2 from \"@angular/common\";\r\nfunction EnrollmentComponent_div_19_div_1_Template(rf, ctx) { if (rf & 1) {\r\n    i0.ɵɵelementStart(0, \"div\");\r\n    i0.ɵɵtext(1, \"Language is required.\");\r\n    i0.ɵɵelementEnd();\r\n} }\r\nfunction EnrollmentComponent_div_19_Template(rf, ctx) { if (rf & 1) {\r\n    i0.ɵɵelementStart(0, \"div\", 15);\r\n    i0.ɵɵtemplate(1, EnrollmentComponent_div_19_div_1_Template, 2, 0, \"div\", 16);\r\n    i0.ɵɵelementEnd();\r\n} if (rf & 2) {\r\n    const ctx_r0 = i0.ɵɵnextContext();\r\n    i0.ɵɵadvance(1);\r\n    i0.ɵɵproperty(\"ngIf\", ctx_r0.f[\"lang\"].errors || ctx_r0.f[\"lang\"].errors[\"required\"]);\r\n} }\r\nexport class EnrollmentComponent {\r\n    //token:any;\r\n    constructor() {\r\n        this.enrollment = new Enrollment();\r\n        this.form = new FormGroup({\r\n            lang: new FormControl('', Validators.required)\r\n        });\r\n    }\r\n    get f() {\r\n        return this.form.controls;\r\n    }\r\n    async paste() {\r\n        this.name = await navigator.clipboard.readText();\r\n    }\r\n    ngOnInit() {\r\n    }\r\n}\r\nEnrollmentComponent.ɵfac = function EnrollmentComponent_Factory(t) { return new (t || EnrollmentComponent)(); };\r\nEnrollmentComponent.ɵcmp = /*@__PURE__*/ i0.ɵɵdefineComponent({ type: EnrollmentComponent, selectors: [[\"app-enrollment\"]], decls: 22, vars: 6, consts: [[1, \"col-md-4\", \"offset-md-3\", \"register-form\"], [1, \"container\"], [3, \"formGroup\"], [1, \"form-group\"], [1, \"input-group\"], [1, \"input-group-prepend\"], [1, \"input-group-text\"], [\"value\", \"\", \"aria-label\", \"With textarea\", 1, \"form-control\"], [1, \"form-check\"], [\"formControlName\", \"lang\", \"value\", \"en\", \"type\", \"radio\", \"name\", \"lang\", \"id\", \"flexRadioDefault1\", 1, \"form-check-input\", 3, \"ngModel\", \"ngModelChange\"], [\"for\", \"flexRadioDefault1\", 1, \"form-check-label\"], [\"formControlName\", \"lang\", \"value\", \"fr\", \"type\", \"radio\", \"name\", \"lang\", \"id\", \"flexRadioDefault2\", 1, \"form-check-input\", 3, \"ngModel\", \"checked\", \"ngModelChange\"], [\"for\", \"flexRadioDefault2\", 1, \"form-check-label\"], [\"class\", \"alert alert-danger\", 4, \"ngIf\"], [\"type\", \"submit\", 1, \"btn\", \"btn-primary\", 3, \"disabled\"], [1, \"alert\", \"alert-danger\"], [4, \"ngIf\"]], template: function EnrollmentComponent_Template(rf, ctx) { if (rf & 1) {\r\n        i0.ɵɵelementStart(0, \"div\", 0);\r\n        i0.ɵɵelementStart(1, \"div\", 1);\r\n        i0.ɵɵelementStart(2, \"form\", 2);\r\n        i0.ɵɵelementStart(3, \"div\", 3);\r\n        i0.ɵɵelementStart(4, \"div\", 4);\r\n        i0.ɵɵelementStart(5, \"div\", 5);\r\n        i0.ɵɵelementStart(6, \"span\", 6);\r\n        i0.ɵɵtext(7, \"Token\");\r\n        i0.ɵɵelementEnd();\r\n        i0.ɵɵelementEnd();\r\n        i0.ɵɵelement(8, \"textarea\", 7);\r\n        i0.ɵɵelementEnd();\r\n        i0.ɵɵelementStart(9, \"p\");\r\n        i0.ɵɵtext(10, \"Indiquez la langue \\u00E0 utiliser\");\r\n        i0.ɵɵelementEnd();\r\n        i0.ɵɵelementStart(11, \"div\", 8);\r\n        i0.ɵɵelementStart(12, \"input\", 9);\r\n        i0.ɵɵlistener(\"ngModelChange\", function EnrollmentComponent_Template_input_ngModelChange_12_listener($event) { return ctx.enrollment.langue = $event; });\r\n        i0.ɵɵelementEnd();\r\n        i0.ɵɵelementStart(13, \"label\", 10);\r\n        i0.ɵɵtext(14, \" EN \");\r\n        i0.ɵɵelementEnd();\r\n        i0.ɵɵelementEnd();\r\n        i0.ɵɵelementStart(15, \"div\", 8);\r\n        i0.ɵɵelementStart(16, \"input\", 11);\r\n        i0.ɵɵlistener(\"ngModelChange\", function EnrollmentComponent_Template_input_ngModelChange_16_listener($event) { return ctx.enrollment.langue = $event; });\r\n        i0.ɵɵelementEnd();\r\n        i0.ɵɵelementStart(17, \"label\", 12);\r\n        i0.ɵɵtext(18, \" FR \");\r\n        i0.ɵɵelementEnd();\r\n        i0.ɵɵelementEnd();\r\n        i0.ɵɵtemplate(19, EnrollmentComponent_div_19_Template, 2, 1, \"div\", 13);\r\n        i0.ɵɵelementStart(20, \"button\", 14);\r\n        i0.ɵɵtext(21, \"G\\u00E9n\\u00E9rer Token\");\r\n        i0.ɵɵelementEnd();\r\n        i0.ɵɵelementEnd();\r\n        i0.ɵɵelementEnd();\r\n        i0.ɵɵelementEnd();\r\n        i0.ɵɵelementEnd();\r\n    } if (rf & 2) {\r\n        i0.ɵɵadvance(2);\r\n        i0.ɵɵproperty(\"formGroup\", ctx.form);\r\n        i0.ɵɵadvance(10);\r\n        i0.ɵɵproperty(\"ngModel\", ctx.enrollment.langue);\r\n        i0.ɵɵadvance(4);\r\n        i0.ɵɵproperty(\"ngModel\", ctx.enrollment.langue)(\"checked\", true);\r\n        i0.ɵɵadvance(3);\r\n        i0.ɵɵproperty(\"ngIf\", ctx.f[\"lang\"].touched && ctx.f[\"lang\"].invalid);\r\n        i0.ɵɵadvance(1);\r\n        i0.ɵɵproperty(\"disabled\", !ctx.form.valid);\r\n    } }, directives: [i1.ɵNgNoValidate, i1.NgControlStatusGroup, i1.FormGroupDirective, i1.DefaultValueAccessor, i1.RadioControlValueAccessor, i1.NgControlStatus, i1.FormControlName, i2.NgIf], styles: [\"\\n/*# sourceMappingURL=data:application/json;base64,eyJ2ZXJzaW9uIjozLCJzb3VyY2VzIjpbXSwibmFtZXMiOltdLCJtYXBwaW5ncyI6IiIsImZpbGUiOiJlbnJvbGxtZW50LmNvbXBvbmVudC5jc3MifQ== */\"] });\r\n"
    ]
  },
  "metadata": {},
  "sourceType": "module"
}
