{
  "ast": null,
  "code": "import _asyncToGenerator from \"F:/angulardev/frontWhispeak/node_modules/@babel/runtime/helpers/esm/asyncToGenerator\";\nimport { GenerateToken } from \"../generate-token\";\nimport { FormControl, FormGroup, Validators } from \"@angular/forms\";\nimport * as i0 from \"@angular/core\";\nimport * as i1 from \"../generate-token.service\";\nimport * as i2 from \"@angular/router\";\nimport * as i3 from \"@angular/forms\";\nimport * as i4 from \"@angular/common\";\nimport * as i5 from \"ngx-clipboard\";\n\nfunction GenerateTokenComponent_div_16_div_1_Template(rf, ctx) {\n  if (rf & 1) {\n    i0.ɵɵelementStart(0, \"div\");\n    i0.ɵɵtext(1, \"Language is required.\");\n    i0.ɵɵelementEnd();\n  }\n}\n\nfunction GenerateTokenComponent_div_16_Template(rf, ctx) {\n  if (rf & 1) {\n    i0.ɵɵelementStart(0, \"div\", 15);\n    i0.ɵɵtemplate(1, GenerateTokenComponent_div_16_div_1_Template, 2, 0, \"div\", 16);\n    i0.ɵɵelementEnd();\n  }\n\n  if (rf & 2) {\n    const ctx_r0 = i0.ɵɵnextContext();\n    i0.ɵɵadvance(1);\n    i0.ɵɵproperty(\"ngIf\", ctx_r0.f[\"lang\"].errors || ctx_r0.f[\"lang\"].errors[\"required\"]);\n  }\n}\n\nfunction GenerateTokenComponent_div_17_button_7_Template(rf, ctx) {\n  if (rf & 1) {\n    i0.ɵɵelementStart(0, \"button\", 23);\n    i0.ɵɵtext(1, \"Copier\");\n    i0.ɵɵelementEnd();\n  }\n\n  if (rf & 2) {\n    i0.ɵɵnextContext();\n\n    const _r6 = i0.ɵɵreference(5);\n\n    i0.ɵɵproperty(\"ngxClipboard\", _r6);\n  }\n}\n\nfunction GenerateTokenComponent_div_17_Template(rf, ctx) {\n  if (rf & 1) {\n    i0.ɵɵelementStart(0, \"div\", 17);\n    i0.ɵɵelementStart(1, \"div\", 18);\n    i0.ɵɵelementStart(2, \"span\", 19);\n    i0.ɵɵtext(3, \"Token\");\n    i0.ɵɵelementEnd();\n    i0.ɵɵelementEnd();\n    i0.ɵɵelement(4, \"textarea\", 20, 21);\n    i0.ɵɵelement(6, \"br\");\n    i0.ɵɵtemplate(7, GenerateTokenComponent_div_17_button_7_Template, 2, 1, \"button\", 22);\n    i0.ɵɵelementEnd();\n  }\n\n  if (rf & 2) {\n    const ctx_r1 = i0.ɵɵnextContext();\n    i0.ɵɵadvance(4);\n    i0.ɵɵpropertyInterpolate(\"value\", ctx_r1.token);\n    i0.ɵɵproperty(\"readonly\", true);\n    i0.ɵɵadvance(3);\n    i0.ɵɵproperty(\"ngIf\", ctx_r1.r > 0);\n  }\n}\n\nfunction GenerateTokenComponent_div_19_Template(rf, ctx) {\n  if (rf & 1) {\n    i0.ɵɵelementStart(0, \"div\", 24);\n    i0.ɵɵelementStart(1, \"div\", 18);\n    i0.ɵɵelementStart(2, \"span\", 25);\n    i0.ɵɵtext(3, \"Date cr\\u00E9ation\");\n    i0.ɵɵelementEnd();\n    i0.ɵɵelementEnd();\n    i0.ɵɵelement(4, \"input\", 26);\n    i0.ɵɵpipe(5, \"date\");\n    i0.ɵɵelementEnd();\n  }\n\n  if (rf & 2) {\n    const ctx_r2 = i0.ɵɵnextContext();\n    i0.ɵɵadvance(4);\n    i0.ɵɵpropertyInterpolate(\"value\", i0.ɵɵpipeBind2(5, 2, ctx_r2.date_creation, \"dd-MMM-yyyy hh:mm:ss\"));\n    i0.ɵɵproperty(\"readonly\", true);\n  }\n}\n\nfunction GenerateTokenComponent_div_20_Template(rf, ctx) {\n  if (rf & 1) {\n    i0.ɵɵelementStart(0, \"div\", 24);\n    i0.ɵɵelementStart(1, \"div\", 18);\n    i0.ɵɵelementStart(2, \"span\", 27);\n    i0.ɵɵtext(3, \"Date expiration\");\n    i0.ɵɵelementEnd();\n    i0.ɵɵelementEnd();\n    i0.ɵɵelement(4, \"input\", 28);\n    i0.ɵɵpipe(5, \"date\");\n    i0.ɵɵelementEnd();\n  }\n\n  if (rf & 2) {\n    const ctx_r3 = i0.ɵɵnextContext();\n    i0.ɵɵadvance(4);\n    i0.ɵɵpropertyInterpolate(\"value\", i0.ɵɵpipeBind2(5, 2, ctx_r3.date_expiration, \"dd-MMM-yyyy hh:mm:ss\"));\n    i0.ɵɵproperty(\"readonly\", true);\n  }\n}\n\nfunction GenerateTokenComponent_div_23_div_22_div_1_Template(rf, ctx) {\n  if (rf & 1) {\n    i0.ɵɵelementStart(0, \"div\");\n    i0.ɵɵtext(1, \"Language is required.\");\n    i0.ɵɵelementEnd();\n  }\n}\n\nfunction GenerateTokenComponent_div_23_div_22_Template(rf, ctx) {\n  if (rf & 1) {\n    i0.ɵɵelementStart(0, \"div\", 15);\n    i0.ɵɵtemplate(1, GenerateTokenComponent_div_23_div_22_div_1_Template, 2, 0, \"div\", 16);\n    i0.ɵɵelementEnd();\n  }\n\n  if (rf & 2) {\n    const ctx_r8 = i0.ɵɵnextContext(2);\n    i0.ɵɵadvance(1);\n    i0.ɵɵproperty(\"ngIf\", ctx_r8.f2[\"langu\"].errors || ctx_r8.f[\"langu\"].errors[\"required\"]);\n  }\n}\n\nfunction GenerateTokenComponent_div_23_Template(rf, ctx) {\n  if (rf & 1) {\n    const _r11 = i0.ɵɵgetCurrentView();\n\n    i0.ɵɵelementStart(0, \"div\", 0);\n    i0.ɵɵelementStart(1, \"div\", 1);\n    i0.ɵɵelementStart(2, \"form\", 29);\n    i0.ɵɵelementStart(3, \"div\", 4);\n    i0.ɵɵelementStart(4, \"div\", 17);\n    i0.ɵɵelementStart(5, \"div\", 18);\n    i0.ɵɵelementStart(6, \"span\", 19);\n    i0.ɵɵtext(7, \"Token\");\n    i0.ɵɵelementEnd();\n    i0.ɵɵelementEnd();\n    i0.ɵɵelement(8, \"textarea\", 30);\n    i0.ɵɵelement(9, \"br\");\n    i0.ɵɵelementStart(10, \"button\", 31);\n    i0.ɵɵlistener(\"click\", function GenerateTokenComponent_div_23_Template_button_click_10_listener() {\n      i0.ɵɵrestoreView(_r11);\n      const ctx_r10 = i0.ɵɵnextContext();\n      return ctx_r10.paste();\n    });\n    i0.ɵɵtext(11, \"Coller\");\n    i0.ɵɵelementEnd();\n    i0.ɵɵelementEnd();\n    i0.ɵɵelementStart(12, \"p\");\n    i0.ɵɵtext(13, \"Indiquez la langue \\u00E0 utiliser\");\n    i0.ɵɵelementEnd();\n    i0.ɵɵelementStart(14, \"div\", 5);\n    i0.ɵɵelementStart(15, \"input\", 32);\n    i0.ɵɵlistener(\"ngModelChange\", function GenerateTokenComponent_div_23_Template_input_ngModelChange_15_listener($event) {\n      i0.ɵɵrestoreView(_r11);\n      const ctx_r12 = i0.ɵɵnextContext();\n      return ctx_r12.generatetoken.langue2 = $event;\n    });\n    i0.ɵɵelementEnd();\n    i0.ɵɵelementStart(16, \"label\", 7);\n    i0.ɵɵtext(17, \" EN \");\n    i0.ɵɵelementEnd();\n    i0.ɵɵelementEnd();\n    i0.ɵɵelementStart(18, \"div\", 5);\n    i0.ɵɵelementStart(19, \"input\", 33);\n    i0.ɵɵlistener(\"ngModelChange\", function GenerateTokenComponent_div_23_Template_input_ngModelChange_19_listener($event) {\n      i0.ɵɵrestoreView(_r11);\n      const ctx_r13 = i0.ɵɵnextContext();\n      return ctx_r13.generatetoken.langue2 = $event;\n    });\n    i0.ɵɵelementEnd();\n    i0.ɵɵelementStart(20, \"label\", 9);\n    i0.ɵɵtext(21, \" FR \");\n    i0.ɵɵelementEnd();\n    i0.ɵɵelementEnd();\n    i0.ɵɵtemplate(22, GenerateTokenComponent_div_23_div_22_Template, 2, 1, \"div\", 10);\n    i0.ɵɵelementStart(23, \"button\", 13);\n    i0.ɵɵtext(24, \"G\\u00E9n\\u00E9rer Token\");\n    i0.ɵɵelementEnd();\n    i0.ɵɵelementEnd();\n    i0.ɵɵelementEnd();\n    i0.ɵɵelementEnd();\n    i0.ɵɵelementEnd();\n  }\n\n  if (rf & 2) {\n    const ctx_r4 = i0.ɵɵnextContext();\n    i0.ɵɵadvance(2);\n    i0.ɵɵproperty(\"formGroup\", ctx_r4.form1);\n    i0.ɵɵadvance(6);\n    i0.ɵɵpropertyInterpolate(\"value\", ctx_r4.name);\n    i0.ɵɵadvance(7);\n    i0.ɵɵproperty(\"ngModel\", ctx_r4.generatetoken.langue2);\n    i0.ɵɵadvance(4);\n    i0.ɵɵproperty(\"ngModel\", ctx_r4.generatetoken.langue2)(\"checked\", true);\n    i0.ɵɵadvance(3);\n    i0.ɵɵproperty(\"ngIf\", ctx_r4.f2[\"langu\"].touched && ctx_r4.f[\"langu\"].invalid);\n    i0.ɵɵadvance(1);\n    i0.ɵɵproperty(\"disabled\", !ctx_r4.form1.valid);\n  }\n}\n\nexport class GenerateTokenComponent {\n  constructor(genTokenService, router) {\n    this.genTokenService = genTokenService;\n    this.router = router;\n    this.afficher = false;\n    this.r = 0;\n    this.generatetoken = new GenerateToken();\n    this.form = new FormGroup({\n      lang: new FormControl('', Validators.required)\n    });\n    this.name = ''; //token:any;\n\n    this.form1 = new FormGroup({\n      langu: new FormControl('', Validators.required)\n    });\n  }\n\n  get f() {\n    return this.form.controls;\n  }\n\n  genToken() {\n    let langue = this.form.value + \"\";\n    console.log(typeof langue.toString());\n\n    if (langue.includes('f')) {\n      langue = \"fr\";\n    } else {\n      langue = \"en\";\n    }\n\n    this.genTokenService.generateToken(langue).subscribe(data => {\n      this.afficher = true; //this.copyToken(data['token']);\n\n      this.r++;\n      console.log(data['token']);\n      this.token = data['token'];\n      this.date_creation = data['created_at'];\n      this.date_expiration = data['expire_at']; //this.enrollment.copyToken();\n    }, error => console.log(error));\n  }\n  /*copyToken(tk):string{\r\n    this.token=tk;\r\n    return this.token;\r\n  }*/\n\n\n  ngOnInit() {}\n\n  get f2() {\n    return this.form1.controls;\n  }\n\n  paste() {\n    var _this = this;\n\n    return _asyncToGenerator(function* () {\n      _this.name = yield navigator.clipboard.readText();\n    })();\n  }\n\n}\n\nGenerateTokenComponent.ɵfac = function GenerateTokenComponent_Factory(t) {\n  return new (t || GenerateTokenComponent)(i0.ɵɵdirectiveInject(i1.GenerateTokenService), i0.ɵɵdirectiveInject(i2.Router));\n};\n\nGenerateTokenComponent.ɵcmp = /*@__PURE__*/i0.ɵɵdefineComponent({\n  type: GenerateTokenComponent,\n  selectors: [[\"app-generate-token\"]],\n  decls: 24,\n  vars: 10,\n  consts: [[1, \"col-md-4\", \"offset-md-3\", \"register-form\"], [1, \"container\"], [\"text-weight\", \"bold\"], [3, \"formGroup\", \"ngSubmit\"], [1, \"form-group\"], [1, \"form-check\"], [\"formControlName\", \"lang\", \"value\", \"en\", \"type\", \"radio\", \"name\", \"lang\", \"id\", \"flexRadioDefault1\", 1, \"form-check-input\", 3, \"ngModel\", \"ngModelChange\"], [\"for\", \"flexRadioDefault1\", 1, \"form-check-label\"], [\"formControlName\", \"lang\", \"value\", \"fr\", \"type\", \"radio\", \"name\", \"lang\", \"id\", \"flexRadioDefault2\", 1, \"form-check-input\", 3, \"ngModel\", \"checked\", \"ngModelChange\"], [\"for\", \"flexRadioDefault2\", 1, \"form-check-label\"], [\"class\", \"alert alert-danger\", 4, \"ngIf\"], [\"class\", \"input-group\", 4, \"ngIf\"], [\"class\", \"input-group mb-3\", 4, \"ngIf\"], [\"type\", \"submit\", 1, \"btn\", \"btn-primary\", 3, \"disabled\"], [\"class\", \"col-md-4 offset-md-3 register-form\", 4, \"ngIf\"], [1, \"alert\", \"alert-danger\"], [4, \"ngIf\"], [1, \"input-group\"], [1, \"input-group-prepend\"], [1, \"input-group-text\"], [\"aria-label\", \"With textarea\", 1, \"form-control\", 3, \"readonly\", \"value\"], [\"text\", \"\"], [\"{{r}}++\", \"\", \"class\", \"btn btn-primary\", 3, \"ngxClipboard\", 4, \"ngIf\"], [\"{{r}}++\", \"\", 1, \"btn\", \"btn-primary\", 3, \"ngxClipboard\"], [1, \"input-group\", \"mb-3\"], [\"id\", \"basic-addon2\", 1, \"input-group-text\"], [\"type\", \"text\", \"id\", \"basic-url2\", \"aria-describedby\", \"basic-addon3\", 1, \"form-control\", 3, \"value\", \"readonly\"], [\"id\", \"basic-addon3\", 1, \"input-group-text\"], [\"type\", \"text\", \"id\", \"basic-url\", \"aria-describedby\", \"basic-addon3\", 1, \"form-control\", 3, \"value\", \"readonly\"], [3, \"formGroup\"], [\"aria-label\", \"With textarea\", 1, \"form-control\", 3, \"value\"], [1, \"btn\", \"btn-primary\", 3, \"click\"], [\"formControlName\", \"langu\", \"value\", \"en\", \"type\", \"radio\", \"name\", \"langu\", \"id\", \"flexRadioDefault3\", 1, \"form-check-input\", 3, \"ngModel\", \"ngModelChange\"], [\"formControlName\", \"langu\", \"value\", \"fr\", \"type\", \"radio\", \"name\", \"langu\", \"id\", \"flexRadioDefault4\", 1, \"form-check-input\", 3, \"ngModel\", \"checked\", \"ngModelChange\"]],\n  template: function GenerateTokenComponent_Template(rf, ctx) {\n    if (rf & 1) {\n      i0.ɵɵelementStart(0, \"div\", 0);\n      i0.ɵɵelementStart(1, \"div\", 1);\n      i0.ɵɵelementStart(2, \"p\", 2);\n      i0.ɵɵtext(3, \"NB: Le token ne dure que 5 minutes\");\n      i0.ɵɵelementEnd();\n      i0.ɵɵelementStart(4, \"form\", 3);\n      i0.ɵɵlistener(\"ngSubmit\", function GenerateTokenComponent_Template_form_ngSubmit_4_listener() {\n        return ctx.genToken();\n      });\n      i0.ɵɵelementStart(5, \"div\", 4);\n      i0.ɵɵelementStart(6, \"p\");\n      i0.ɵɵtext(7, \"Indiquez la langue \\u00E0 utiliser\");\n      i0.ɵɵelementEnd();\n      i0.ɵɵelementStart(8, \"div\", 5);\n      i0.ɵɵelementStart(9, \"input\", 6);\n      i0.ɵɵlistener(\"ngModelChange\", function GenerateTokenComponent_Template_input_ngModelChange_9_listener($event) {\n        return ctx.generatetoken.langue = $event;\n      });\n      i0.ɵɵelementEnd();\n      i0.ɵɵelementStart(10, \"label\", 7);\n      i0.ɵɵtext(11, \" EN \");\n      i0.ɵɵelementEnd();\n      i0.ɵɵelementEnd();\n      i0.ɵɵelementStart(12, \"div\", 5);\n      i0.ɵɵelementStart(13, \"input\", 8);\n      i0.ɵɵlistener(\"ngModelChange\", function GenerateTokenComponent_Template_input_ngModelChange_13_listener($event) {\n        return ctx.generatetoken.langue = $event;\n      });\n      i0.ɵɵelementEnd();\n      i0.ɵɵelementStart(14, \"label\", 9);\n      i0.ɵɵtext(15, \" FR \");\n      i0.ɵɵelementEnd();\n      i0.ɵɵelementEnd();\n      i0.ɵɵtemplate(16, GenerateTokenComponent_div_16_Template, 2, 1, \"div\", 10);\n      i0.ɵɵtemplate(17, GenerateTokenComponent_div_17_Template, 8, 3, \"div\", 11);\n      i0.ɵɵelement(18, \"br\");\n      i0.ɵɵtemplate(19, GenerateTokenComponent_div_19_Template, 6, 5, \"div\", 12);\n      i0.ɵɵtemplate(20, GenerateTokenComponent_div_20_Template, 6, 5, \"div\", 12);\n      i0.ɵɵelementStart(21, \"button\", 13);\n      i0.ɵɵtext(22, \"G\\u00E9n\\u00E9rer Token\");\n      i0.ɵɵelementEnd();\n      i0.ɵɵelementEnd();\n      i0.ɵɵelementEnd();\n      i0.ɵɵelementEnd();\n      i0.ɵɵelementEnd();\n      i0.ɵɵtemplate(23, GenerateTokenComponent_div_23_Template, 25, 7, \"div\", 14);\n    }\n\n    if (rf & 2) {\n      i0.ɵɵadvance(4);\n      i0.ɵɵproperty(\"formGroup\", ctx.form);\n      i0.ɵɵadvance(5);\n      i0.ɵɵproperty(\"ngModel\", ctx.generatetoken.langue);\n      i0.ɵɵadvance(4);\n      i0.ɵɵproperty(\"ngModel\", ctx.generatetoken.langue)(\"checked\", true);\n      i0.ɵɵadvance(3);\n      i0.ɵɵproperty(\"ngIf\", ctx.f[\"lang\"].touched && ctx.f[\"lang\"].invalid);\n      i0.ɵɵadvance(1);\n      i0.ɵɵproperty(\"ngIf\", ctx.afficher);\n      i0.ɵɵadvance(2);\n      i0.ɵɵproperty(\"ngIf\", ctx.afficher);\n      i0.ɵɵadvance(1);\n      i0.ɵɵproperty(\"ngIf\", ctx.afficher);\n      i0.ɵɵadvance(1);\n      i0.ɵɵproperty(\"disabled\", !ctx.form.valid);\n      i0.ɵɵadvance(2);\n      i0.ɵɵproperty(\"ngIf\", ctx.r > 0);\n    }\n  },\n  directives: [i3.ɵNgNoValidate, i3.NgControlStatusGroup, i3.FormGroupDirective, i3.DefaultValueAccessor, i3.RadioControlValueAccessor, i3.NgControlStatus, i3.FormControlName, i4.NgIf, i5.ClipboardDirective],\n  pipes: [i4.DatePipe],\n  styles: [\"\\n/*# sourceMappingURL=data:application/json;base64,eyJ2ZXJzaW9uIjozLCJzb3VyY2VzIjpbXSwibmFtZXMiOltdLCJtYXBwaW5ncyI6IiIsImZpbGUiOiJnZW5lcmF0ZS10b2tlbi5jb21wb25lbnQuY3NzIn0= */\"]\n});",
  "map": {
    "version": 3,
    "sources": [
      "F:/angulardev/frontWhispeak/src/app/generate-token/generate-token.component.ts"
    ],
    "names": [
      "GenerateToken",
      "FormControl",
      "FormGroup",
      "Validators",
      "i0",
      "i1",
      "i2",
      "i3",
      "i4",
      "i5",
      "GenerateTokenComponent_div_16_div_1_Template",
      "rf",
      "ctx",
      "ɵɵelementStart",
      "ɵɵtext",
      "ɵɵelementEnd",
      "GenerateTokenComponent_div_16_Template",
      "ɵɵtemplate",
      "ctx_r0",
      "ɵɵnextContext",
      "ɵɵadvance",
      "ɵɵproperty",
      "f",
      "errors",
      "GenerateTokenComponent_div_17_button_7_Template",
      "_r6",
      "ɵɵreference",
      "GenerateTokenComponent_div_17_Template",
      "ɵɵelement",
      "ctx_r1",
      "ɵɵpropertyInterpolate",
      "token",
      "r",
      "GenerateTokenComponent_div_19_Template",
      "ɵɵpipe",
      "ctx_r2",
      "ɵɵpipeBind2",
      "date_creation",
      "GenerateTokenComponent_div_20_Template",
      "ctx_r3",
      "date_expiration",
      "GenerateTokenComponent_div_23_div_22_div_1_Template",
      "GenerateTokenComponent_div_23_div_22_Template",
      "ctx_r8",
      "f2",
      "GenerateTokenComponent_div_23_Template",
      "_r11",
      "ɵɵgetCurrentView",
      "ɵɵlistener",
      "GenerateTokenComponent_div_23_Template_button_click_10_listener",
      "ɵɵrestoreView",
      "ctx_r10",
      "paste",
      "GenerateTokenComponent_div_23_Template_input_ngModelChange_15_listener",
      "$event",
      "ctx_r12",
      "generatetoken",
      "langue2",
      "GenerateTokenComponent_div_23_Template_input_ngModelChange_19_listener",
      "ctx_r13",
      "ctx_r4",
      "form1",
      "name",
      "touched",
      "invalid",
      "valid",
      "GenerateTokenComponent",
      "constructor",
      "genTokenService",
      "router",
      "afficher",
      "form",
      "lang",
      "required",
      "langu",
      "controls",
      "genToken",
      "langue",
      "value",
      "console",
      "log",
      "toString",
      "includes",
      "generateToken",
      "subscribe",
      "data",
      "error",
      "ngOnInit",
      "navigator",
      "clipboard",
      "readText",
      "ɵfac",
      "GenerateTokenComponent_Factory",
      "t",
      "ɵɵdirectiveInject",
      "GenerateTokenService",
      "Router",
      "ɵcmp",
      "ɵɵdefineComponent",
      "type",
      "selectors",
      "decls",
      "vars",
      "consts",
      "template",
      "GenerateTokenComponent_Template",
      "GenerateTokenComponent_Template_form_ngSubmit_4_listener",
      "GenerateTokenComponent_Template_input_ngModelChange_9_listener",
      "GenerateTokenComponent_Template_input_ngModelChange_13_listener",
      "directives",
      "ɵNgNoValidate",
      "NgControlStatusGroup",
      "FormGroupDirective",
      "DefaultValueAccessor",
      "RadioControlValueAccessor",
      "NgControlStatus",
      "FormControlName",
      "NgIf",
      "ClipboardDirective",
      "pipes",
      "DatePipe",
      "styles"
    ],
    "mappings": ";AAAA,SAASA,aAAT,QAA8B,mBAA9B;AACA,SAASC,WAAT,EAAsBC,SAAtB,EAAiCC,UAAjC,QAAmD,gBAAnD;AACA,OAAO,KAAKC,EAAZ,MAAoB,eAApB;AACA,OAAO,KAAKC,EAAZ,MAAoB,2BAApB;AACA,OAAO,KAAKC,EAAZ,MAAoB,iBAApB;AACA,OAAO,KAAKC,EAAZ,MAAoB,gBAApB;AACA,OAAO,KAAKC,EAAZ,MAAoB,iBAApB;AACA,OAAO,KAAKC,EAAZ,MAAoB,eAApB;;AACA,SAASC,4CAAT,CAAsDC,EAAtD,EAA0DC,GAA1D,EAA+D;AAAE,MAAID,EAAE,GAAG,CAAT,EAAY;AACzEP,IAAAA,EAAE,CAACS,cAAH,CAAkB,CAAlB,EAAqB,KAArB;AACAT,IAAAA,EAAE,CAACU,MAAH,CAAU,CAAV,EAAa,uBAAb;AACAV,IAAAA,EAAE,CAACW,YAAH;AACH;AAAE;;AACH,SAASC,sCAAT,CAAgDL,EAAhD,EAAoDC,GAApD,EAAyD;AAAE,MAAID,EAAE,GAAG,CAAT,EAAY;AACnEP,IAAAA,EAAE,CAACS,cAAH,CAAkB,CAAlB,EAAqB,KAArB,EAA4B,EAA5B;AACAT,IAAAA,EAAE,CAACa,UAAH,CAAc,CAAd,EAAiBP,4CAAjB,EAA+D,CAA/D,EAAkE,CAAlE,EAAqE,KAArE,EAA4E,EAA5E;AACAN,IAAAA,EAAE,CAACW,YAAH;AACH;;AAAC,MAAIJ,EAAE,GAAG,CAAT,EAAY;AACV,UAAMO,MAAM,GAAGd,EAAE,CAACe,aAAH,EAAf;AACAf,IAAAA,EAAE,CAACgB,SAAH,CAAa,CAAb;AACAhB,IAAAA,EAAE,CAACiB,UAAH,CAAc,MAAd,EAAsBH,MAAM,CAACI,CAAP,CAAS,MAAT,EAAiBC,MAAjB,IAA2BL,MAAM,CAACI,CAAP,CAAS,MAAT,EAAiBC,MAAjB,CAAwB,UAAxB,CAAjD;AACH;AAAE;;AACH,SAASC,+CAAT,CAAyDb,EAAzD,EAA6DC,GAA7D,EAAkE;AAAE,MAAID,EAAE,GAAG,CAAT,EAAY;AAC5EP,IAAAA,EAAE,CAACS,cAAH,CAAkB,CAAlB,EAAqB,QAArB,EAA+B,EAA/B;AACAT,IAAAA,EAAE,CAACU,MAAH,CAAU,CAAV,EAAa,QAAb;AACAV,IAAAA,EAAE,CAACW,YAAH;AACH;;AAAC,MAAIJ,EAAE,GAAG,CAAT,EAAY;AACVP,IAAAA,EAAE,CAACe,aAAH;;AACA,UAAMM,GAAG,GAAGrB,EAAE,CAACsB,WAAH,CAAe,CAAf,CAAZ;;AACAtB,IAAAA,EAAE,CAACiB,UAAH,CAAc,cAAd,EAA8BI,GAA9B;AACH;AAAE;;AACH,SAASE,sCAAT,CAAgDhB,EAAhD,EAAoDC,GAApD,EAAyD;AAAE,MAAID,EAAE,GAAG,CAAT,EAAY;AACnEP,IAAAA,EAAE,CAACS,cAAH,CAAkB,CAAlB,EAAqB,KAArB,EAA4B,EAA5B;AACAT,IAAAA,EAAE,CAACS,cAAH,CAAkB,CAAlB,EAAqB,KAArB,EAA4B,EAA5B;AACAT,IAAAA,EAAE,CAACS,cAAH,CAAkB,CAAlB,EAAqB,MAArB,EAA6B,EAA7B;AACAT,IAAAA,EAAE,CAACU,MAAH,CAAU,CAAV,EAAa,OAAb;AACAV,IAAAA,EAAE,CAACW,YAAH;AACAX,IAAAA,EAAE,CAACW,YAAH;AACAX,IAAAA,EAAE,CAACwB,SAAH,CAAa,CAAb,EAAgB,UAAhB,EAA4B,EAA5B,EAAgC,EAAhC;AACAxB,IAAAA,EAAE,CAACwB,SAAH,CAAa,CAAb,EAAgB,IAAhB;AACAxB,IAAAA,EAAE,CAACa,UAAH,CAAc,CAAd,EAAiBO,+CAAjB,EAAkE,CAAlE,EAAqE,CAArE,EAAwE,QAAxE,EAAkF,EAAlF;AACApB,IAAAA,EAAE,CAACW,YAAH;AACH;;AAAC,MAAIJ,EAAE,GAAG,CAAT,EAAY;AACV,UAAMkB,MAAM,GAAGzB,EAAE,CAACe,aAAH,EAAf;AACAf,IAAAA,EAAE,CAACgB,SAAH,CAAa,CAAb;AACAhB,IAAAA,EAAE,CAAC0B,qBAAH,CAAyB,OAAzB,EAAkCD,MAAM,CAACE,KAAzC;AACA3B,IAAAA,EAAE,CAACiB,UAAH,CAAc,UAAd,EAA0B,IAA1B;AACAjB,IAAAA,EAAE,CAACgB,SAAH,CAAa,CAAb;AACAhB,IAAAA,EAAE,CAACiB,UAAH,CAAc,MAAd,EAAsBQ,MAAM,CAACG,CAAP,GAAW,CAAjC;AACH;AAAE;;AACH,SAASC,sCAAT,CAAgDtB,EAAhD,EAAoDC,GAApD,EAAyD;AAAE,MAAID,EAAE,GAAG,CAAT,EAAY;AACnEP,IAAAA,EAAE,CAACS,cAAH,CAAkB,CAAlB,EAAqB,KAArB,EAA4B,EAA5B;AACAT,IAAAA,EAAE,CAACS,cAAH,CAAkB,CAAlB,EAAqB,KAArB,EAA4B,EAA5B;AACAT,IAAAA,EAAE,CAACS,cAAH,CAAkB,CAAlB,EAAqB,MAArB,EAA6B,EAA7B;AACAT,IAAAA,EAAE,CAACU,MAAH,CAAU,CAAV,EAAa,oBAAb;AACAV,IAAAA,EAAE,CAACW,YAAH;AACAX,IAAAA,EAAE,CAACW,YAAH;AACAX,IAAAA,EAAE,CAACwB,SAAH,CAAa,CAAb,EAAgB,OAAhB,EAAyB,EAAzB;AACAxB,IAAAA,EAAE,CAAC8B,MAAH,CAAU,CAAV,EAAa,MAAb;AACA9B,IAAAA,EAAE,CAACW,YAAH;AACH;;AAAC,MAAIJ,EAAE,GAAG,CAAT,EAAY;AACV,UAAMwB,MAAM,GAAG/B,EAAE,CAACe,aAAH,EAAf;AACAf,IAAAA,EAAE,CAACgB,SAAH,CAAa,CAAb;AACAhB,IAAAA,EAAE,CAAC0B,qBAAH,CAAyB,OAAzB,EAAkC1B,EAAE,CAACgC,WAAH,CAAe,CAAf,EAAkB,CAAlB,EAAqBD,MAAM,CAACE,aAA5B,EAA2C,sBAA3C,CAAlC;AACAjC,IAAAA,EAAE,CAACiB,UAAH,CAAc,UAAd,EAA0B,IAA1B;AACH;AAAE;;AACH,SAASiB,sCAAT,CAAgD3B,EAAhD,EAAoDC,GAApD,EAAyD;AAAE,MAAID,EAAE,GAAG,CAAT,EAAY;AACnEP,IAAAA,EAAE,CAACS,cAAH,CAAkB,CAAlB,EAAqB,KAArB,EAA4B,EAA5B;AACAT,IAAAA,EAAE,CAACS,cAAH,CAAkB,CAAlB,EAAqB,KAArB,EAA4B,EAA5B;AACAT,IAAAA,EAAE,CAACS,cAAH,CAAkB,CAAlB,EAAqB,MAArB,EAA6B,EAA7B;AACAT,IAAAA,EAAE,CAACU,MAAH,CAAU,CAAV,EAAa,iBAAb;AACAV,IAAAA,EAAE,CAACW,YAAH;AACAX,IAAAA,EAAE,CAACW,YAAH;AACAX,IAAAA,EAAE,CAACwB,SAAH,CAAa,CAAb,EAAgB,OAAhB,EAAyB,EAAzB;AACAxB,IAAAA,EAAE,CAAC8B,MAAH,CAAU,CAAV,EAAa,MAAb;AACA9B,IAAAA,EAAE,CAACW,YAAH;AACH;;AAAC,MAAIJ,EAAE,GAAG,CAAT,EAAY;AACV,UAAM4B,MAAM,GAAGnC,EAAE,CAACe,aAAH,EAAf;AACAf,IAAAA,EAAE,CAACgB,SAAH,CAAa,CAAb;AACAhB,IAAAA,EAAE,CAAC0B,qBAAH,CAAyB,OAAzB,EAAkC1B,EAAE,CAACgC,WAAH,CAAe,CAAf,EAAkB,CAAlB,EAAqBG,MAAM,CAACC,eAA5B,EAA6C,sBAA7C,CAAlC;AACApC,IAAAA,EAAE,CAACiB,UAAH,CAAc,UAAd,EAA0B,IAA1B;AACH;AAAE;;AACH,SAASoB,mDAAT,CAA6D9B,EAA7D,EAAiEC,GAAjE,EAAsE;AAAE,MAAID,EAAE,GAAG,CAAT,EAAY;AAChFP,IAAAA,EAAE,CAACS,cAAH,CAAkB,CAAlB,EAAqB,KAArB;AACAT,IAAAA,EAAE,CAACU,MAAH,CAAU,CAAV,EAAa,uBAAb;AACAV,IAAAA,EAAE,CAACW,YAAH;AACH;AAAE;;AACH,SAAS2B,6CAAT,CAAuD/B,EAAvD,EAA2DC,GAA3D,EAAgE;AAAE,MAAID,EAAE,GAAG,CAAT,EAAY;AAC1EP,IAAAA,EAAE,CAACS,cAAH,CAAkB,CAAlB,EAAqB,KAArB,EAA4B,EAA5B;AACAT,IAAAA,EAAE,CAACa,UAAH,CAAc,CAAd,EAAiBwB,mDAAjB,EAAsE,CAAtE,EAAyE,CAAzE,EAA4E,KAA5E,EAAmF,EAAnF;AACArC,IAAAA,EAAE,CAACW,YAAH;AACH;;AAAC,MAAIJ,EAAE,GAAG,CAAT,EAAY;AACV,UAAMgC,MAAM,GAAGvC,EAAE,CAACe,aAAH,CAAiB,CAAjB,CAAf;AACAf,IAAAA,EAAE,CAACgB,SAAH,CAAa,CAAb;AACAhB,IAAAA,EAAE,CAACiB,UAAH,CAAc,MAAd,EAAsBsB,MAAM,CAACC,EAAP,CAAU,OAAV,EAAmBrB,MAAnB,IAA6BoB,MAAM,CAACrB,CAAP,CAAS,OAAT,EAAkBC,MAAlB,CAAyB,UAAzB,CAAnD;AACH;AAAE;;AACH,SAASsB,sCAAT,CAAgDlC,EAAhD,EAAoDC,GAApD,EAAyD;AAAE,MAAID,EAAE,GAAG,CAAT,EAAY;AACnE,UAAMmC,IAAI,GAAG1C,EAAE,CAAC2C,gBAAH,EAAb;;AACA3C,IAAAA,EAAE,CAACS,cAAH,CAAkB,CAAlB,EAAqB,KAArB,EAA4B,CAA5B;AACAT,IAAAA,EAAE,CAACS,cAAH,CAAkB,CAAlB,EAAqB,KAArB,EAA4B,CAA5B;AACAT,IAAAA,EAAE,CAACS,cAAH,CAAkB,CAAlB,EAAqB,MAArB,EAA6B,EAA7B;AACAT,IAAAA,EAAE,CAACS,cAAH,CAAkB,CAAlB,EAAqB,KAArB,EAA4B,CAA5B;AACAT,IAAAA,EAAE,CAACS,cAAH,CAAkB,CAAlB,EAAqB,KAArB,EAA4B,EAA5B;AACAT,IAAAA,EAAE,CAACS,cAAH,CAAkB,CAAlB,EAAqB,KAArB,EAA4B,EAA5B;AACAT,IAAAA,EAAE,CAACS,cAAH,CAAkB,CAAlB,EAAqB,MAArB,EAA6B,EAA7B;AACAT,IAAAA,EAAE,CAACU,MAAH,CAAU,CAAV,EAAa,OAAb;AACAV,IAAAA,EAAE,CAACW,YAAH;AACAX,IAAAA,EAAE,CAACW,YAAH;AACAX,IAAAA,EAAE,CAACwB,SAAH,CAAa,CAAb,EAAgB,UAAhB,EAA4B,EAA5B;AACAxB,IAAAA,EAAE,CAACwB,SAAH,CAAa,CAAb,EAAgB,IAAhB;AACAxB,IAAAA,EAAE,CAACS,cAAH,CAAkB,EAAlB,EAAsB,QAAtB,EAAgC,EAAhC;AACAT,IAAAA,EAAE,CAAC4C,UAAH,CAAc,OAAd,EAAuB,SAASC,+DAAT,GAA2E;AAAE7C,MAAAA,EAAE,CAAC8C,aAAH,CAAiBJ,IAAjB;AAAwB,YAAMK,OAAO,GAAG/C,EAAE,CAACe,aAAH,EAAhB;AAAoC,aAAOgC,OAAO,CAACC,KAAR,EAAP;AAAyB,KAAzL;AACAhD,IAAAA,EAAE,CAACU,MAAH,CAAU,EAAV,EAAc,QAAd;AACAV,IAAAA,EAAE,CAACW,YAAH;AACAX,IAAAA,EAAE,CAACW,YAAH;AACAX,IAAAA,EAAE,CAACS,cAAH,CAAkB,EAAlB,EAAsB,GAAtB;AACAT,IAAAA,EAAE,CAACU,MAAH,CAAU,EAAV,EAAc,oCAAd;AACAV,IAAAA,EAAE,CAACW,YAAH;AACAX,IAAAA,EAAE,CAACS,cAAH,CAAkB,EAAlB,EAAsB,KAAtB,EAA6B,CAA7B;AACAT,IAAAA,EAAE,CAACS,cAAH,CAAkB,EAAlB,EAAsB,OAAtB,EAA+B,EAA/B;AACAT,IAAAA,EAAE,CAAC4C,UAAH,CAAc,eAAd,EAA+B,SAASK,sEAAT,CAAgFC,MAAhF,EAAwF;AAAElD,MAAAA,EAAE,CAAC8C,aAAH,CAAiBJ,IAAjB;AAAwB,YAAMS,OAAO,GAAGnD,EAAE,CAACe,aAAH,EAAhB;AAAoC,aAAOoC,OAAO,CAACC,aAAR,CAAsBC,OAAtB,GAAgCH,MAAvC;AAAgD,KAArO;AACAlD,IAAAA,EAAE,CAACW,YAAH;AACAX,IAAAA,EAAE,CAACS,cAAH,CAAkB,EAAlB,EAAsB,OAAtB,EAA+B,CAA/B;AACAT,IAAAA,EAAE,CAACU,MAAH,CAAU,EAAV,EAAc,MAAd;AACAV,IAAAA,EAAE,CAACW,YAAH;AACAX,IAAAA,EAAE,CAACW,YAAH;AACAX,IAAAA,EAAE,CAACS,cAAH,CAAkB,EAAlB,EAAsB,KAAtB,EAA6B,CAA7B;AACAT,IAAAA,EAAE,CAACS,cAAH,CAAkB,EAAlB,EAAsB,OAAtB,EAA+B,EAA/B;AACAT,IAAAA,EAAE,CAAC4C,UAAH,CAAc,eAAd,EAA+B,SAASU,sEAAT,CAAgFJ,MAAhF,EAAwF;AAAElD,MAAAA,EAAE,CAAC8C,aAAH,CAAiBJ,IAAjB;AAAwB,YAAMa,OAAO,GAAGvD,EAAE,CAACe,aAAH,EAAhB;AAAoC,aAAOwC,OAAO,CAACH,aAAR,CAAsBC,OAAtB,GAAgCH,MAAvC;AAAgD,KAArO;AACAlD,IAAAA,EAAE,CAACW,YAAH;AACAX,IAAAA,EAAE,CAACS,cAAH,CAAkB,EAAlB,EAAsB,OAAtB,EAA+B,CAA/B;AACAT,IAAAA,EAAE,CAACU,MAAH,CAAU,EAAV,EAAc,MAAd;AACAV,IAAAA,EAAE,CAACW,YAAH;AACAX,IAAAA,EAAE,CAACW,YAAH;AACAX,IAAAA,EAAE,CAACa,UAAH,CAAc,EAAd,EAAkByB,6CAAlB,EAAiE,CAAjE,EAAoE,CAApE,EAAuE,KAAvE,EAA8E,EAA9E;AACAtC,IAAAA,EAAE,CAACS,cAAH,CAAkB,EAAlB,EAAsB,QAAtB,EAAgC,EAAhC;AACAT,IAAAA,EAAE,CAACU,MAAH,CAAU,EAAV,EAAc,yBAAd;AACAV,IAAAA,EAAE,CAACW,YAAH;AACAX,IAAAA,EAAE,CAACW,YAAH;AACAX,IAAAA,EAAE,CAACW,YAAH;AACAX,IAAAA,EAAE,CAACW,YAAH;AACAX,IAAAA,EAAE,CAACW,YAAH;AACH;;AAAC,MAAIJ,EAAE,GAAG,CAAT,EAAY;AACV,UAAMiD,MAAM,GAAGxD,EAAE,CAACe,aAAH,EAAf;AACAf,IAAAA,EAAE,CAACgB,SAAH,CAAa,CAAb;AACAhB,IAAAA,EAAE,CAACiB,UAAH,CAAc,WAAd,EAA2BuC,MAAM,CAACC,KAAlC;AACAzD,IAAAA,EAAE,CAACgB,SAAH,CAAa,CAAb;AACAhB,IAAAA,EAAE,CAAC0B,qBAAH,CAAyB,OAAzB,EAAkC8B,MAAM,CAACE,IAAzC;AACA1D,IAAAA,EAAE,CAACgB,SAAH,CAAa,CAAb;AACAhB,IAAAA,EAAE,CAACiB,UAAH,CAAc,SAAd,EAAyBuC,MAAM,CAACJ,aAAP,CAAqBC,OAA9C;AACArD,IAAAA,EAAE,CAACgB,SAAH,CAAa,CAAb;AACAhB,IAAAA,EAAE,CAACiB,UAAH,CAAc,SAAd,EAAyBuC,MAAM,CAACJ,aAAP,CAAqBC,OAA9C,EAAuD,SAAvD,EAAkE,IAAlE;AACArD,IAAAA,EAAE,CAACgB,SAAH,CAAa,CAAb;AACAhB,IAAAA,EAAE,CAACiB,UAAH,CAAc,MAAd,EAAsBuC,MAAM,CAAChB,EAAP,CAAU,OAAV,EAAmBmB,OAAnB,IAA8BH,MAAM,CAACtC,CAAP,CAAS,OAAT,EAAkB0C,OAAtE;AACA5D,IAAAA,EAAE,CAACgB,SAAH,CAAa,CAAb;AACAhB,IAAAA,EAAE,CAACiB,UAAH,CAAc,UAAd,EAA0B,CAACuC,MAAM,CAACC,KAAP,CAAaI,KAAxC;AACH;AAAE;;AACH,OAAO,MAAMC,sBAAN,CAA6B;AAChCC,EAAAA,WAAW,CAACC,eAAD,EAAkBC,MAAlB,EAA0B;AACjC,SAAKD,eAAL,GAAuBA,eAAvB;AACA,SAAKC,MAAL,GAAcA,MAAd;AACA,SAAKC,QAAL,GAAgB,KAAhB;AACA,SAAKtC,CAAL,GAAS,CAAT;AACA,SAAKwB,aAAL,GAAqB,IAAIxD,aAAJ,EAArB;AACA,SAAKuE,IAAL,GAAY,IAAIrE,SAAJ,CAAc;AACtBsE,MAAAA,IAAI,EAAE,IAAIvE,WAAJ,CAAgB,EAAhB,EAAoBE,UAAU,CAACsE,QAA/B;AADgB,KAAd,CAAZ;AAGA,SAAKX,IAAL,GAAY,EAAZ,CATiC,CAUjC;;AACA,SAAKD,KAAL,GAAa,IAAI3D,SAAJ,CAAc;AACvBwE,MAAAA,KAAK,EAAE,IAAIzE,WAAJ,CAAgB,EAAhB,EAAoBE,UAAU,CAACsE,QAA/B;AADgB,KAAd,CAAb;AAGH;;AACI,MAADnD,CAAC,GAAG;AACJ,WAAO,KAAKiD,IAAL,CAAUI,QAAjB;AACH;;AACDC,EAAAA,QAAQ,GAAG;AACP,QAAIC,MAAM,GAAG,KAAKN,IAAL,CAAUO,KAAV,GAAkB,EAA/B;AACAC,IAAAA,OAAO,CAACC,GAAR,CAAY,OAAQH,MAAM,CAACI,QAAP,EAApB;;AACA,QAAIJ,MAAM,CAACK,QAAP,CAAgB,GAAhB,CAAJ,EAA0B;AACtBL,MAAAA,MAAM,GAAG,IAAT;AACH,KAFD,MAGK;AACDA,MAAAA,MAAM,GAAG,IAAT;AACH;;AACD,SAAKT,eAAL,CAAqBe,aAArB,CAAmCN,MAAnC,EAA2CO,SAA3C,CAAqDC,IAAI,IAAI;AACzD,WAAKf,QAAL,GAAgB,IAAhB,CADyD,CAEzD;;AACA,WAAKtC,CAAL;AACA+C,MAAAA,OAAO,CAACC,GAAR,CAAYK,IAAI,CAAC,OAAD,CAAhB;AACA,WAAKtD,KAAL,GAAasD,IAAI,CAAC,OAAD,CAAjB;AACA,WAAKhD,aAAL,GAAqBgD,IAAI,CAAC,YAAD,CAAzB;AACA,WAAK7C,eAAL,GAAuB6C,IAAI,CAAC,WAAD,CAA3B,CAPyD,CAQzD;AACH,KATD,EASGC,KAAK,IAAIP,OAAO,CAACC,GAAR,CAAYM,KAAZ,CATZ;AAUH;AACD;AACJ;AACA;AACA;;;AACIC,EAAAA,QAAQ,GAAG,CACV;;AACK,MAAF3C,EAAE,GAAG;AACL,WAAO,KAAKiB,KAAL,CAAWc,QAAlB;AACH;;AACKvB,EAAAA,KAAK,GAAG;AAAA;;AAAA;AACV,MAAA,KAAI,CAACU,IAAL,SAAkB0B,SAAS,CAACC,SAAV,CAAoBC,QAApB,EAAlB;AADU;AAEb;;AAlD+B;;AAoDpCxB,sBAAsB,CAACyB,IAAvB,GAA8B,SAASC,8BAAT,CAAwCC,CAAxC,EAA2C;AAAE,SAAO,KAAKA,CAAC,IAAI3B,sBAAV,EAAkC9D,EAAE,CAAC0F,iBAAH,CAAqBzF,EAAE,CAAC0F,oBAAxB,CAAlC,EAAiF3F,EAAE,CAAC0F,iBAAH,CAAqBxF,EAAE,CAAC0F,MAAxB,CAAjF,CAAP;AAA2H,CAAtM;;AACA9B,sBAAsB,CAAC+B,IAAvB,GAA8B,aAAc7F,EAAE,CAAC8F,iBAAH,CAAqB;AAAEC,EAAAA,IAAI,EAAEjC,sBAAR;AAAgCkC,EAAAA,SAAS,EAAE,CAAC,CAAC,oBAAD,CAAD,CAA3C;AAAqEC,EAAAA,KAAK,EAAE,EAA5E;AAAgFC,EAAAA,IAAI,EAAE,EAAtF;AAA0FC,EAAAA,MAAM,EAAE,CAAC,CAAC,CAAD,EAAI,UAAJ,EAAgB,aAAhB,EAA+B,eAA/B,CAAD,EAAkD,CAAC,CAAD,EAAI,WAAJ,CAAlD,EAAoE,CAAC,aAAD,EAAgB,MAAhB,CAApE,EAA6F,CAAC,CAAD,EAAI,WAAJ,EAAiB,UAAjB,CAA7F,EAA2H,CAAC,CAAD,EAAI,YAAJ,CAA3H,EAA8I,CAAC,CAAD,EAAI,YAAJ,CAA9I,EAAiK,CAAC,iBAAD,EAAoB,MAApB,EAA4B,OAA5B,EAAqC,IAArC,EAA2C,MAA3C,EAAmD,OAAnD,EAA4D,MAA5D,EAAoE,MAApE,EAA4E,IAA5E,EAAkF,mBAAlF,EAAuG,CAAvG,EAA0G,kBAA1G,EAA8H,CAA9H,EAAiI,SAAjI,EAA4I,eAA5I,CAAjK,EAA+T,CAAC,KAAD,EAAQ,mBAAR,EAA6B,CAA7B,EAAgC,kBAAhC,CAA/T,EAAoX,CAAC,iBAAD,EAAoB,MAApB,EAA4B,OAA5B,EAAqC,IAArC,EAA2C,MAA3C,EAAmD,OAAnD,EAA4D,MAA5D,EAAoE,MAApE,EAA4E,IAA5E,EAAkF,mBAAlF,EAAuG,CAAvG,EAA0G,kBAA1G,EAA8H,CAA9H,EAAiI,SAAjI,EAA4I,SAA5I,EAAuJ,eAAvJ,CAApX,EAA6hB,CAAC,KAAD,EAAQ,mBAAR,EAA6B,CAA7B,EAAgC,kBAAhC,CAA7hB,EAAklB,CAAC,OAAD,EAAU,oBAAV,EAAgC,CAAhC,EAAmC,MAAnC,CAAllB,EAA8nB,CAAC,OAAD,EAAU,aAAV,EAAyB,CAAzB,EAA4B,MAA5B,CAA9nB,EAAmqB,CAAC,OAAD,EAAU,kBAAV,EAA8B,CAA9B,EAAiC,MAAjC,CAAnqB,EAA6sB,CAAC,MAAD,EAAS,QAAT,EAAmB,CAAnB,EAAsB,KAAtB,EAA6B,aAA7B,EAA4C,CAA5C,EAA+C,UAA/C,CAA7sB,EAAywB,CAAC,OAAD,EAAU,oCAAV,EAAgD,CAAhD,EAAmD,MAAnD,CAAzwB,EAAq0B,CAAC,CAAD,EAAI,OAAJ,EAAa,cAAb,CAAr0B,EAAm2B,CAAC,CAAD,EAAI,MAAJ,CAAn2B,EAAg3B,CAAC,CAAD,EAAI,aAAJ,CAAh3B,EAAo4B,CAAC,CAAD,EAAI,qBAAJ,CAAp4B,EAAg6B,CAAC,CAAD,EAAI,kBAAJ,CAAh6B,EAAy7B,CAAC,YAAD,EAAe,eAAf,EAAgC,CAAhC,EAAmC,cAAnC,EAAmD,CAAnD,EAAsD,UAAtD,EAAkE,OAAlE,CAAz7B,EAAqgC,CAAC,MAAD,EAAS,EAAT,CAArgC,EAAmhC,CAAC,SAAD,EAAY,EAAZ,EAAgB,OAAhB,EAAyB,iBAAzB,EAA4C,CAA5C,EAA+C,cAA/C,EAA+D,CAA/D,EAAkE,MAAlE,CAAnhC,EAA8lC,CAAC,SAAD,EAAY,EAAZ,EAAgB,CAAhB,EAAmB,KAAnB,EAA0B,aAA1B,EAAyC,CAAzC,EAA4C,cAA5C,CAA9lC,EAA2pC,CAAC,CAAD,EAAI,aAAJ,EAAmB,MAAnB,CAA3pC,EAAurC,CAAC,IAAD,EAAO,cAAP,EAAuB,CAAvB,EAA0B,kBAA1B,CAAvrC,EAAsuC,CAAC,MAAD,EAAS,MAAT,EAAiB,IAAjB,EAAuB,YAAvB,EAAqC,kBAArC,EAAyD,cAAzD,EAAyE,CAAzE,EAA4E,cAA5E,EAA4F,CAA5F,EAA+F,OAA/F,EAAwG,UAAxG,CAAtuC,EAA21C,CAAC,IAAD,EAAO,cAAP,EAAuB,CAAvB,EAA0B,kBAA1B,CAA31C,EAA04C,CAAC,MAAD,EAAS,MAAT,EAAiB,IAAjB,EAAuB,WAAvB,EAAoC,kBAApC,EAAwD,cAAxD,EAAwE,CAAxE,EAA2E,cAA3E,EAA2F,CAA3F,EAA8F,OAA9F,EAAuG,UAAvG,CAA14C,EAA8/C,CAAC,CAAD,EAAI,WAAJ,CAA9/C,EAAghD,CAAC,YAAD,EAAe,eAAf,EAAgC,CAAhC,EAAmC,cAAnC,EAAmD,CAAnD,EAAsD,OAAtD,CAAhhD,EAAglD,CAAC,CAAD,EAAI,KAAJ,EAAW,aAAX,EAA0B,CAA1B,EAA6B,OAA7B,CAAhlD,EAAunD,CAAC,iBAAD,EAAoB,OAApB,EAA6B,OAA7B,EAAsC,IAAtC,EAA4C,MAA5C,EAAoD,OAApD,EAA6D,MAA7D,EAAqE,OAArE,EAA8E,IAA9E,EAAoF,mBAApF,EAAyG,CAAzG,EAA4G,kBAA5G,EAAgI,CAAhI,EAAmI,SAAnI,EAA8I,eAA9I,CAAvnD,EAAuxD,CAAC,iBAAD,EAAoB,OAApB,EAA6B,OAA7B,EAAsC,IAAtC,EAA4C,MAA5C,EAAoD,OAApD,EAA6D,MAA7D,EAAqE,OAArE,EAA8E,IAA9E,EAAoF,mBAApF,EAAyG,CAAzG,EAA4G,kBAA5G,EAAgI,CAAhI,EAAmI,SAAnI,EAA8I,SAA9I,EAAyJ,eAAzJ,CAAvxD,CAAlG;AAAqiEC,EAAAA,QAAQ,EAAE,SAASC,+BAAT,CAAyC9F,EAAzC,EAA6CC,GAA7C,EAAkD;AAAE,QAAID,EAAE,GAAG,CAAT,EAAY;AACxqEP,MAAAA,EAAE,CAACS,cAAH,CAAkB,CAAlB,EAAqB,KAArB,EAA4B,CAA5B;AACAT,MAAAA,EAAE,CAACS,cAAH,CAAkB,CAAlB,EAAqB,KAArB,EAA4B,CAA5B;AACAT,MAAAA,EAAE,CAACS,cAAH,CAAkB,CAAlB,EAAqB,GAArB,EAA0B,CAA1B;AACAT,MAAAA,EAAE,CAACU,MAAH,CAAU,CAAV,EAAa,oCAAb;AACAV,MAAAA,EAAE,CAACW,YAAH;AACAX,MAAAA,EAAE,CAACS,cAAH,CAAkB,CAAlB,EAAqB,MAArB,EAA6B,CAA7B;AACAT,MAAAA,EAAE,CAAC4C,UAAH,CAAc,UAAd,EAA0B,SAAS0D,wDAAT,GAAoE;AAAE,eAAO9F,GAAG,CAACgE,QAAJ,EAAP;AAAwB,OAAxH;AACAxE,MAAAA,EAAE,CAACS,cAAH,CAAkB,CAAlB,EAAqB,KAArB,EAA4B,CAA5B;AACAT,MAAAA,EAAE,CAACS,cAAH,CAAkB,CAAlB,EAAqB,GAArB;AACAT,MAAAA,EAAE,CAACU,MAAH,CAAU,CAAV,EAAa,oCAAb;AACAV,MAAAA,EAAE,CAACW,YAAH;AACAX,MAAAA,EAAE,CAACS,cAAH,CAAkB,CAAlB,EAAqB,KAArB,EAA4B,CAA5B;AACAT,MAAAA,EAAE,CAACS,cAAH,CAAkB,CAAlB,EAAqB,OAArB,EAA8B,CAA9B;AACAT,MAAAA,EAAE,CAAC4C,UAAH,CAAc,eAAd,EAA+B,SAAS2D,8DAAT,CAAwErD,MAAxE,EAAgF;AAAE,eAAO1C,GAAG,CAAC4C,aAAJ,CAAkBqB,MAAlB,GAA2BvB,MAAlC;AAA2C,OAA5J;AACAlD,MAAAA,EAAE,CAACW,YAAH;AACAX,MAAAA,EAAE,CAACS,cAAH,CAAkB,EAAlB,EAAsB,OAAtB,EAA+B,CAA/B;AACAT,MAAAA,EAAE,CAACU,MAAH,CAAU,EAAV,EAAc,MAAd;AACAV,MAAAA,EAAE,CAACW,YAAH;AACAX,MAAAA,EAAE,CAACW,YAAH;AACAX,MAAAA,EAAE,CAACS,cAAH,CAAkB,EAAlB,EAAsB,KAAtB,EAA6B,CAA7B;AACAT,MAAAA,EAAE,CAACS,cAAH,CAAkB,EAAlB,EAAsB,OAAtB,EAA+B,CAA/B;AACAT,MAAAA,EAAE,CAAC4C,UAAH,CAAc,eAAd,EAA+B,SAAS4D,+DAAT,CAAyEtD,MAAzE,EAAiF;AAAE,eAAO1C,GAAG,CAAC4C,aAAJ,CAAkBqB,MAAlB,GAA2BvB,MAAlC;AAA2C,OAA7J;AACAlD,MAAAA,EAAE,CAACW,YAAH;AACAX,MAAAA,EAAE,CAACS,cAAH,CAAkB,EAAlB,EAAsB,OAAtB,EAA+B,CAA/B;AACAT,MAAAA,EAAE,CAACU,MAAH,CAAU,EAAV,EAAc,MAAd;AACAV,MAAAA,EAAE,CAACW,YAAH;AACAX,MAAAA,EAAE,CAACW,YAAH;AACAX,MAAAA,EAAE,CAACa,UAAH,CAAc,EAAd,EAAkBD,sCAAlB,EAA0D,CAA1D,EAA6D,CAA7D,EAAgE,KAAhE,EAAuE,EAAvE;AACAZ,MAAAA,EAAE,CAACa,UAAH,CAAc,EAAd,EAAkBU,sCAAlB,EAA0D,CAA1D,EAA6D,CAA7D,EAAgE,KAAhE,EAAuE,EAAvE;AACAvB,MAAAA,EAAE,CAACwB,SAAH,CAAa,EAAb,EAAiB,IAAjB;AACAxB,MAAAA,EAAE,CAACa,UAAH,CAAc,EAAd,EAAkBgB,sCAAlB,EAA0D,CAA1D,EAA6D,CAA7D,EAAgE,KAAhE,EAAuE,EAAvE;AACA7B,MAAAA,EAAE,CAACa,UAAH,CAAc,EAAd,EAAkBqB,sCAAlB,EAA0D,CAA1D,EAA6D,CAA7D,EAAgE,KAAhE,EAAuE,EAAvE;AACAlC,MAAAA,EAAE,CAACS,cAAH,CAAkB,EAAlB,EAAsB,QAAtB,EAAgC,EAAhC;AACAT,MAAAA,EAAE,CAACU,MAAH,CAAU,EAAV,EAAc,yBAAd;AACAV,MAAAA,EAAE,CAACW,YAAH;AACAX,MAAAA,EAAE,CAACW,YAAH;AACAX,MAAAA,EAAE,CAACW,YAAH;AACAX,MAAAA,EAAE,CAACW,YAAH;AACAX,MAAAA,EAAE,CAACW,YAAH;AACAX,MAAAA,EAAE,CAACa,UAAH,CAAc,EAAd,EAAkB4B,sCAAlB,EAA0D,EAA1D,EAA8D,CAA9D,EAAiE,KAAjE,EAAwE,EAAxE;AACH;;AAAC,QAAIlC,EAAE,GAAG,CAAT,EAAY;AACVP,MAAAA,EAAE,CAACgB,SAAH,CAAa,CAAb;AACAhB,MAAAA,EAAE,CAACiB,UAAH,CAAc,WAAd,EAA2BT,GAAG,CAAC2D,IAA/B;AACAnE,MAAAA,EAAE,CAACgB,SAAH,CAAa,CAAb;AACAhB,MAAAA,EAAE,CAACiB,UAAH,CAAc,SAAd,EAAyBT,GAAG,CAAC4C,aAAJ,CAAkBqB,MAA3C;AACAzE,MAAAA,EAAE,CAACgB,SAAH,CAAa,CAAb;AACAhB,MAAAA,EAAE,CAACiB,UAAH,CAAc,SAAd,EAAyBT,GAAG,CAAC4C,aAAJ,CAAkBqB,MAA3C,EAAmD,SAAnD,EAA8D,IAA9D;AACAzE,MAAAA,EAAE,CAACgB,SAAH,CAAa,CAAb;AACAhB,MAAAA,EAAE,CAACiB,UAAH,CAAc,MAAd,EAAsBT,GAAG,CAACU,CAAJ,CAAM,MAAN,EAAcyC,OAAd,IAAyBnD,GAAG,CAACU,CAAJ,CAAM,MAAN,EAAc0C,OAA7D;AACA5D,MAAAA,EAAE,CAACgB,SAAH,CAAa,CAAb;AACAhB,MAAAA,EAAE,CAACiB,UAAH,CAAc,MAAd,EAAsBT,GAAG,CAAC0D,QAA1B;AACAlE,MAAAA,EAAE,CAACgB,SAAH,CAAa,CAAb;AACAhB,MAAAA,EAAE,CAACiB,UAAH,CAAc,MAAd,EAAsBT,GAAG,CAAC0D,QAA1B;AACAlE,MAAAA,EAAE,CAACgB,SAAH,CAAa,CAAb;AACAhB,MAAAA,EAAE,CAACiB,UAAH,CAAc,MAAd,EAAsBT,GAAG,CAAC0D,QAA1B;AACAlE,MAAAA,EAAE,CAACgB,SAAH,CAAa,CAAb;AACAhB,MAAAA,EAAE,CAACiB,UAAH,CAAc,UAAd,EAA0B,CAACT,GAAG,CAAC2D,IAAJ,CAASN,KAApC;AACA7D,MAAAA,EAAE,CAACgB,SAAH,CAAa,CAAb;AACAhB,MAAAA,EAAE,CAACiB,UAAH,CAAc,MAAd,EAAsBT,GAAG,CAACoB,CAAJ,GAAQ,CAA9B;AACH;AAAE,GA5D0D;AA4DxD6E,EAAAA,UAAU,EAAE,CAACtG,EAAE,CAACuG,aAAJ,EAAmBvG,EAAE,CAACwG,oBAAtB,EAA4CxG,EAAE,CAACyG,kBAA/C,EAAmEzG,EAAE,CAAC0G,oBAAtE,EAA4F1G,EAAE,CAAC2G,yBAA/F,EAA0H3G,EAAE,CAAC4G,eAA7H,EAA8I5G,EAAE,CAAC6G,eAAjJ,EAAkK5G,EAAE,CAAC6G,IAArK,EAA2K5G,EAAE,CAAC6G,kBAA9K,CA5D4C;AA4DuJC,EAAAA,KAAK,EAAE,CAAC/G,EAAE,CAACgH,QAAJ,CA5D9J;AA4D6KC,EAAAA,MAAM,EAAE,CAAC,iLAAD;AA5DrL,CAArB,CAA5C",
    "sourcesContent": [
      "import { GenerateToken } from \"../generate-token\";\r\nimport { FormControl, FormGroup, Validators } from \"@angular/forms\";\r\nimport * as i0 from \"@angular/core\";\r\nimport * as i1 from \"../generate-token.service\";\r\nimport * as i2 from \"@angular/router\";\r\nimport * as i3 from \"@angular/forms\";\r\nimport * as i4 from \"@angular/common\";\r\nimport * as i5 from \"ngx-clipboard\";\r\nfunction GenerateTokenComponent_div_16_div_1_Template(rf, ctx) { if (rf & 1) {\r\n    i0.ɵɵelementStart(0, \"div\");\r\n    i0.ɵɵtext(1, \"Language is required.\");\r\n    i0.ɵɵelementEnd();\r\n} }\r\nfunction GenerateTokenComponent_div_16_Template(rf, ctx) { if (rf & 1) {\r\n    i0.ɵɵelementStart(0, \"div\", 15);\r\n    i0.ɵɵtemplate(1, GenerateTokenComponent_div_16_div_1_Template, 2, 0, \"div\", 16);\r\n    i0.ɵɵelementEnd();\r\n} if (rf & 2) {\r\n    const ctx_r0 = i0.ɵɵnextContext();\r\n    i0.ɵɵadvance(1);\r\n    i0.ɵɵproperty(\"ngIf\", ctx_r0.f[\"lang\"].errors || ctx_r0.f[\"lang\"].errors[\"required\"]);\r\n} }\r\nfunction GenerateTokenComponent_div_17_button_7_Template(rf, ctx) { if (rf & 1) {\r\n    i0.ɵɵelementStart(0, \"button\", 23);\r\n    i0.ɵɵtext(1, \"Copier\");\r\n    i0.ɵɵelementEnd();\r\n} if (rf & 2) {\r\n    i0.ɵɵnextContext();\r\n    const _r6 = i0.ɵɵreference(5);\r\n    i0.ɵɵproperty(\"ngxClipboard\", _r6);\r\n} }\r\nfunction GenerateTokenComponent_div_17_Template(rf, ctx) { if (rf & 1) {\r\n    i0.ɵɵelementStart(0, \"div\", 17);\r\n    i0.ɵɵelementStart(1, \"div\", 18);\r\n    i0.ɵɵelementStart(2, \"span\", 19);\r\n    i0.ɵɵtext(3, \"Token\");\r\n    i0.ɵɵelementEnd();\r\n    i0.ɵɵelementEnd();\r\n    i0.ɵɵelement(4, \"textarea\", 20, 21);\r\n    i0.ɵɵelement(6, \"br\");\r\n    i0.ɵɵtemplate(7, GenerateTokenComponent_div_17_button_7_Template, 2, 1, \"button\", 22);\r\n    i0.ɵɵelementEnd();\r\n} if (rf & 2) {\r\n    const ctx_r1 = i0.ɵɵnextContext();\r\n    i0.ɵɵadvance(4);\r\n    i0.ɵɵpropertyInterpolate(\"value\", ctx_r1.token);\r\n    i0.ɵɵproperty(\"readonly\", true);\r\n    i0.ɵɵadvance(3);\r\n    i0.ɵɵproperty(\"ngIf\", ctx_r1.r > 0);\r\n} }\r\nfunction GenerateTokenComponent_div_19_Template(rf, ctx) { if (rf & 1) {\r\n    i0.ɵɵelementStart(0, \"div\", 24);\r\n    i0.ɵɵelementStart(1, \"div\", 18);\r\n    i0.ɵɵelementStart(2, \"span\", 25);\r\n    i0.ɵɵtext(3, \"Date cr\\u00E9ation\");\r\n    i0.ɵɵelementEnd();\r\n    i0.ɵɵelementEnd();\r\n    i0.ɵɵelement(4, \"input\", 26);\r\n    i0.ɵɵpipe(5, \"date\");\r\n    i0.ɵɵelementEnd();\r\n} if (rf & 2) {\r\n    const ctx_r2 = i0.ɵɵnextContext();\r\n    i0.ɵɵadvance(4);\r\n    i0.ɵɵpropertyInterpolate(\"value\", i0.ɵɵpipeBind2(5, 2, ctx_r2.date_creation, \"dd-MMM-yyyy hh:mm:ss\"));\r\n    i0.ɵɵproperty(\"readonly\", true);\r\n} }\r\nfunction GenerateTokenComponent_div_20_Template(rf, ctx) { if (rf & 1) {\r\n    i0.ɵɵelementStart(0, \"div\", 24);\r\n    i0.ɵɵelementStart(1, \"div\", 18);\r\n    i0.ɵɵelementStart(2, \"span\", 27);\r\n    i0.ɵɵtext(3, \"Date expiration\");\r\n    i0.ɵɵelementEnd();\r\n    i0.ɵɵelementEnd();\r\n    i0.ɵɵelement(4, \"input\", 28);\r\n    i0.ɵɵpipe(5, \"date\");\r\n    i0.ɵɵelementEnd();\r\n} if (rf & 2) {\r\n    const ctx_r3 = i0.ɵɵnextContext();\r\n    i0.ɵɵadvance(4);\r\n    i0.ɵɵpropertyInterpolate(\"value\", i0.ɵɵpipeBind2(5, 2, ctx_r3.date_expiration, \"dd-MMM-yyyy hh:mm:ss\"));\r\n    i0.ɵɵproperty(\"readonly\", true);\r\n} }\r\nfunction GenerateTokenComponent_div_23_div_22_div_1_Template(rf, ctx) { if (rf & 1) {\r\n    i0.ɵɵelementStart(0, \"div\");\r\n    i0.ɵɵtext(1, \"Language is required.\");\r\n    i0.ɵɵelementEnd();\r\n} }\r\nfunction GenerateTokenComponent_div_23_div_22_Template(rf, ctx) { if (rf & 1) {\r\n    i0.ɵɵelementStart(0, \"div\", 15);\r\n    i0.ɵɵtemplate(1, GenerateTokenComponent_div_23_div_22_div_1_Template, 2, 0, \"div\", 16);\r\n    i0.ɵɵelementEnd();\r\n} if (rf & 2) {\r\n    const ctx_r8 = i0.ɵɵnextContext(2);\r\n    i0.ɵɵadvance(1);\r\n    i0.ɵɵproperty(\"ngIf\", ctx_r8.f2[\"langu\"].errors || ctx_r8.f[\"langu\"].errors[\"required\"]);\r\n} }\r\nfunction GenerateTokenComponent_div_23_Template(rf, ctx) { if (rf & 1) {\r\n    const _r11 = i0.ɵɵgetCurrentView();\r\n    i0.ɵɵelementStart(0, \"div\", 0);\r\n    i0.ɵɵelementStart(1, \"div\", 1);\r\n    i0.ɵɵelementStart(2, \"form\", 29);\r\n    i0.ɵɵelementStart(3, \"div\", 4);\r\n    i0.ɵɵelementStart(4, \"div\", 17);\r\n    i0.ɵɵelementStart(5, \"div\", 18);\r\n    i0.ɵɵelementStart(6, \"span\", 19);\r\n    i0.ɵɵtext(7, \"Token\");\r\n    i0.ɵɵelementEnd();\r\n    i0.ɵɵelementEnd();\r\n    i0.ɵɵelement(8, \"textarea\", 30);\r\n    i0.ɵɵelement(9, \"br\");\r\n    i0.ɵɵelementStart(10, \"button\", 31);\r\n    i0.ɵɵlistener(\"click\", function GenerateTokenComponent_div_23_Template_button_click_10_listener() { i0.ɵɵrestoreView(_r11); const ctx_r10 = i0.ɵɵnextContext(); return ctx_r10.paste(); });\r\n    i0.ɵɵtext(11, \"Coller\");\r\n    i0.ɵɵelementEnd();\r\n    i0.ɵɵelementEnd();\r\n    i0.ɵɵelementStart(12, \"p\");\r\n    i0.ɵɵtext(13, \"Indiquez la langue \\u00E0 utiliser\");\r\n    i0.ɵɵelementEnd();\r\n    i0.ɵɵelementStart(14, \"div\", 5);\r\n    i0.ɵɵelementStart(15, \"input\", 32);\r\n    i0.ɵɵlistener(\"ngModelChange\", function GenerateTokenComponent_div_23_Template_input_ngModelChange_15_listener($event) { i0.ɵɵrestoreView(_r11); const ctx_r12 = i0.ɵɵnextContext(); return ctx_r12.generatetoken.langue2 = $event; });\r\n    i0.ɵɵelementEnd();\r\n    i0.ɵɵelementStart(16, \"label\", 7);\r\n    i0.ɵɵtext(17, \" EN \");\r\n    i0.ɵɵelementEnd();\r\n    i0.ɵɵelementEnd();\r\n    i0.ɵɵelementStart(18, \"div\", 5);\r\n    i0.ɵɵelementStart(19, \"input\", 33);\r\n    i0.ɵɵlistener(\"ngModelChange\", function GenerateTokenComponent_div_23_Template_input_ngModelChange_19_listener($event) { i0.ɵɵrestoreView(_r11); const ctx_r13 = i0.ɵɵnextContext(); return ctx_r13.generatetoken.langue2 = $event; });\r\n    i0.ɵɵelementEnd();\r\n    i0.ɵɵelementStart(20, \"label\", 9);\r\n    i0.ɵɵtext(21, \" FR \");\r\n    i0.ɵɵelementEnd();\r\n    i0.ɵɵelementEnd();\r\n    i0.ɵɵtemplate(22, GenerateTokenComponent_div_23_div_22_Template, 2, 1, \"div\", 10);\r\n    i0.ɵɵelementStart(23, \"button\", 13);\r\n    i0.ɵɵtext(24, \"G\\u00E9n\\u00E9rer Token\");\r\n    i0.ɵɵelementEnd();\r\n    i0.ɵɵelementEnd();\r\n    i0.ɵɵelementEnd();\r\n    i0.ɵɵelementEnd();\r\n    i0.ɵɵelementEnd();\r\n} if (rf & 2) {\r\n    const ctx_r4 = i0.ɵɵnextContext();\r\n    i0.ɵɵadvance(2);\r\n    i0.ɵɵproperty(\"formGroup\", ctx_r4.form1);\r\n    i0.ɵɵadvance(6);\r\n    i0.ɵɵpropertyInterpolate(\"value\", ctx_r4.name);\r\n    i0.ɵɵadvance(7);\r\n    i0.ɵɵproperty(\"ngModel\", ctx_r4.generatetoken.langue2);\r\n    i0.ɵɵadvance(4);\r\n    i0.ɵɵproperty(\"ngModel\", ctx_r4.generatetoken.langue2)(\"checked\", true);\r\n    i0.ɵɵadvance(3);\r\n    i0.ɵɵproperty(\"ngIf\", ctx_r4.f2[\"langu\"].touched && ctx_r4.f[\"langu\"].invalid);\r\n    i0.ɵɵadvance(1);\r\n    i0.ɵɵproperty(\"disabled\", !ctx_r4.form1.valid);\r\n} }\r\nexport class GenerateTokenComponent {\r\n    constructor(genTokenService, router) {\r\n        this.genTokenService = genTokenService;\r\n        this.router = router;\r\n        this.afficher = false;\r\n        this.r = 0;\r\n        this.generatetoken = new GenerateToken();\r\n        this.form = new FormGroup({\r\n            lang: new FormControl('', Validators.required)\r\n        });\r\n        this.name = '';\r\n        //token:any;\r\n        this.form1 = new FormGroup({\r\n            langu: new FormControl('', Validators.required)\r\n        });\r\n    }\r\n    get f() {\r\n        return this.form.controls;\r\n    }\r\n    genToken() {\r\n        let langue = this.form.value + \"\";\r\n        console.log(typeof (langue.toString()));\r\n        if (langue.includes('f')) {\r\n            langue = \"fr\";\r\n        }\r\n        else {\r\n            langue = \"en\";\r\n        }\r\n        this.genTokenService.generateToken(langue).subscribe(data => {\r\n            this.afficher = true;\r\n            //this.copyToken(data['token']);\r\n            this.r++;\r\n            console.log(data['token']);\r\n            this.token = data['token'];\r\n            this.date_creation = data['created_at'];\r\n            this.date_expiration = data['expire_at'];\r\n            //this.enrollment.copyToken();\r\n        }, error => console.log(error));\r\n    }\r\n    /*copyToken(tk):string{\r\n      this.token=tk;\r\n      return this.token;\r\n    }*/\r\n    ngOnInit() {\r\n    }\r\n    get f2() {\r\n        return this.form1.controls;\r\n    }\r\n    async paste() {\r\n        this.name = await navigator.clipboard.readText();\r\n    }\r\n}\r\nGenerateTokenComponent.ɵfac = function GenerateTokenComponent_Factory(t) { return new (t || GenerateTokenComponent)(i0.ɵɵdirectiveInject(i1.GenerateTokenService), i0.ɵɵdirectiveInject(i2.Router)); };\r\nGenerateTokenComponent.ɵcmp = /*@__PURE__*/ i0.ɵɵdefineComponent({ type: GenerateTokenComponent, selectors: [[\"app-generate-token\"]], decls: 24, vars: 10, consts: [[1, \"col-md-4\", \"offset-md-3\", \"register-form\"], [1, \"container\"], [\"text-weight\", \"bold\"], [3, \"formGroup\", \"ngSubmit\"], [1, \"form-group\"], [1, \"form-check\"], [\"formControlName\", \"lang\", \"value\", \"en\", \"type\", \"radio\", \"name\", \"lang\", \"id\", \"flexRadioDefault1\", 1, \"form-check-input\", 3, \"ngModel\", \"ngModelChange\"], [\"for\", \"flexRadioDefault1\", 1, \"form-check-label\"], [\"formControlName\", \"lang\", \"value\", \"fr\", \"type\", \"radio\", \"name\", \"lang\", \"id\", \"flexRadioDefault2\", 1, \"form-check-input\", 3, \"ngModel\", \"checked\", \"ngModelChange\"], [\"for\", \"flexRadioDefault2\", 1, \"form-check-label\"], [\"class\", \"alert alert-danger\", 4, \"ngIf\"], [\"class\", \"input-group\", 4, \"ngIf\"], [\"class\", \"input-group mb-3\", 4, \"ngIf\"], [\"type\", \"submit\", 1, \"btn\", \"btn-primary\", 3, \"disabled\"], [\"class\", \"col-md-4 offset-md-3 register-form\", 4, \"ngIf\"], [1, \"alert\", \"alert-danger\"], [4, \"ngIf\"], [1, \"input-group\"], [1, \"input-group-prepend\"], [1, \"input-group-text\"], [\"aria-label\", \"With textarea\", 1, \"form-control\", 3, \"readonly\", \"value\"], [\"text\", \"\"], [\"{{r}}++\", \"\", \"class\", \"btn btn-primary\", 3, \"ngxClipboard\", 4, \"ngIf\"], [\"{{r}}++\", \"\", 1, \"btn\", \"btn-primary\", 3, \"ngxClipboard\"], [1, \"input-group\", \"mb-3\"], [\"id\", \"basic-addon2\", 1, \"input-group-text\"], [\"type\", \"text\", \"id\", \"basic-url2\", \"aria-describedby\", \"basic-addon3\", 1, \"form-control\", 3, \"value\", \"readonly\"], [\"id\", \"basic-addon3\", 1, \"input-group-text\"], [\"type\", \"text\", \"id\", \"basic-url\", \"aria-describedby\", \"basic-addon3\", 1, \"form-control\", 3, \"value\", \"readonly\"], [3, \"formGroup\"], [\"aria-label\", \"With textarea\", 1, \"form-control\", 3, \"value\"], [1, \"btn\", \"btn-primary\", 3, \"click\"], [\"formControlName\", \"langu\", \"value\", \"en\", \"type\", \"radio\", \"name\", \"langu\", \"id\", \"flexRadioDefault3\", 1, \"form-check-input\", 3, \"ngModel\", \"ngModelChange\"], [\"formControlName\", \"langu\", \"value\", \"fr\", \"type\", \"radio\", \"name\", \"langu\", \"id\", \"flexRadioDefault4\", 1, \"form-check-input\", 3, \"ngModel\", \"checked\", \"ngModelChange\"]], template: function GenerateTokenComponent_Template(rf, ctx) { if (rf & 1) {\r\n        i0.ɵɵelementStart(0, \"div\", 0);\r\n        i0.ɵɵelementStart(1, \"div\", 1);\r\n        i0.ɵɵelementStart(2, \"p\", 2);\r\n        i0.ɵɵtext(3, \"NB: Le token ne dure que 5 minutes\");\r\n        i0.ɵɵelementEnd();\r\n        i0.ɵɵelementStart(4, \"form\", 3);\r\n        i0.ɵɵlistener(\"ngSubmit\", function GenerateTokenComponent_Template_form_ngSubmit_4_listener() { return ctx.genToken(); });\r\n        i0.ɵɵelementStart(5, \"div\", 4);\r\n        i0.ɵɵelementStart(6, \"p\");\r\n        i0.ɵɵtext(7, \"Indiquez la langue \\u00E0 utiliser\");\r\n        i0.ɵɵelementEnd();\r\n        i0.ɵɵelementStart(8, \"div\", 5);\r\n        i0.ɵɵelementStart(9, \"input\", 6);\r\n        i0.ɵɵlistener(\"ngModelChange\", function GenerateTokenComponent_Template_input_ngModelChange_9_listener($event) { return ctx.generatetoken.langue = $event; });\r\n        i0.ɵɵelementEnd();\r\n        i0.ɵɵelementStart(10, \"label\", 7);\r\n        i0.ɵɵtext(11, \" EN \");\r\n        i0.ɵɵelementEnd();\r\n        i0.ɵɵelementEnd();\r\n        i0.ɵɵelementStart(12, \"div\", 5);\r\n        i0.ɵɵelementStart(13, \"input\", 8);\r\n        i0.ɵɵlistener(\"ngModelChange\", function GenerateTokenComponent_Template_input_ngModelChange_13_listener($event) { return ctx.generatetoken.langue = $event; });\r\n        i0.ɵɵelementEnd();\r\n        i0.ɵɵelementStart(14, \"label\", 9);\r\n        i0.ɵɵtext(15, \" FR \");\r\n        i0.ɵɵelementEnd();\r\n        i0.ɵɵelementEnd();\r\n        i0.ɵɵtemplate(16, GenerateTokenComponent_div_16_Template, 2, 1, \"div\", 10);\r\n        i0.ɵɵtemplate(17, GenerateTokenComponent_div_17_Template, 8, 3, \"div\", 11);\r\n        i0.ɵɵelement(18, \"br\");\r\n        i0.ɵɵtemplate(19, GenerateTokenComponent_div_19_Template, 6, 5, \"div\", 12);\r\n        i0.ɵɵtemplate(20, GenerateTokenComponent_div_20_Template, 6, 5, \"div\", 12);\r\n        i0.ɵɵelementStart(21, \"button\", 13);\r\n        i0.ɵɵtext(22, \"G\\u00E9n\\u00E9rer Token\");\r\n        i0.ɵɵelementEnd();\r\n        i0.ɵɵelementEnd();\r\n        i0.ɵɵelementEnd();\r\n        i0.ɵɵelementEnd();\r\n        i0.ɵɵelementEnd();\r\n        i0.ɵɵtemplate(23, GenerateTokenComponent_div_23_Template, 25, 7, \"div\", 14);\r\n    } if (rf & 2) {\r\n        i0.ɵɵadvance(4);\r\n        i0.ɵɵproperty(\"formGroup\", ctx.form);\r\n        i0.ɵɵadvance(5);\r\n        i0.ɵɵproperty(\"ngModel\", ctx.generatetoken.langue);\r\n        i0.ɵɵadvance(4);\r\n        i0.ɵɵproperty(\"ngModel\", ctx.generatetoken.langue)(\"checked\", true);\r\n        i0.ɵɵadvance(3);\r\n        i0.ɵɵproperty(\"ngIf\", ctx.f[\"lang\"].touched && ctx.f[\"lang\"].invalid);\r\n        i0.ɵɵadvance(1);\r\n        i0.ɵɵproperty(\"ngIf\", ctx.afficher);\r\n        i0.ɵɵadvance(2);\r\n        i0.ɵɵproperty(\"ngIf\", ctx.afficher);\r\n        i0.ɵɵadvance(1);\r\n        i0.ɵɵproperty(\"ngIf\", ctx.afficher);\r\n        i0.ɵɵadvance(1);\r\n        i0.ɵɵproperty(\"disabled\", !ctx.form.valid);\r\n        i0.ɵɵadvance(2);\r\n        i0.ɵɵproperty(\"ngIf\", ctx.r > 0);\r\n    } }, directives: [i3.ɵNgNoValidate, i3.NgControlStatusGroup, i3.FormGroupDirective, i3.DefaultValueAccessor, i3.RadioControlValueAccessor, i3.NgControlStatus, i3.FormControlName, i4.NgIf, i5.ClipboardDirective], pipes: [i4.DatePipe], styles: [\"\\n/*# sourceMappingURL=data:application/json;base64,eyJ2ZXJzaW9uIjozLCJzb3VyY2VzIjpbXSwibmFtZXMiOltdLCJtYXBwaW5ncyI6IiIsImZpbGUiOiJnZW5lcmF0ZS10b2tlbi5jb21wb25lbnQuY3NzIn0= */\"] });\r\n"
    ]
  },
  "metadata": {},
  "sourceType": "module"
}
