{
  "ast": null,
  "code": "import _asyncToGenerator from \"F:/angulardev/frontWhispeak/node_modules/@babel/runtime/helpers/esm/asyncToGenerator\";\nimport { GenerateToken } from \"../generate-token\";\nimport { FormControl, FormGroup, Validators } from \"@angular/forms\";\nimport * as i0 from \"@angular/core\";\nimport * as i1 from \"../generate-token.service\";\nimport * as i2 from \"@angular/router\";\nimport * as i3 from \"@angular/forms\";\nimport * as i4 from \"@angular/common\";\nimport * as i5 from \"ngx-clipboard\";\n\nfunction GenerateTokenComponent_div_16_div_1_Template(rf, ctx) {\n  if (rf & 1) {\n    i0.ɵɵelementStart(0, \"div\");\n    i0.ɵɵtext(1, \"Language is required.\");\n    i0.ɵɵelementEnd();\n  }\n}\n\nfunction GenerateTokenComponent_div_16_Template(rf, ctx) {\n  if (rf & 1) {\n    i0.ɵɵelementStart(0, \"div\", 15);\n    i0.ɵɵtemplate(1, GenerateTokenComponent_div_16_div_1_Template, 2, 0, \"div\", 16);\n    i0.ɵɵelementEnd();\n  }\n\n  if (rf & 2) {\n    const ctx_r0 = i0.ɵɵnextContext();\n    i0.ɵɵadvance(1);\n    i0.ɵɵproperty(\"ngIf\", ctx_r0.f[\"lang\"].errors || ctx_r0.f[\"lang\"].errors[\"required\"]);\n  }\n}\n\nfunction GenerateTokenComponent_div_17_Template(rf, ctx) {\n  if (rf & 1) {\n    i0.ɵɵelementStart(0, \"div\", 17);\n    i0.ɵɵelementStart(1, \"div\", 18);\n    i0.ɵɵelementStart(2, \"span\", 19);\n    i0.ɵɵtext(3, \"Token\");\n    i0.ɵɵelementEnd();\n    i0.ɵɵelementEnd();\n    i0.ɵɵelement(4, \"textarea\", 20, 21);\n    i0.ɵɵelement(6, \"br\");\n    i0.ɵɵelementStart(7, \"button\", 22);\n    i0.ɵɵtext(8, \"Copier\");\n    i0.ɵɵelementEnd();\n    i0.ɵɵelementEnd();\n  }\n\n  if (rf & 2) {\n    const _r6 = i0.ɵɵreference(5);\n\n    const ctx_r1 = i0.ɵɵnextContext();\n    i0.ɵɵadvance(4);\n    i0.ɵɵpropertyInterpolate(\"value\", ctx_r1.token);\n    i0.ɵɵproperty(\"readonly\", true);\n    i0.ɵɵadvance(3);\n    i0.ɵɵproperty(\"ngxClipboard\", _r6);\n  }\n}\n\nfunction GenerateTokenComponent_div_19_Template(rf, ctx) {\n  if (rf & 1) {\n    i0.ɵɵelementStart(0, \"div\", 23);\n    i0.ɵɵelementStart(1, \"div\", 18);\n    i0.ɵɵelementStart(2, \"span\", 24);\n    i0.ɵɵtext(3, \"Date cr\\u00E9ation\");\n    i0.ɵɵelementEnd();\n    i0.ɵɵelementEnd();\n    i0.ɵɵelement(4, \"input\", 25);\n    i0.ɵɵpipe(5, \"date\");\n    i0.ɵɵelementEnd();\n  }\n\n  if (rf & 2) {\n    const ctx_r2 = i0.ɵɵnextContext();\n    i0.ɵɵadvance(4);\n    i0.ɵɵpropertyInterpolate(\"value\", i0.ɵɵpipeBind2(5, 2, ctx_r2.date_creation, \"dd-MMM-yyyy hh:mm:ss\"));\n    i0.ɵɵproperty(\"readonly\", true);\n  }\n}\n\nfunction GenerateTokenComponent_div_20_Template(rf, ctx) {\n  if (rf & 1) {\n    i0.ɵɵelementStart(0, \"div\", 23);\n    i0.ɵɵelementStart(1, \"div\", 18);\n    i0.ɵɵelementStart(2, \"span\", 26);\n    i0.ɵɵtext(3, \"Date expiration\");\n    i0.ɵɵelementEnd();\n    i0.ɵɵelementEnd();\n    i0.ɵɵelement(4, \"input\", 27);\n    i0.ɵɵpipe(5, \"date\");\n    i0.ɵɵelementEnd();\n  }\n\n  if (rf & 2) {\n    const ctx_r3 = i0.ɵɵnextContext();\n    i0.ɵɵadvance(4);\n    i0.ɵɵpropertyInterpolate(\"value\", i0.ɵɵpipeBind2(5, 2, ctx_r3.date_expiration, \"dd-MMM-yyyy hh:mm:ss\"));\n    i0.ɵɵproperty(\"readonly\", true);\n  }\n}\n\nfunction GenerateTokenComponent_div_24_button_10_Template(rf, ctx) {\n  if (rf & 1) {\n    const _r10 = i0.ɵɵgetCurrentView();\n\n    i0.ɵɵelementStart(0, \"button\", 33);\n    i0.ɵɵlistener(\"click\", function GenerateTokenComponent_div_24_button_10_Template_button_click_0_listener() {\n      i0.ɵɵrestoreView(_r10);\n      const ctx_r9 = i0.ɵɵnextContext(2);\n      return ctx_r9.paste();\n    });\n    i0.ɵɵtext(1, \"Coller\");\n    i0.ɵɵelementEnd();\n  }\n}\n\nfunction GenerateTokenComponent_div_24_div_21_div_1_Template(rf, ctx) {\n  if (rf & 1) {\n    i0.ɵɵelementStart(0, \"div\");\n    i0.ɵɵtext(1, \"Language is required.\");\n    i0.ɵɵelementEnd();\n  }\n}\n\nfunction GenerateTokenComponent_div_24_div_21_Template(rf, ctx) {\n  if (rf & 1) {\n    i0.ɵɵelementStart(0, \"div\", 15);\n    i0.ɵɵtemplate(1, GenerateTokenComponent_div_24_div_21_div_1_Template, 2, 0, \"div\", 16);\n    i0.ɵɵelementEnd();\n  }\n\n  if (rf & 2) {\n    const ctx_r8 = i0.ɵɵnextContext(2);\n    i0.ɵɵadvance(1);\n    i0.ɵɵproperty(\"ngIf\", ctx_r8.f2[\"langu\"].errors || ctx_r8.f[\"langu\"].errors[\"required\"]);\n  }\n}\n\nfunction GenerateTokenComponent_div_24_Template(rf, ctx) {\n  if (rf & 1) {\n    const _r13 = i0.ɵɵgetCurrentView();\n\n    i0.ɵɵelementStart(0, \"div\", 0);\n    i0.ɵɵelementStart(1, \"div\", 1);\n    i0.ɵɵelementStart(2, \"form\", 28);\n    i0.ɵɵelementStart(3, \"div\", 4);\n    i0.ɵɵelementStart(4, \"div\", 17);\n    i0.ɵɵelementStart(5, \"div\", 18);\n    i0.ɵɵelementStart(6, \"span\", 19);\n    i0.ɵɵtext(7, \"Token\");\n    i0.ɵɵelementEnd();\n    i0.ɵɵelementEnd();\n    i0.ɵɵelement(8, \"textarea\", 29);\n    i0.ɵɵelement(9, \"br\");\n    i0.ɵɵtemplate(10, GenerateTokenComponent_div_24_button_10_Template, 2, 0, \"button\", 30);\n    i0.ɵɵelementEnd();\n    i0.ɵɵelementStart(11, \"p\");\n    i0.ɵɵtext(12, \"Indiquez la langue \\u00E0 utiliser\");\n    i0.ɵɵelementEnd();\n    i0.ɵɵelementStart(13, \"div\", 5);\n    i0.ɵɵelementStart(14, \"input\", 31);\n    i0.ɵɵlistener(\"ngModelChange\", function GenerateTokenComponent_div_24_Template_input_ngModelChange_14_listener($event) {\n      i0.ɵɵrestoreView(_r13);\n      const ctx_r12 = i0.ɵɵnextContext();\n      return ctx_r12.generatetoken.langue2 = $event;\n    });\n    i0.ɵɵelementEnd();\n    i0.ɵɵelementStart(15, \"label\", 7);\n    i0.ɵɵtext(16, \" EN \");\n    i0.ɵɵelementEnd();\n    i0.ɵɵelementEnd();\n    i0.ɵɵelementStart(17, \"div\", 5);\n    i0.ɵɵelementStart(18, \"input\", 32);\n    i0.ɵɵlistener(\"ngModelChange\", function GenerateTokenComponent_div_24_Template_input_ngModelChange_18_listener($event) {\n      i0.ɵɵrestoreView(_r13);\n      const ctx_r14 = i0.ɵɵnextContext();\n      return ctx_r14.generatetoken.langue2 = $event;\n    });\n    i0.ɵɵelementEnd();\n    i0.ɵɵelementStart(19, \"label\", 9);\n    i0.ɵɵtext(20, \" FR \");\n    i0.ɵɵelementEnd();\n    i0.ɵɵelementEnd();\n    i0.ɵɵtemplate(21, GenerateTokenComponent_div_24_div_21_Template, 2, 1, \"div\", 10);\n    i0.ɵɵelementStart(22, \"button\", 13);\n    i0.ɵɵtext(23, \"G\\u00E9n\\u00E9rer Token\");\n    i0.ɵɵelementEnd();\n    i0.ɵɵelementEnd();\n    i0.ɵɵelementEnd();\n    i0.ɵɵelementEnd();\n    i0.ɵɵelementEnd();\n  }\n\n  if (rf & 2) {\n    const ctx_r4 = i0.ɵɵnextContext();\n    i0.ɵɵadvance(2);\n    i0.ɵɵproperty(\"formGroup\", ctx_r4.form1);\n    i0.ɵɵadvance(6);\n    i0.ɵɵpropertyInterpolate(\"value\", ctx_r4.name);\n    i0.ɵɵadvance(2);\n    i0.ɵɵproperty(\"ngIf\", ctx_r4.p > 0);\n    i0.ɵɵadvance(4);\n    i0.ɵɵproperty(\"ngModel\", ctx_r4.generatetoken.langue2);\n    i0.ɵɵadvance(4);\n    i0.ɵɵproperty(\"ngModel\", ctx_r4.generatetoken.langue2)(\"checked\", true);\n    i0.ɵɵadvance(3);\n    i0.ɵɵproperty(\"ngIf\", ctx_r4.f2[\"langu\"].touched && ctx_r4.f[\"langu\"].invalid);\n    i0.ɵɵadvance(1);\n    i0.ɵɵproperty(\"disabled\", !ctx_r4.form1.valid);\n  }\n}\n\nexport class GenerateTokenComponent {\n  constructor(genTokenService, router) {\n    this.genTokenService = genTokenService;\n    this.router = router;\n    this.afficher = false;\n    this.r = 0;\n    this.p = 0;\n    this.generatetoken = new GenerateToken();\n    this.form = new FormGroup({\n      lang: new FormControl('', Validators.required)\n    });\n    this.name = ''; //token:any;\n\n    this.form1 = new FormGroup({\n      langu: new FormControl('', Validators.required)\n    });\n  }\n\n  get f() {\n    return this.form.controls;\n  }\n\n  genToken() {\n    let langue = this.form.value + \"\";\n    console.log(typeof langue.toString());\n\n    if (langue.includes('f')) {\n      langue = \"fr\";\n    } else {\n      langue = \"en\";\n    }\n\n    this.genTokenService.generateToken(langue).subscribe(data => {\n      this.afficher = true; //this.copyToken(data['token']);\n\n      this.r++;\n      console.log(data['token']);\n      this.token = data['token'];\n      this.date_creation = data['created_at'];\n      this.date_expiration = data['expire_at']; //this.enrollment.copyToken();\n    }, error => console.log(error));\n  }\n  /*copyToken(tk):string{\r\n    this.token=tk;\r\n    return this.token;\r\n  }*/\n\n\n  ngOnInit() {}\n\n  increment() {\n    this.p++;\n  }\n\n  get f2() {\n    return this.form1.controls;\n  }\n\n  paste() {\n    var _this = this;\n\n    return _asyncToGenerator(function* () {\n      _this.name = yield navigator.clipboard.readText();\n    })();\n  }\n\n}\n\nGenerateTokenComponent.ɵfac = function GenerateTokenComponent_Factory(t) {\n  return new (t || GenerateTokenComponent)(i0.ɵɵdirectiveInject(i1.GenerateTokenService), i0.ɵɵdirectiveInject(i2.Router));\n};\n\nGenerateTokenComponent.ɵcmp = /*@__PURE__*/i0.ɵɵdefineComponent({\n  type: GenerateTokenComponent,\n  selectors: [[\"app-generate-token\"]],\n  decls: 25,\n  vars: 10,\n  consts: [[1, \"col-md-4\", \"offset-md-3\", \"register-form\"], [1, \"container\"], [\"text-weight\", \"bold\"], [3, \"formGroup\", \"ngSubmit\"], [1, \"form-group\"], [1, \"form-check\"], [\"formControlName\", \"lang\", \"value\", \"en\", \"type\", \"radio\", \"name\", \"lang\", \"id\", \"flexRadioDefault1\", 1, \"form-check-input\", 3, \"ngModel\", \"ngModelChange\"], [\"for\", \"flexRadioDefault1\", 1, \"form-check-label\"], [\"formControlName\", \"lang\", \"value\", \"fr\", \"type\", \"radio\", \"name\", \"lang\", \"id\", \"flexRadioDefault2\", 1, \"form-check-input\", 3, \"ngModel\", \"checked\", \"ngModelChange\"], [\"for\", \"flexRadioDefault2\", 1, \"form-check-label\"], [\"class\", \"alert alert-danger\", 4, \"ngIf\"], [\"class\", \"input-group\", 4, \"ngIf\"], [\"class\", \"input-group mb-3\", 4, \"ngIf\"], [\"type\", \"submit\", 1, \"btn\", \"btn-primary\", 3, \"disabled\"], [\"class\", \"col-md-4 offset-md-3 register-form\", 4, \"ngIf\"], [1, \"alert\", \"alert-danger\"], [4, \"ngIf\"], [1, \"input-group\"], [1, \"input-group-prepend\"], [1, \"input-group-text\"], [\"aria-label\", \"With textarea\", 1, \"form-control\", 3, \"readonly\", \"value\"], [\"text\", \"\"], [\"ng-click\", \"increment()\", 1, \"btn\", \"btn-primary\", 3, \"ngxClipboard\"], [1, \"input-group\", \"mb-3\"], [\"id\", \"basic-addon2\", 1, \"input-group-text\"], [\"type\", \"text\", \"id\", \"basic-url2\", \"aria-describedby\", \"basic-addon3\", 1, \"form-control\", 3, \"value\", \"readonly\"], [\"id\", \"basic-addon3\", 1, \"input-group-text\"], [\"type\", \"text\", \"id\", \"basic-url\", \"aria-describedby\", \"basic-addon3\", 1, \"form-control\", 3, \"value\", \"readonly\"], [3, \"formGroup\"], [\"aria-label\", \"With textarea\", 1, \"form-control\", 3, \"value\"], [\"class\", \"btn btn-primary\", 3, \"click\", 4, \"ngIf\"], [\"formControlName\", \"langu\", \"value\", \"en\", \"type\", \"radio\", \"name\", \"langu\", \"id\", \"flexRadioDefault3\", 1, \"form-check-input\", 3, \"ngModel\", \"ngModelChange\"], [\"formControlName\", \"langu\", \"value\", \"fr\", \"type\", \"radio\", \"name\", \"langu\", \"id\", \"flexRadioDefault4\", 1, \"form-check-input\", 3, \"ngModel\", \"checked\", \"ngModelChange\"], [1, \"btn\", \"btn-primary\", 3, \"click\"]],\n  template: function GenerateTokenComponent_Template(rf, ctx) {\n    if (rf & 1) {\n      i0.ɵɵelementStart(0, \"div\", 0);\n      i0.ɵɵelementStart(1, \"div\", 1);\n      i0.ɵɵelementStart(2, \"p\", 2);\n      i0.ɵɵtext(3, \"NB: Le token ne dure que 5 minutes\");\n      i0.ɵɵelementEnd();\n      i0.ɵɵelementStart(4, \"form\", 3);\n      i0.ɵɵlistener(\"ngSubmit\", function GenerateTokenComponent_Template_form_ngSubmit_4_listener() {\n        return ctx.genToken();\n      });\n      i0.ɵɵelementStart(5, \"div\", 4);\n      i0.ɵɵelementStart(6, \"p\");\n      i0.ɵɵtext(7, \"Indiquez la langue \\u00E0 utiliser\");\n      i0.ɵɵelementEnd();\n      i0.ɵɵelementStart(8, \"div\", 5);\n      i0.ɵɵelementStart(9, \"input\", 6);\n      i0.ɵɵlistener(\"ngModelChange\", function GenerateTokenComponent_Template_input_ngModelChange_9_listener($event) {\n        return ctx.generatetoken.langue = $event;\n      });\n      i0.ɵɵelementEnd();\n      i0.ɵɵelementStart(10, \"label\", 7);\n      i0.ɵɵtext(11, \" EN \");\n      i0.ɵɵelementEnd();\n      i0.ɵɵelementEnd();\n      i0.ɵɵelementStart(12, \"div\", 5);\n      i0.ɵɵelementStart(13, \"input\", 8);\n      i0.ɵɵlistener(\"ngModelChange\", function GenerateTokenComponent_Template_input_ngModelChange_13_listener($event) {\n        return ctx.generatetoken.langue = $event;\n      });\n      i0.ɵɵelementEnd();\n      i0.ɵɵelementStart(14, \"label\", 9);\n      i0.ɵɵtext(15, \" FR \");\n      i0.ɵɵelementEnd();\n      i0.ɵɵelementEnd();\n      i0.ɵɵtemplate(16, GenerateTokenComponent_div_16_Template, 2, 1, \"div\", 10);\n      i0.ɵɵtemplate(17, GenerateTokenComponent_div_17_Template, 9, 3, \"div\", 11);\n      i0.ɵɵelement(18, \"br\");\n      i0.ɵɵtemplate(19, GenerateTokenComponent_div_19_Template, 6, 5, \"div\", 12);\n      i0.ɵɵtemplate(20, GenerateTokenComponent_div_20_Template, 6, 5, \"div\", 12);\n      i0.ɵɵelementStart(21, \"button\", 13);\n      i0.ɵɵtext(22, \"G\\u00E9n\\u00E9rer Token\");\n      i0.ɵɵelementEnd();\n      i0.ɵɵelementEnd();\n      i0.ɵɵelementEnd();\n      i0.ɵɵelementEnd();\n      i0.ɵɵelementEnd();\n      i0.ɵɵelement(23, \"br\");\n      i0.ɵɵtemplate(24, GenerateTokenComponent_div_24_Template, 24, 8, \"div\", 14);\n    }\n\n    if (rf & 2) {\n      i0.ɵɵadvance(4);\n      i0.ɵɵproperty(\"formGroup\", ctx.form);\n      i0.ɵɵadvance(5);\n      i0.ɵɵproperty(\"ngModel\", ctx.generatetoken.langue);\n      i0.ɵɵadvance(4);\n      i0.ɵɵproperty(\"ngModel\", ctx.generatetoken.langue)(\"checked\", true);\n      i0.ɵɵadvance(3);\n      i0.ɵɵproperty(\"ngIf\", ctx.f[\"lang\"].touched && ctx.f[\"lang\"].invalid);\n      i0.ɵɵadvance(1);\n      i0.ɵɵproperty(\"ngIf\", ctx.afficher);\n      i0.ɵɵadvance(2);\n      i0.ɵɵproperty(\"ngIf\", ctx.afficher);\n      i0.ɵɵadvance(1);\n      i0.ɵɵproperty(\"ngIf\", ctx.afficher);\n      i0.ɵɵadvance(1);\n      i0.ɵɵproperty(\"disabled\", !ctx.form.valid);\n      i0.ɵɵadvance(3);\n      i0.ɵɵproperty(\"ngIf\", ctx.r > 0);\n    }\n  },\n  directives: [i3.ɵNgNoValidate, i3.NgControlStatusGroup, i3.FormGroupDirective, i3.DefaultValueAccessor, i3.RadioControlValueAccessor, i3.NgControlStatus, i3.FormControlName, i4.NgIf, i5.ClipboardDirective],\n  pipes: [i4.DatePipe],\n  styles: [\"\\n/*# sourceMappingURL=data:application/json;base64,eyJ2ZXJzaW9uIjozLCJzb3VyY2VzIjpbXSwibmFtZXMiOltdLCJtYXBwaW5ncyI6IiIsImZpbGUiOiJnZW5lcmF0ZS10b2tlbi5jb21wb25lbnQuY3NzIn0= */\"]\n});",
  "map": {
    "version": 3,
    "sources": [
      "F:/angulardev/frontWhispeak/src/app/generate-token/generate-token.component.ts"
    ],
    "names": [
      "GenerateToken",
      "FormControl",
      "FormGroup",
      "Validators",
      "i0",
      "i1",
      "i2",
      "i3",
      "i4",
      "i5",
      "GenerateTokenComponent_div_16_div_1_Template",
      "rf",
      "ctx",
      "ɵɵelementStart",
      "ɵɵtext",
      "ɵɵelementEnd",
      "GenerateTokenComponent_div_16_Template",
      "ɵɵtemplate",
      "ctx_r0",
      "ɵɵnextContext",
      "ɵɵadvance",
      "ɵɵproperty",
      "f",
      "errors",
      "GenerateTokenComponent_div_17_Template",
      "ɵɵelement",
      "_r6",
      "ɵɵreference",
      "ctx_r1",
      "ɵɵpropertyInterpolate",
      "token",
      "GenerateTokenComponent_div_19_Template",
      "ɵɵpipe",
      "ctx_r2",
      "ɵɵpipeBind2",
      "date_creation",
      "GenerateTokenComponent_div_20_Template",
      "ctx_r3",
      "date_expiration",
      "GenerateTokenComponent_div_24_button_10_Template",
      "_r10",
      "ɵɵgetCurrentView",
      "ɵɵlistener",
      "GenerateTokenComponent_div_24_button_10_Template_button_click_0_listener",
      "ɵɵrestoreView",
      "ctx_r9",
      "paste",
      "GenerateTokenComponent_div_24_div_21_div_1_Template",
      "GenerateTokenComponent_div_24_div_21_Template",
      "ctx_r8",
      "f2",
      "GenerateTokenComponent_div_24_Template",
      "_r13",
      "GenerateTokenComponent_div_24_Template_input_ngModelChange_14_listener",
      "$event",
      "ctx_r12",
      "generatetoken",
      "langue2",
      "GenerateTokenComponent_div_24_Template_input_ngModelChange_18_listener",
      "ctx_r14",
      "ctx_r4",
      "form1",
      "name",
      "p",
      "touched",
      "invalid",
      "valid",
      "GenerateTokenComponent",
      "constructor",
      "genTokenService",
      "router",
      "afficher",
      "r",
      "form",
      "lang",
      "required",
      "langu",
      "controls",
      "genToken",
      "langue",
      "value",
      "console",
      "log",
      "toString",
      "includes",
      "generateToken",
      "subscribe",
      "data",
      "error",
      "ngOnInit",
      "increment",
      "navigator",
      "clipboard",
      "readText",
      "ɵfac",
      "GenerateTokenComponent_Factory",
      "t",
      "ɵɵdirectiveInject",
      "GenerateTokenService",
      "Router",
      "ɵcmp",
      "ɵɵdefineComponent",
      "type",
      "selectors",
      "decls",
      "vars",
      "consts",
      "template",
      "GenerateTokenComponent_Template",
      "GenerateTokenComponent_Template_form_ngSubmit_4_listener",
      "GenerateTokenComponent_Template_input_ngModelChange_9_listener",
      "GenerateTokenComponent_Template_input_ngModelChange_13_listener",
      "directives",
      "ɵNgNoValidate",
      "NgControlStatusGroup",
      "FormGroupDirective",
      "DefaultValueAccessor",
      "RadioControlValueAccessor",
      "NgControlStatus",
      "FormControlName",
      "NgIf",
      "ClipboardDirective",
      "pipes",
      "DatePipe",
      "styles"
    ],
    "mappings": ";AAAA,SAASA,aAAT,QAA8B,mBAA9B;AACA,SAASC,WAAT,EAAsBC,SAAtB,EAAiCC,UAAjC,QAAmD,gBAAnD;AACA,OAAO,KAAKC,EAAZ,MAAoB,eAApB;AACA,OAAO,KAAKC,EAAZ,MAAoB,2BAApB;AACA,OAAO,KAAKC,EAAZ,MAAoB,iBAApB;AACA,OAAO,KAAKC,EAAZ,MAAoB,gBAApB;AACA,OAAO,KAAKC,EAAZ,MAAoB,iBAApB;AACA,OAAO,KAAKC,EAAZ,MAAoB,eAApB;;AACA,SAASC,4CAAT,CAAsDC,EAAtD,EAA0DC,GAA1D,EAA+D;AAAE,MAAID,EAAE,GAAG,CAAT,EAAY;AACzEP,IAAAA,EAAE,CAACS,cAAH,CAAkB,CAAlB,EAAqB,KAArB;AACAT,IAAAA,EAAE,CAACU,MAAH,CAAU,CAAV,EAAa,uBAAb;AACAV,IAAAA,EAAE,CAACW,YAAH;AACH;AAAE;;AACH,SAASC,sCAAT,CAAgDL,EAAhD,EAAoDC,GAApD,EAAyD;AAAE,MAAID,EAAE,GAAG,CAAT,EAAY;AACnEP,IAAAA,EAAE,CAACS,cAAH,CAAkB,CAAlB,EAAqB,KAArB,EAA4B,EAA5B;AACAT,IAAAA,EAAE,CAACa,UAAH,CAAc,CAAd,EAAiBP,4CAAjB,EAA+D,CAA/D,EAAkE,CAAlE,EAAqE,KAArE,EAA4E,EAA5E;AACAN,IAAAA,EAAE,CAACW,YAAH;AACH;;AAAC,MAAIJ,EAAE,GAAG,CAAT,EAAY;AACV,UAAMO,MAAM,GAAGd,EAAE,CAACe,aAAH,EAAf;AACAf,IAAAA,EAAE,CAACgB,SAAH,CAAa,CAAb;AACAhB,IAAAA,EAAE,CAACiB,UAAH,CAAc,MAAd,EAAsBH,MAAM,CAACI,CAAP,CAAS,MAAT,EAAiBC,MAAjB,IAA2BL,MAAM,CAACI,CAAP,CAAS,MAAT,EAAiBC,MAAjB,CAAwB,UAAxB,CAAjD;AACH;AAAE;;AACH,SAASC,sCAAT,CAAgDb,EAAhD,EAAoDC,GAApD,EAAyD;AAAE,MAAID,EAAE,GAAG,CAAT,EAAY;AACnEP,IAAAA,EAAE,CAACS,cAAH,CAAkB,CAAlB,EAAqB,KAArB,EAA4B,EAA5B;AACAT,IAAAA,EAAE,CAACS,cAAH,CAAkB,CAAlB,EAAqB,KAArB,EAA4B,EAA5B;AACAT,IAAAA,EAAE,CAACS,cAAH,CAAkB,CAAlB,EAAqB,MAArB,EAA6B,EAA7B;AACAT,IAAAA,EAAE,CAACU,MAAH,CAAU,CAAV,EAAa,OAAb;AACAV,IAAAA,EAAE,CAACW,YAAH;AACAX,IAAAA,EAAE,CAACW,YAAH;AACAX,IAAAA,EAAE,CAACqB,SAAH,CAAa,CAAb,EAAgB,UAAhB,EAA4B,EAA5B,EAAgC,EAAhC;AACArB,IAAAA,EAAE,CAACqB,SAAH,CAAa,CAAb,EAAgB,IAAhB;AACArB,IAAAA,EAAE,CAACS,cAAH,CAAkB,CAAlB,EAAqB,QAArB,EAA+B,EAA/B;AACAT,IAAAA,EAAE,CAACU,MAAH,CAAU,CAAV,EAAa,QAAb;AACAV,IAAAA,EAAE,CAACW,YAAH;AACAX,IAAAA,EAAE,CAACW,YAAH;AACH;;AAAC,MAAIJ,EAAE,GAAG,CAAT,EAAY;AACV,UAAMe,GAAG,GAAGtB,EAAE,CAACuB,WAAH,CAAe,CAAf,CAAZ;;AACA,UAAMC,MAAM,GAAGxB,EAAE,CAACe,aAAH,EAAf;AACAf,IAAAA,EAAE,CAACgB,SAAH,CAAa,CAAb;AACAhB,IAAAA,EAAE,CAACyB,qBAAH,CAAyB,OAAzB,EAAkCD,MAAM,CAACE,KAAzC;AACA1B,IAAAA,EAAE,CAACiB,UAAH,CAAc,UAAd,EAA0B,IAA1B;AACAjB,IAAAA,EAAE,CAACgB,SAAH,CAAa,CAAb;AACAhB,IAAAA,EAAE,CAACiB,UAAH,CAAc,cAAd,EAA8BK,GAA9B;AACH;AAAE;;AACH,SAASK,sCAAT,CAAgDpB,EAAhD,EAAoDC,GAApD,EAAyD;AAAE,MAAID,EAAE,GAAG,CAAT,EAAY;AACnEP,IAAAA,EAAE,CAACS,cAAH,CAAkB,CAAlB,EAAqB,KAArB,EAA4B,EAA5B;AACAT,IAAAA,EAAE,CAACS,cAAH,CAAkB,CAAlB,EAAqB,KAArB,EAA4B,EAA5B;AACAT,IAAAA,EAAE,CAACS,cAAH,CAAkB,CAAlB,EAAqB,MAArB,EAA6B,EAA7B;AACAT,IAAAA,EAAE,CAACU,MAAH,CAAU,CAAV,EAAa,oBAAb;AACAV,IAAAA,EAAE,CAACW,YAAH;AACAX,IAAAA,EAAE,CAACW,YAAH;AACAX,IAAAA,EAAE,CAACqB,SAAH,CAAa,CAAb,EAAgB,OAAhB,EAAyB,EAAzB;AACArB,IAAAA,EAAE,CAAC4B,MAAH,CAAU,CAAV,EAAa,MAAb;AACA5B,IAAAA,EAAE,CAACW,YAAH;AACH;;AAAC,MAAIJ,EAAE,GAAG,CAAT,EAAY;AACV,UAAMsB,MAAM,GAAG7B,EAAE,CAACe,aAAH,EAAf;AACAf,IAAAA,EAAE,CAACgB,SAAH,CAAa,CAAb;AACAhB,IAAAA,EAAE,CAACyB,qBAAH,CAAyB,OAAzB,EAAkCzB,EAAE,CAAC8B,WAAH,CAAe,CAAf,EAAkB,CAAlB,EAAqBD,MAAM,CAACE,aAA5B,EAA2C,sBAA3C,CAAlC;AACA/B,IAAAA,EAAE,CAACiB,UAAH,CAAc,UAAd,EAA0B,IAA1B;AACH;AAAE;;AACH,SAASe,sCAAT,CAAgDzB,EAAhD,EAAoDC,GAApD,EAAyD;AAAE,MAAID,EAAE,GAAG,CAAT,EAAY;AACnEP,IAAAA,EAAE,CAACS,cAAH,CAAkB,CAAlB,EAAqB,KAArB,EAA4B,EAA5B;AACAT,IAAAA,EAAE,CAACS,cAAH,CAAkB,CAAlB,EAAqB,KAArB,EAA4B,EAA5B;AACAT,IAAAA,EAAE,CAACS,cAAH,CAAkB,CAAlB,EAAqB,MAArB,EAA6B,EAA7B;AACAT,IAAAA,EAAE,CAACU,MAAH,CAAU,CAAV,EAAa,iBAAb;AACAV,IAAAA,EAAE,CAACW,YAAH;AACAX,IAAAA,EAAE,CAACW,YAAH;AACAX,IAAAA,EAAE,CAACqB,SAAH,CAAa,CAAb,EAAgB,OAAhB,EAAyB,EAAzB;AACArB,IAAAA,EAAE,CAAC4B,MAAH,CAAU,CAAV,EAAa,MAAb;AACA5B,IAAAA,EAAE,CAACW,YAAH;AACH;;AAAC,MAAIJ,EAAE,GAAG,CAAT,EAAY;AACV,UAAM0B,MAAM,GAAGjC,EAAE,CAACe,aAAH,EAAf;AACAf,IAAAA,EAAE,CAACgB,SAAH,CAAa,CAAb;AACAhB,IAAAA,EAAE,CAACyB,qBAAH,CAAyB,OAAzB,EAAkCzB,EAAE,CAAC8B,WAAH,CAAe,CAAf,EAAkB,CAAlB,EAAqBG,MAAM,CAACC,eAA5B,EAA6C,sBAA7C,CAAlC;AACAlC,IAAAA,EAAE,CAACiB,UAAH,CAAc,UAAd,EAA0B,IAA1B;AACH;AAAE;;AACH,SAASkB,gDAAT,CAA0D5B,EAA1D,EAA8DC,GAA9D,EAAmE;AAAE,MAAID,EAAE,GAAG,CAAT,EAAY;AAC7E,UAAM6B,IAAI,GAAGpC,EAAE,CAACqC,gBAAH,EAAb;;AACArC,IAAAA,EAAE,CAACS,cAAH,CAAkB,CAAlB,EAAqB,QAArB,EAA+B,EAA/B;AACAT,IAAAA,EAAE,CAACsC,UAAH,CAAc,OAAd,EAAuB,SAASC,wEAAT,GAAoF;AAAEvC,MAAAA,EAAE,CAACwC,aAAH,CAAiBJ,IAAjB;AAAwB,YAAMK,MAAM,GAAGzC,EAAE,CAACe,aAAH,CAAiB,CAAjB,CAAf;AAAoC,aAAO0B,MAAM,CAACC,KAAP,EAAP;AAAwB,KAAjM;AACA1C,IAAAA,EAAE,CAACU,MAAH,CAAU,CAAV,EAAa,QAAb;AACAV,IAAAA,EAAE,CAACW,YAAH;AACH;AAAE;;AACH,SAASgC,mDAAT,CAA6DpC,EAA7D,EAAiEC,GAAjE,EAAsE;AAAE,MAAID,EAAE,GAAG,CAAT,EAAY;AAChFP,IAAAA,EAAE,CAACS,cAAH,CAAkB,CAAlB,EAAqB,KAArB;AACAT,IAAAA,EAAE,CAACU,MAAH,CAAU,CAAV,EAAa,uBAAb;AACAV,IAAAA,EAAE,CAACW,YAAH;AACH;AAAE;;AACH,SAASiC,6CAAT,CAAuDrC,EAAvD,EAA2DC,GAA3D,EAAgE;AAAE,MAAID,EAAE,GAAG,CAAT,EAAY;AAC1EP,IAAAA,EAAE,CAACS,cAAH,CAAkB,CAAlB,EAAqB,KAArB,EAA4B,EAA5B;AACAT,IAAAA,EAAE,CAACa,UAAH,CAAc,CAAd,EAAiB8B,mDAAjB,EAAsE,CAAtE,EAAyE,CAAzE,EAA4E,KAA5E,EAAmF,EAAnF;AACA3C,IAAAA,EAAE,CAACW,YAAH;AACH;;AAAC,MAAIJ,EAAE,GAAG,CAAT,EAAY;AACV,UAAMsC,MAAM,GAAG7C,EAAE,CAACe,aAAH,CAAiB,CAAjB,CAAf;AACAf,IAAAA,EAAE,CAACgB,SAAH,CAAa,CAAb;AACAhB,IAAAA,EAAE,CAACiB,UAAH,CAAc,MAAd,EAAsB4B,MAAM,CAACC,EAAP,CAAU,OAAV,EAAmB3B,MAAnB,IAA6B0B,MAAM,CAAC3B,CAAP,CAAS,OAAT,EAAkBC,MAAlB,CAAyB,UAAzB,CAAnD;AACH;AAAE;;AACH,SAAS4B,sCAAT,CAAgDxC,EAAhD,EAAoDC,GAApD,EAAyD;AAAE,MAAID,EAAE,GAAG,CAAT,EAAY;AACnE,UAAMyC,IAAI,GAAGhD,EAAE,CAACqC,gBAAH,EAAb;;AACArC,IAAAA,EAAE,CAACS,cAAH,CAAkB,CAAlB,EAAqB,KAArB,EAA4B,CAA5B;AACAT,IAAAA,EAAE,CAACS,cAAH,CAAkB,CAAlB,EAAqB,KAArB,EAA4B,CAA5B;AACAT,IAAAA,EAAE,CAACS,cAAH,CAAkB,CAAlB,EAAqB,MAArB,EAA6B,EAA7B;AACAT,IAAAA,EAAE,CAACS,cAAH,CAAkB,CAAlB,EAAqB,KAArB,EAA4B,CAA5B;AACAT,IAAAA,EAAE,CAACS,cAAH,CAAkB,CAAlB,EAAqB,KAArB,EAA4B,EAA5B;AACAT,IAAAA,EAAE,CAACS,cAAH,CAAkB,CAAlB,EAAqB,KAArB,EAA4B,EAA5B;AACAT,IAAAA,EAAE,CAACS,cAAH,CAAkB,CAAlB,EAAqB,MAArB,EAA6B,EAA7B;AACAT,IAAAA,EAAE,CAACU,MAAH,CAAU,CAAV,EAAa,OAAb;AACAV,IAAAA,EAAE,CAACW,YAAH;AACAX,IAAAA,EAAE,CAACW,YAAH;AACAX,IAAAA,EAAE,CAACqB,SAAH,CAAa,CAAb,EAAgB,UAAhB,EAA4B,EAA5B;AACArB,IAAAA,EAAE,CAACqB,SAAH,CAAa,CAAb,EAAgB,IAAhB;AACArB,IAAAA,EAAE,CAACa,UAAH,CAAc,EAAd,EAAkBsB,gDAAlB,EAAoE,CAApE,EAAuE,CAAvE,EAA0E,QAA1E,EAAoF,EAApF;AACAnC,IAAAA,EAAE,CAACW,YAAH;AACAX,IAAAA,EAAE,CAACS,cAAH,CAAkB,EAAlB,EAAsB,GAAtB;AACAT,IAAAA,EAAE,CAACU,MAAH,CAAU,EAAV,EAAc,oCAAd;AACAV,IAAAA,EAAE,CAACW,YAAH;AACAX,IAAAA,EAAE,CAACS,cAAH,CAAkB,EAAlB,EAAsB,KAAtB,EAA6B,CAA7B;AACAT,IAAAA,EAAE,CAACS,cAAH,CAAkB,EAAlB,EAAsB,OAAtB,EAA+B,EAA/B;AACAT,IAAAA,EAAE,CAACsC,UAAH,CAAc,eAAd,EAA+B,SAASW,sEAAT,CAAgFC,MAAhF,EAAwF;AAAElD,MAAAA,EAAE,CAACwC,aAAH,CAAiBQ,IAAjB;AAAwB,YAAMG,OAAO,GAAGnD,EAAE,CAACe,aAAH,EAAhB;AAAoC,aAAOoC,OAAO,CAACC,aAAR,CAAsBC,OAAtB,GAAgCH,MAAvC;AAAgD,KAArO;AACAlD,IAAAA,EAAE,CAACW,YAAH;AACAX,IAAAA,EAAE,CAACS,cAAH,CAAkB,EAAlB,EAAsB,OAAtB,EAA+B,CAA/B;AACAT,IAAAA,EAAE,CAACU,MAAH,CAAU,EAAV,EAAc,MAAd;AACAV,IAAAA,EAAE,CAACW,YAAH;AACAX,IAAAA,EAAE,CAACW,YAAH;AACAX,IAAAA,EAAE,CAACS,cAAH,CAAkB,EAAlB,EAAsB,KAAtB,EAA6B,CAA7B;AACAT,IAAAA,EAAE,CAACS,cAAH,CAAkB,EAAlB,EAAsB,OAAtB,EAA+B,EAA/B;AACAT,IAAAA,EAAE,CAACsC,UAAH,CAAc,eAAd,EAA+B,SAASgB,sEAAT,CAAgFJ,MAAhF,EAAwF;AAAElD,MAAAA,EAAE,CAACwC,aAAH,CAAiBQ,IAAjB;AAAwB,YAAMO,OAAO,GAAGvD,EAAE,CAACe,aAAH,EAAhB;AAAoC,aAAOwC,OAAO,CAACH,aAAR,CAAsBC,OAAtB,GAAgCH,MAAvC;AAAgD,KAArO;AACAlD,IAAAA,EAAE,CAACW,YAAH;AACAX,IAAAA,EAAE,CAACS,cAAH,CAAkB,EAAlB,EAAsB,OAAtB,EAA+B,CAA/B;AACAT,IAAAA,EAAE,CAACU,MAAH,CAAU,EAAV,EAAc,MAAd;AACAV,IAAAA,EAAE,CAACW,YAAH;AACAX,IAAAA,EAAE,CAACW,YAAH;AACAX,IAAAA,EAAE,CAACa,UAAH,CAAc,EAAd,EAAkB+B,6CAAlB,EAAiE,CAAjE,EAAoE,CAApE,EAAuE,KAAvE,EAA8E,EAA9E;AACA5C,IAAAA,EAAE,CAACS,cAAH,CAAkB,EAAlB,EAAsB,QAAtB,EAAgC,EAAhC;AACAT,IAAAA,EAAE,CAACU,MAAH,CAAU,EAAV,EAAc,yBAAd;AACAV,IAAAA,EAAE,CAACW,YAAH;AACAX,IAAAA,EAAE,CAACW,YAAH;AACAX,IAAAA,EAAE,CAACW,YAAH;AACAX,IAAAA,EAAE,CAACW,YAAH;AACAX,IAAAA,EAAE,CAACW,YAAH;AACH;;AAAC,MAAIJ,EAAE,GAAG,CAAT,EAAY;AACV,UAAMiD,MAAM,GAAGxD,EAAE,CAACe,aAAH,EAAf;AACAf,IAAAA,EAAE,CAACgB,SAAH,CAAa,CAAb;AACAhB,IAAAA,EAAE,CAACiB,UAAH,CAAc,WAAd,EAA2BuC,MAAM,CAACC,KAAlC;AACAzD,IAAAA,EAAE,CAACgB,SAAH,CAAa,CAAb;AACAhB,IAAAA,EAAE,CAACyB,qBAAH,CAAyB,OAAzB,EAAkC+B,MAAM,CAACE,IAAzC;AACA1D,IAAAA,EAAE,CAACgB,SAAH,CAAa,CAAb;AACAhB,IAAAA,EAAE,CAACiB,UAAH,CAAc,MAAd,EAAsBuC,MAAM,CAACG,CAAP,GAAW,CAAjC;AACA3D,IAAAA,EAAE,CAACgB,SAAH,CAAa,CAAb;AACAhB,IAAAA,EAAE,CAACiB,UAAH,CAAc,SAAd,EAAyBuC,MAAM,CAACJ,aAAP,CAAqBC,OAA9C;AACArD,IAAAA,EAAE,CAACgB,SAAH,CAAa,CAAb;AACAhB,IAAAA,EAAE,CAACiB,UAAH,CAAc,SAAd,EAAyBuC,MAAM,CAACJ,aAAP,CAAqBC,OAA9C,EAAuD,SAAvD,EAAkE,IAAlE;AACArD,IAAAA,EAAE,CAACgB,SAAH,CAAa,CAAb;AACAhB,IAAAA,EAAE,CAACiB,UAAH,CAAc,MAAd,EAAsBuC,MAAM,CAACV,EAAP,CAAU,OAAV,EAAmBc,OAAnB,IAA8BJ,MAAM,CAACtC,CAAP,CAAS,OAAT,EAAkB2C,OAAtE;AACA7D,IAAAA,EAAE,CAACgB,SAAH,CAAa,CAAb;AACAhB,IAAAA,EAAE,CAACiB,UAAH,CAAc,UAAd,EAA0B,CAACuC,MAAM,CAACC,KAAP,CAAaK,KAAxC;AACH;AAAE;;AACH,OAAO,MAAMC,sBAAN,CAA6B;AAChCC,EAAAA,WAAW,CAACC,eAAD,EAAkBC,MAAlB,EAA0B;AACjC,SAAKD,eAAL,GAAuBA,eAAvB;AACA,SAAKC,MAAL,GAAcA,MAAd;AACA,SAAKC,QAAL,GAAgB,KAAhB;AACA,SAAKC,CAAL,GAAS,CAAT;AACA,SAAKT,CAAL,GAAS,CAAT;AACA,SAAKP,aAAL,GAAqB,IAAIxD,aAAJ,EAArB;AACA,SAAKyE,IAAL,GAAY,IAAIvE,SAAJ,CAAc;AACtBwE,MAAAA,IAAI,EAAE,IAAIzE,WAAJ,CAAgB,EAAhB,EAAoBE,UAAU,CAACwE,QAA/B;AADgB,KAAd,CAAZ;AAGA,SAAKb,IAAL,GAAY,EAAZ,CAViC,CAWjC;;AACA,SAAKD,KAAL,GAAa,IAAI3D,SAAJ,CAAc;AACvB0E,MAAAA,KAAK,EAAE,IAAI3E,WAAJ,CAAgB,EAAhB,EAAoBE,UAAU,CAACwE,QAA/B;AADgB,KAAd,CAAb;AAGH;;AACI,MAADrD,CAAC,GAAG;AACJ,WAAO,KAAKmD,IAAL,CAAUI,QAAjB;AACH;;AACDC,EAAAA,QAAQ,GAAG;AACP,QAAIC,MAAM,GAAG,KAAKN,IAAL,CAAUO,KAAV,GAAkB,EAA/B;AACAC,IAAAA,OAAO,CAACC,GAAR,CAAY,OAAQH,MAAM,CAACI,QAAP,EAApB;;AACA,QAAIJ,MAAM,CAACK,QAAP,CAAgB,GAAhB,CAAJ,EAA0B;AACtBL,MAAAA,MAAM,GAAG,IAAT;AACH,KAFD,MAGK;AACDA,MAAAA,MAAM,GAAG,IAAT;AACH;;AACD,SAAKV,eAAL,CAAqBgB,aAArB,CAAmCN,MAAnC,EAA2CO,SAA3C,CAAqDC,IAAI,IAAI;AACzD,WAAKhB,QAAL,GAAgB,IAAhB,CADyD,CAEzD;;AACA,WAAKC,CAAL;AACAS,MAAAA,OAAO,CAACC,GAAR,CAAYK,IAAI,CAAC,OAAD,CAAhB;AACA,WAAKzD,KAAL,GAAayD,IAAI,CAAC,OAAD,CAAjB;AACA,WAAKpD,aAAL,GAAqBoD,IAAI,CAAC,YAAD,CAAzB;AACA,WAAKjD,eAAL,GAAuBiD,IAAI,CAAC,WAAD,CAA3B,CAPyD,CAQzD;AACH,KATD,EASGC,KAAK,IAAIP,OAAO,CAACC,GAAR,CAAYM,KAAZ,CATZ;AAUH;AACD;AACJ;AACA;AACA;;;AACIC,EAAAA,QAAQ,GAAG,CACV;;AACDC,EAAAA,SAAS,GAAG;AACR,SAAK3B,CAAL;AACH;;AACK,MAAFb,EAAE,GAAG;AACL,WAAO,KAAKW,KAAL,CAAWgB,QAAlB;AACH;;AACK/B,EAAAA,KAAK,GAAG;AAAA;;AAAA;AACV,MAAA,KAAI,CAACgB,IAAL,SAAkB6B,SAAS,CAACC,SAAV,CAAoBC,QAApB,EAAlB;AADU;AAEb;;AAtD+B;;AAwDpC1B,sBAAsB,CAAC2B,IAAvB,GAA8B,SAASC,8BAAT,CAAwCC,CAAxC,EAA2C;AAAE,SAAO,KAAKA,CAAC,IAAI7B,sBAAV,EAAkC/D,EAAE,CAAC6F,iBAAH,CAAqB5F,EAAE,CAAC6F,oBAAxB,CAAlC,EAAiF9F,EAAE,CAAC6F,iBAAH,CAAqB3F,EAAE,CAAC6F,MAAxB,CAAjF,CAAP;AAA2H,CAAtM;;AACAhC,sBAAsB,CAACiC,IAAvB,GAA8B,aAAchG,EAAE,CAACiG,iBAAH,CAAqB;AAAEC,EAAAA,IAAI,EAAEnC,sBAAR;AAAgCoC,EAAAA,SAAS,EAAE,CAAC,CAAC,oBAAD,CAAD,CAA3C;AAAqEC,EAAAA,KAAK,EAAE,EAA5E;AAAgFC,EAAAA,IAAI,EAAE,EAAtF;AAA0FC,EAAAA,MAAM,EAAE,CAAC,CAAC,CAAD,EAAI,UAAJ,EAAgB,aAAhB,EAA+B,eAA/B,CAAD,EAAkD,CAAC,CAAD,EAAI,WAAJ,CAAlD,EAAoE,CAAC,aAAD,EAAgB,MAAhB,CAApE,EAA6F,CAAC,CAAD,EAAI,WAAJ,EAAiB,UAAjB,CAA7F,EAA2H,CAAC,CAAD,EAAI,YAAJ,CAA3H,EAA8I,CAAC,CAAD,EAAI,YAAJ,CAA9I,EAAiK,CAAC,iBAAD,EAAoB,MAApB,EAA4B,OAA5B,EAAqC,IAArC,EAA2C,MAA3C,EAAmD,OAAnD,EAA4D,MAA5D,EAAoE,MAApE,EAA4E,IAA5E,EAAkF,mBAAlF,EAAuG,CAAvG,EAA0G,kBAA1G,EAA8H,CAA9H,EAAiI,SAAjI,EAA4I,eAA5I,CAAjK,EAA+T,CAAC,KAAD,EAAQ,mBAAR,EAA6B,CAA7B,EAAgC,kBAAhC,CAA/T,EAAoX,CAAC,iBAAD,EAAoB,MAApB,EAA4B,OAA5B,EAAqC,IAArC,EAA2C,MAA3C,EAAmD,OAAnD,EAA4D,MAA5D,EAAoE,MAApE,EAA4E,IAA5E,EAAkF,mBAAlF,EAAuG,CAAvG,EAA0G,kBAA1G,EAA8H,CAA9H,EAAiI,SAAjI,EAA4I,SAA5I,EAAuJ,eAAvJ,CAApX,EAA6hB,CAAC,KAAD,EAAQ,mBAAR,EAA6B,CAA7B,EAAgC,kBAAhC,CAA7hB,EAAklB,CAAC,OAAD,EAAU,oBAAV,EAAgC,CAAhC,EAAmC,MAAnC,CAAllB,EAA8nB,CAAC,OAAD,EAAU,aAAV,EAAyB,CAAzB,EAA4B,MAA5B,CAA9nB,EAAmqB,CAAC,OAAD,EAAU,kBAAV,EAA8B,CAA9B,EAAiC,MAAjC,CAAnqB,EAA6sB,CAAC,MAAD,EAAS,QAAT,EAAmB,CAAnB,EAAsB,KAAtB,EAA6B,aAA7B,EAA4C,CAA5C,EAA+C,UAA/C,CAA7sB,EAAywB,CAAC,OAAD,EAAU,oCAAV,EAAgD,CAAhD,EAAmD,MAAnD,CAAzwB,EAAq0B,CAAC,CAAD,EAAI,OAAJ,EAAa,cAAb,CAAr0B,EAAm2B,CAAC,CAAD,EAAI,MAAJ,CAAn2B,EAAg3B,CAAC,CAAD,EAAI,aAAJ,CAAh3B,EAAo4B,CAAC,CAAD,EAAI,qBAAJ,CAAp4B,EAAg6B,CAAC,CAAD,EAAI,kBAAJ,CAAh6B,EAAy7B,CAAC,YAAD,EAAe,eAAf,EAAgC,CAAhC,EAAmC,cAAnC,EAAmD,CAAnD,EAAsD,UAAtD,EAAkE,OAAlE,CAAz7B,EAAqgC,CAAC,MAAD,EAAS,EAAT,CAArgC,EAAmhC,CAAC,UAAD,EAAa,aAAb,EAA4B,CAA5B,EAA+B,KAA/B,EAAsC,aAAtC,EAAqD,CAArD,EAAwD,cAAxD,CAAnhC,EAA4lC,CAAC,CAAD,EAAI,aAAJ,EAAmB,MAAnB,CAA5lC,EAAwnC,CAAC,IAAD,EAAO,cAAP,EAAuB,CAAvB,EAA0B,kBAA1B,CAAxnC,EAAuqC,CAAC,MAAD,EAAS,MAAT,EAAiB,IAAjB,EAAuB,YAAvB,EAAqC,kBAArC,EAAyD,cAAzD,EAAyE,CAAzE,EAA4E,cAA5E,EAA4F,CAA5F,EAA+F,OAA/F,EAAwG,UAAxG,CAAvqC,EAA4xC,CAAC,IAAD,EAAO,cAAP,EAAuB,CAAvB,EAA0B,kBAA1B,CAA5xC,EAA20C,CAAC,MAAD,EAAS,MAAT,EAAiB,IAAjB,EAAuB,WAAvB,EAAoC,kBAApC,EAAwD,cAAxD,EAAwE,CAAxE,EAA2E,cAA3E,EAA2F,CAA3F,EAA8F,OAA9F,EAAuG,UAAvG,CAA30C,EAA+7C,CAAC,CAAD,EAAI,WAAJ,CAA/7C,EAAi9C,CAAC,YAAD,EAAe,eAAf,EAAgC,CAAhC,EAAmC,cAAnC,EAAmD,CAAnD,EAAsD,OAAtD,CAAj9C,EAAihD,CAAC,OAAD,EAAU,iBAAV,EAA6B,CAA7B,EAAgC,OAAhC,EAAyC,CAAzC,EAA4C,MAA5C,CAAjhD,EAAskD,CAAC,iBAAD,EAAoB,OAApB,EAA6B,OAA7B,EAAsC,IAAtC,EAA4C,MAA5C,EAAoD,OAApD,EAA6D,MAA7D,EAAqE,OAArE,EAA8E,IAA9E,EAAoF,mBAApF,EAAyG,CAAzG,EAA4G,kBAA5G,EAAgI,CAAhI,EAAmI,SAAnI,EAA8I,eAA9I,CAAtkD,EAAsuD,CAAC,iBAAD,EAAoB,OAApB,EAA6B,OAA7B,EAAsC,IAAtC,EAA4C,MAA5C,EAAoD,OAApD,EAA6D,MAA7D,EAAqE,OAArE,EAA8E,IAA9E,EAAoF,mBAApF,EAAyG,CAAzG,EAA4G,kBAA5G,EAAgI,CAAhI,EAAmI,SAAnI,EAA8I,SAA9I,EAAyJ,eAAzJ,CAAtuD,EAAi5D,CAAC,CAAD,EAAI,KAAJ,EAAW,aAAX,EAA0B,CAA1B,EAA6B,OAA7B,CAAj5D,CAAlG;AAA2hEC,EAAAA,QAAQ,EAAE,SAASC,+BAAT,CAAyCjG,EAAzC,EAA6CC,GAA7C,EAAkD;AAAE,QAAID,EAAE,GAAG,CAAT,EAAY;AAC9pEP,MAAAA,EAAE,CAACS,cAAH,CAAkB,CAAlB,EAAqB,KAArB,EAA4B,CAA5B;AACAT,MAAAA,EAAE,CAACS,cAAH,CAAkB,CAAlB,EAAqB,KAArB,EAA4B,CAA5B;AACAT,MAAAA,EAAE,CAACS,cAAH,CAAkB,CAAlB,EAAqB,GAArB,EAA0B,CAA1B;AACAT,MAAAA,EAAE,CAACU,MAAH,CAAU,CAAV,EAAa,oCAAb;AACAV,MAAAA,EAAE,CAACW,YAAH;AACAX,MAAAA,EAAE,CAACS,cAAH,CAAkB,CAAlB,EAAqB,MAArB,EAA6B,CAA7B;AACAT,MAAAA,EAAE,CAACsC,UAAH,CAAc,UAAd,EAA0B,SAASmE,wDAAT,GAAoE;AAAE,eAAOjG,GAAG,CAACkE,QAAJ,EAAP;AAAwB,OAAxH;AACA1E,MAAAA,EAAE,CAACS,cAAH,CAAkB,CAAlB,EAAqB,KAArB,EAA4B,CAA5B;AACAT,MAAAA,EAAE,CAACS,cAAH,CAAkB,CAAlB,EAAqB,GAArB;AACAT,MAAAA,EAAE,CAACU,MAAH,CAAU,CAAV,EAAa,oCAAb;AACAV,MAAAA,EAAE,CAACW,YAAH;AACAX,MAAAA,EAAE,CAACS,cAAH,CAAkB,CAAlB,EAAqB,KAArB,EAA4B,CAA5B;AACAT,MAAAA,EAAE,CAACS,cAAH,CAAkB,CAAlB,EAAqB,OAArB,EAA8B,CAA9B;AACAT,MAAAA,EAAE,CAACsC,UAAH,CAAc,eAAd,EAA+B,SAASoE,8DAAT,CAAwExD,MAAxE,EAAgF;AAAE,eAAO1C,GAAG,CAAC4C,aAAJ,CAAkBuB,MAAlB,GAA2BzB,MAAlC;AAA2C,OAA5J;AACAlD,MAAAA,EAAE,CAACW,YAAH;AACAX,MAAAA,EAAE,CAACS,cAAH,CAAkB,EAAlB,EAAsB,OAAtB,EAA+B,CAA/B;AACAT,MAAAA,EAAE,CAACU,MAAH,CAAU,EAAV,EAAc,MAAd;AACAV,MAAAA,EAAE,CAACW,YAAH;AACAX,MAAAA,EAAE,CAACW,YAAH;AACAX,MAAAA,EAAE,CAACS,cAAH,CAAkB,EAAlB,EAAsB,KAAtB,EAA6B,CAA7B;AACAT,MAAAA,EAAE,CAACS,cAAH,CAAkB,EAAlB,EAAsB,OAAtB,EAA+B,CAA/B;AACAT,MAAAA,EAAE,CAACsC,UAAH,CAAc,eAAd,EAA+B,SAASqE,+DAAT,CAAyEzD,MAAzE,EAAiF;AAAE,eAAO1C,GAAG,CAAC4C,aAAJ,CAAkBuB,MAAlB,GAA2BzB,MAAlC;AAA2C,OAA7J;AACAlD,MAAAA,EAAE,CAACW,YAAH;AACAX,MAAAA,EAAE,CAACS,cAAH,CAAkB,EAAlB,EAAsB,OAAtB,EAA+B,CAA/B;AACAT,MAAAA,EAAE,CAACU,MAAH,CAAU,EAAV,EAAc,MAAd;AACAV,MAAAA,EAAE,CAACW,YAAH;AACAX,MAAAA,EAAE,CAACW,YAAH;AACAX,MAAAA,EAAE,CAACa,UAAH,CAAc,EAAd,EAAkBD,sCAAlB,EAA0D,CAA1D,EAA6D,CAA7D,EAAgE,KAAhE,EAAuE,EAAvE;AACAZ,MAAAA,EAAE,CAACa,UAAH,CAAc,EAAd,EAAkBO,sCAAlB,EAA0D,CAA1D,EAA6D,CAA7D,EAAgE,KAAhE,EAAuE,EAAvE;AACApB,MAAAA,EAAE,CAACqB,SAAH,CAAa,EAAb,EAAiB,IAAjB;AACArB,MAAAA,EAAE,CAACa,UAAH,CAAc,EAAd,EAAkBc,sCAAlB,EAA0D,CAA1D,EAA6D,CAA7D,EAAgE,KAAhE,EAAuE,EAAvE;AACA3B,MAAAA,EAAE,CAACa,UAAH,CAAc,EAAd,EAAkBmB,sCAAlB,EAA0D,CAA1D,EAA6D,CAA7D,EAAgE,KAAhE,EAAuE,EAAvE;AACAhC,MAAAA,EAAE,CAACS,cAAH,CAAkB,EAAlB,EAAsB,QAAtB,EAAgC,EAAhC;AACAT,MAAAA,EAAE,CAACU,MAAH,CAAU,EAAV,EAAc,yBAAd;AACAV,MAAAA,EAAE,CAACW,YAAH;AACAX,MAAAA,EAAE,CAACW,YAAH;AACAX,MAAAA,EAAE,CAACW,YAAH;AACAX,MAAAA,EAAE,CAACW,YAAH;AACAX,MAAAA,EAAE,CAACW,YAAH;AACAX,MAAAA,EAAE,CAACqB,SAAH,CAAa,EAAb,EAAiB,IAAjB;AACArB,MAAAA,EAAE,CAACa,UAAH,CAAc,EAAd,EAAkBkC,sCAAlB,EAA0D,EAA1D,EAA8D,CAA9D,EAAiE,KAAjE,EAAwE,EAAxE;AACH;;AAAC,QAAIxC,EAAE,GAAG,CAAT,EAAY;AACVP,MAAAA,EAAE,CAACgB,SAAH,CAAa,CAAb;AACAhB,MAAAA,EAAE,CAACiB,UAAH,CAAc,WAAd,EAA2BT,GAAG,CAAC6D,IAA/B;AACArE,MAAAA,EAAE,CAACgB,SAAH,CAAa,CAAb;AACAhB,MAAAA,EAAE,CAACiB,UAAH,CAAc,SAAd,EAAyBT,GAAG,CAAC4C,aAAJ,CAAkBuB,MAA3C;AACA3E,MAAAA,EAAE,CAACgB,SAAH,CAAa,CAAb;AACAhB,MAAAA,EAAE,CAACiB,UAAH,CAAc,SAAd,EAAyBT,GAAG,CAAC4C,aAAJ,CAAkBuB,MAA3C,EAAmD,SAAnD,EAA8D,IAA9D;AACA3E,MAAAA,EAAE,CAACgB,SAAH,CAAa,CAAb;AACAhB,MAAAA,EAAE,CAACiB,UAAH,CAAc,MAAd,EAAsBT,GAAG,CAACU,CAAJ,CAAM,MAAN,EAAc0C,OAAd,IAAyBpD,GAAG,CAACU,CAAJ,CAAM,MAAN,EAAc2C,OAA7D;AACA7D,MAAAA,EAAE,CAACgB,SAAH,CAAa,CAAb;AACAhB,MAAAA,EAAE,CAACiB,UAAH,CAAc,MAAd,EAAsBT,GAAG,CAAC2D,QAA1B;AACAnE,MAAAA,EAAE,CAACgB,SAAH,CAAa,CAAb;AACAhB,MAAAA,EAAE,CAACiB,UAAH,CAAc,MAAd,EAAsBT,GAAG,CAAC2D,QAA1B;AACAnE,MAAAA,EAAE,CAACgB,SAAH,CAAa,CAAb;AACAhB,MAAAA,EAAE,CAACiB,UAAH,CAAc,MAAd,EAAsBT,GAAG,CAAC2D,QAA1B;AACAnE,MAAAA,EAAE,CAACgB,SAAH,CAAa,CAAb;AACAhB,MAAAA,EAAE,CAACiB,UAAH,CAAc,UAAd,EAA0B,CAACT,GAAG,CAAC6D,IAAJ,CAASP,KAApC;AACA9D,MAAAA,EAAE,CAACgB,SAAH,CAAa,CAAb;AACAhB,MAAAA,EAAE,CAACiB,UAAH,CAAc,MAAd,EAAsBT,GAAG,CAAC4D,CAAJ,GAAQ,CAA9B;AACH;AAAE,GA7D0D;AA6DxDwC,EAAAA,UAAU,EAAE,CAACzG,EAAE,CAAC0G,aAAJ,EAAmB1G,EAAE,CAAC2G,oBAAtB,EAA4C3G,EAAE,CAAC4G,kBAA/C,EAAmE5G,EAAE,CAAC6G,oBAAtE,EAA4F7G,EAAE,CAAC8G,yBAA/F,EAA0H9G,EAAE,CAAC+G,eAA7H,EAA8I/G,EAAE,CAACgH,eAAjJ,EAAkK/G,EAAE,CAACgH,IAArK,EAA2K/G,EAAE,CAACgH,kBAA9K,CA7D4C;AA6DuJC,EAAAA,KAAK,EAAE,CAAClH,EAAE,CAACmH,QAAJ,CA7D9J;AA6D6KC,EAAAA,MAAM,EAAE,CAAC,iLAAD;AA7DrL,CAArB,CAA5C",
    "sourcesContent": [
      "import { GenerateToken } from \"../generate-token\";\r\nimport { FormControl, FormGroup, Validators } from \"@angular/forms\";\r\nimport * as i0 from \"@angular/core\";\r\nimport * as i1 from \"../generate-token.service\";\r\nimport * as i2 from \"@angular/router\";\r\nimport * as i3 from \"@angular/forms\";\r\nimport * as i4 from \"@angular/common\";\r\nimport * as i5 from \"ngx-clipboard\";\r\nfunction GenerateTokenComponent_div_16_div_1_Template(rf, ctx) { if (rf & 1) {\r\n    i0.ɵɵelementStart(0, \"div\");\r\n    i0.ɵɵtext(1, \"Language is required.\");\r\n    i0.ɵɵelementEnd();\r\n} }\r\nfunction GenerateTokenComponent_div_16_Template(rf, ctx) { if (rf & 1) {\r\n    i0.ɵɵelementStart(0, \"div\", 15);\r\n    i0.ɵɵtemplate(1, GenerateTokenComponent_div_16_div_1_Template, 2, 0, \"div\", 16);\r\n    i0.ɵɵelementEnd();\r\n} if (rf & 2) {\r\n    const ctx_r0 = i0.ɵɵnextContext();\r\n    i0.ɵɵadvance(1);\r\n    i0.ɵɵproperty(\"ngIf\", ctx_r0.f[\"lang\"].errors || ctx_r0.f[\"lang\"].errors[\"required\"]);\r\n} }\r\nfunction GenerateTokenComponent_div_17_Template(rf, ctx) { if (rf & 1) {\r\n    i0.ɵɵelementStart(0, \"div\", 17);\r\n    i0.ɵɵelementStart(1, \"div\", 18);\r\n    i0.ɵɵelementStart(2, \"span\", 19);\r\n    i0.ɵɵtext(3, \"Token\");\r\n    i0.ɵɵelementEnd();\r\n    i0.ɵɵelementEnd();\r\n    i0.ɵɵelement(4, \"textarea\", 20, 21);\r\n    i0.ɵɵelement(6, \"br\");\r\n    i0.ɵɵelementStart(7, \"button\", 22);\r\n    i0.ɵɵtext(8, \"Copier\");\r\n    i0.ɵɵelementEnd();\r\n    i0.ɵɵelementEnd();\r\n} if (rf & 2) {\r\n    const _r6 = i0.ɵɵreference(5);\r\n    const ctx_r1 = i0.ɵɵnextContext();\r\n    i0.ɵɵadvance(4);\r\n    i0.ɵɵpropertyInterpolate(\"value\", ctx_r1.token);\r\n    i0.ɵɵproperty(\"readonly\", true);\r\n    i0.ɵɵadvance(3);\r\n    i0.ɵɵproperty(\"ngxClipboard\", _r6);\r\n} }\r\nfunction GenerateTokenComponent_div_19_Template(rf, ctx) { if (rf & 1) {\r\n    i0.ɵɵelementStart(0, \"div\", 23);\r\n    i0.ɵɵelementStart(1, \"div\", 18);\r\n    i0.ɵɵelementStart(2, \"span\", 24);\r\n    i0.ɵɵtext(3, \"Date cr\\u00E9ation\");\r\n    i0.ɵɵelementEnd();\r\n    i0.ɵɵelementEnd();\r\n    i0.ɵɵelement(4, \"input\", 25);\r\n    i0.ɵɵpipe(5, \"date\");\r\n    i0.ɵɵelementEnd();\r\n} if (rf & 2) {\r\n    const ctx_r2 = i0.ɵɵnextContext();\r\n    i0.ɵɵadvance(4);\r\n    i0.ɵɵpropertyInterpolate(\"value\", i0.ɵɵpipeBind2(5, 2, ctx_r2.date_creation, \"dd-MMM-yyyy hh:mm:ss\"));\r\n    i0.ɵɵproperty(\"readonly\", true);\r\n} }\r\nfunction GenerateTokenComponent_div_20_Template(rf, ctx) { if (rf & 1) {\r\n    i0.ɵɵelementStart(0, \"div\", 23);\r\n    i0.ɵɵelementStart(1, \"div\", 18);\r\n    i0.ɵɵelementStart(2, \"span\", 26);\r\n    i0.ɵɵtext(3, \"Date expiration\");\r\n    i0.ɵɵelementEnd();\r\n    i0.ɵɵelementEnd();\r\n    i0.ɵɵelement(4, \"input\", 27);\r\n    i0.ɵɵpipe(5, \"date\");\r\n    i0.ɵɵelementEnd();\r\n} if (rf & 2) {\r\n    const ctx_r3 = i0.ɵɵnextContext();\r\n    i0.ɵɵadvance(4);\r\n    i0.ɵɵpropertyInterpolate(\"value\", i0.ɵɵpipeBind2(5, 2, ctx_r3.date_expiration, \"dd-MMM-yyyy hh:mm:ss\"));\r\n    i0.ɵɵproperty(\"readonly\", true);\r\n} }\r\nfunction GenerateTokenComponent_div_24_button_10_Template(rf, ctx) { if (rf & 1) {\r\n    const _r10 = i0.ɵɵgetCurrentView();\r\n    i0.ɵɵelementStart(0, \"button\", 33);\r\n    i0.ɵɵlistener(\"click\", function GenerateTokenComponent_div_24_button_10_Template_button_click_0_listener() { i0.ɵɵrestoreView(_r10); const ctx_r9 = i0.ɵɵnextContext(2); return ctx_r9.paste(); });\r\n    i0.ɵɵtext(1, \"Coller\");\r\n    i0.ɵɵelementEnd();\r\n} }\r\nfunction GenerateTokenComponent_div_24_div_21_div_1_Template(rf, ctx) { if (rf & 1) {\r\n    i0.ɵɵelementStart(0, \"div\");\r\n    i0.ɵɵtext(1, \"Language is required.\");\r\n    i0.ɵɵelementEnd();\r\n} }\r\nfunction GenerateTokenComponent_div_24_div_21_Template(rf, ctx) { if (rf & 1) {\r\n    i0.ɵɵelementStart(0, \"div\", 15);\r\n    i0.ɵɵtemplate(1, GenerateTokenComponent_div_24_div_21_div_1_Template, 2, 0, \"div\", 16);\r\n    i0.ɵɵelementEnd();\r\n} if (rf & 2) {\r\n    const ctx_r8 = i0.ɵɵnextContext(2);\r\n    i0.ɵɵadvance(1);\r\n    i0.ɵɵproperty(\"ngIf\", ctx_r8.f2[\"langu\"].errors || ctx_r8.f[\"langu\"].errors[\"required\"]);\r\n} }\r\nfunction GenerateTokenComponent_div_24_Template(rf, ctx) { if (rf & 1) {\r\n    const _r13 = i0.ɵɵgetCurrentView();\r\n    i0.ɵɵelementStart(0, \"div\", 0);\r\n    i0.ɵɵelementStart(1, \"div\", 1);\r\n    i0.ɵɵelementStart(2, \"form\", 28);\r\n    i0.ɵɵelementStart(3, \"div\", 4);\r\n    i0.ɵɵelementStart(4, \"div\", 17);\r\n    i0.ɵɵelementStart(5, \"div\", 18);\r\n    i0.ɵɵelementStart(6, \"span\", 19);\r\n    i0.ɵɵtext(7, \"Token\");\r\n    i0.ɵɵelementEnd();\r\n    i0.ɵɵelementEnd();\r\n    i0.ɵɵelement(8, \"textarea\", 29);\r\n    i0.ɵɵelement(9, \"br\");\r\n    i0.ɵɵtemplate(10, GenerateTokenComponent_div_24_button_10_Template, 2, 0, \"button\", 30);\r\n    i0.ɵɵelementEnd();\r\n    i0.ɵɵelementStart(11, \"p\");\r\n    i0.ɵɵtext(12, \"Indiquez la langue \\u00E0 utiliser\");\r\n    i0.ɵɵelementEnd();\r\n    i0.ɵɵelementStart(13, \"div\", 5);\r\n    i0.ɵɵelementStart(14, \"input\", 31);\r\n    i0.ɵɵlistener(\"ngModelChange\", function GenerateTokenComponent_div_24_Template_input_ngModelChange_14_listener($event) { i0.ɵɵrestoreView(_r13); const ctx_r12 = i0.ɵɵnextContext(); return ctx_r12.generatetoken.langue2 = $event; });\r\n    i0.ɵɵelementEnd();\r\n    i0.ɵɵelementStart(15, \"label\", 7);\r\n    i0.ɵɵtext(16, \" EN \");\r\n    i0.ɵɵelementEnd();\r\n    i0.ɵɵelementEnd();\r\n    i0.ɵɵelementStart(17, \"div\", 5);\r\n    i0.ɵɵelementStart(18, \"input\", 32);\r\n    i0.ɵɵlistener(\"ngModelChange\", function GenerateTokenComponent_div_24_Template_input_ngModelChange_18_listener($event) { i0.ɵɵrestoreView(_r13); const ctx_r14 = i0.ɵɵnextContext(); return ctx_r14.generatetoken.langue2 = $event; });\r\n    i0.ɵɵelementEnd();\r\n    i0.ɵɵelementStart(19, \"label\", 9);\r\n    i0.ɵɵtext(20, \" FR \");\r\n    i0.ɵɵelementEnd();\r\n    i0.ɵɵelementEnd();\r\n    i0.ɵɵtemplate(21, GenerateTokenComponent_div_24_div_21_Template, 2, 1, \"div\", 10);\r\n    i0.ɵɵelementStart(22, \"button\", 13);\r\n    i0.ɵɵtext(23, \"G\\u00E9n\\u00E9rer Token\");\r\n    i0.ɵɵelementEnd();\r\n    i0.ɵɵelementEnd();\r\n    i0.ɵɵelementEnd();\r\n    i0.ɵɵelementEnd();\r\n    i0.ɵɵelementEnd();\r\n} if (rf & 2) {\r\n    const ctx_r4 = i0.ɵɵnextContext();\r\n    i0.ɵɵadvance(2);\r\n    i0.ɵɵproperty(\"formGroup\", ctx_r4.form1);\r\n    i0.ɵɵadvance(6);\r\n    i0.ɵɵpropertyInterpolate(\"value\", ctx_r4.name);\r\n    i0.ɵɵadvance(2);\r\n    i0.ɵɵproperty(\"ngIf\", ctx_r4.p > 0);\r\n    i0.ɵɵadvance(4);\r\n    i0.ɵɵproperty(\"ngModel\", ctx_r4.generatetoken.langue2);\r\n    i0.ɵɵadvance(4);\r\n    i0.ɵɵproperty(\"ngModel\", ctx_r4.generatetoken.langue2)(\"checked\", true);\r\n    i0.ɵɵadvance(3);\r\n    i0.ɵɵproperty(\"ngIf\", ctx_r4.f2[\"langu\"].touched && ctx_r4.f[\"langu\"].invalid);\r\n    i0.ɵɵadvance(1);\r\n    i0.ɵɵproperty(\"disabled\", !ctx_r4.form1.valid);\r\n} }\r\nexport class GenerateTokenComponent {\r\n    constructor(genTokenService, router) {\r\n        this.genTokenService = genTokenService;\r\n        this.router = router;\r\n        this.afficher = false;\r\n        this.r = 0;\r\n        this.p = 0;\r\n        this.generatetoken = new GenerateToken();\r\n        this.form = new FormGroup({\r\n            lang: new FormControl('', Validators.required)\r\n        });\r\n        this.name = '';\r\n        //token:any;\r\n        this.form1 = new FormGroup({\r\n            langu: new FormControl('', Validators.required)\r\n        });\r\n    }\r\n    get f() {\r\n        return this.form.controls;\r\n    }\r\n    genToken() {\r\n        let langue = this.form.value + \"\";\r\n        console.log(typeof (langue.toString()));\r\n        if (langue.includes('f')) {\r\n            langue = \"fr\";\r\n        }\r\n        else {\r\n            langue = \"en\";\r\n        }\r\n        this.genTokenService.generateToken(langue).subscribe(data => {\r\n            this.afficher = true;\r\n            //this.copyToken(data['token']);\r\n            this.r++;\r\n            console.log(data['token']);\r\n            this.token = data['token'];\r\n            this.date_creation = data['created_at'];\r\n            this.date_expiration = data['expire_at'];\r\n            //this.enrollment.copyToken();\r\n        }, error => console.log(error));\r\n    }\r\n    /*copyToken(tk):string{\r\n      this.token=tk;\r\n      return this.token;\r\n    }*/\r\n    ngOnInit() {\r\n    }\r\n    increment() {\r\n        this.p++;\r\n    }\r\n    get f2() {\r\n        return this.form1.controls;\r\n    }\r\n    async paste() {\r\n        this.name = await navigator.clipboard.readText();\r\n    }\r\n}\r\nGenerateTokenComponent.ɵfac = function GenerateTokenComponent_Factory(t) { return new (t || GenerateTokenComponent)(i0.ɵɵdirectiveInject(i1.GenerateTokenService), i0.ɵɵdirectiveInject(i2.Router)); };\r\nGenerateTokenComponent.ɵcmp = /*@__PURE__*/ i0.ɵɵdefineComponent({ type: GenerateTokenComponent, selectors: [[\"app-generate-token\"]], decls: 25, vars: 10, consts: [[1, \"col-md-4\", \"offset-md-3\", \"register-form\"], [1, \"container\"], [\"text-weight\", \"bold\"], [3, \"formGroup\", \"ngSubmit\"], [1, \"form-group\"], [1, \"form-check\"], [\"formControlName\", \"lang\", \"value\", \"en\", \"type\", \"radio\", \"name\", \"lang\", \"id\", \"flexRadioDefault1\", 1, \"form-check-input\", 3, \"ngModel\", \"ngModelChange\"], [\"for\", \"flexRadioDefault1\", 1, \"form-check-label\"], [\"formControlName\", \"lang\", \"value\", \"fr\", \"type\", \"radio\", \"name\", \"lang\", \"id\", \"flexRadioDefault2\", 1, \"form-check-input\", 3, \"ngModel\", \"checked\", \"ngModelChange\"], [\"for\", \"flexRadioDefault2\", 1, \"form-check-label\"], [\"class\", \"alert alert-danger\", 4, \"ngIf\"], [\"class\", \"input-group\", 4, \"ngIf\"], [\"class\", \"input-group mb-3\", 4, \"ngIf\"], [\"type\", \"submit\", 1, \"btn\", \"btn-primary\", 3, \"disabled\"], [\"class\", \"col-md-4 offset-md-3 register-form\", 4, \"ngIf\"], [1, \"alert\", \"alert-danger\"], [4, \"ngIf\"], [1, \"input-group\"], [1, \"input-group-prepend\"], [1, \"input-group-text\"], [\"aria-label\", \"With textarea\", 1, \"form-control\", 3, \"readonly\", \"value\"], [\"text\", \"\"], [\"ng-click\", \"increment()\", 1, \"btn\", \"btn-primary\", 3, \"ngxClipboard\"], [1, \"input-group\", \"mb-3\"], [\"id\", \"basic-addon2\", 1, \"input-group-text\"], [\"type\", \"text\", \"id\", \"basic-url2\", \"aria-describedby\", \"basic-addon3\", 1, \"form-control\", 3, \"value\", \"readonly\"], [\"id\", \"basic-addon3\", 1, \"input-group-text\"], [\"type\", \"text\", \"id\", \"basic-url\", \"aria-describedby\", \"basic-addon3\", 1, \"form-control\", 3, \"value\", \"readonly\"], [3, \"formGroup\"], [\"aria-label\", \"With textarea\", 1, \"form-control\", 3, \"value\"], [\"class\", \"btn btn-primary\", 3, \"click\", 4, \"ngIf\"], [\"formControlName\", \"langu\", \"value\", \"en\", \"type\", \"radio\", \"name\", \"langu\", \"id\", \"flexRadioDefault3\", 1, \"form-check-input\", 3, \"ngModel\", \"ngModelChange\"], [\"formControlName\", \"langu\", \"value\", \"fr\", \"type\", \"radio\", \"name\", \"langu\", \"id\", \"flexRadioDefault4\", 1, \"form-check-input\", 3, \"ngModel\", \"checked\", \"ngModelChange\"], [1, \"btn\", \"btn-primary\", 3, \"click\"]], template: function GenerateTokenComponent_Template(rf, ctx) { if (rf & 1) {\r\n        i0.ɵɵelementStart(0, \"div\", 0);\r\n        i0.ɵɵelementStart(1, \"div\", 1);\r\n        i0.ɵɵelementStart(2, \"p\", 2);\r\n        i0.ɵɵtext(3, \"NB: Le token ne dure que 5 minutes\");\r\n        i0.ɵɵelementEnd();\r\n        i0.ɵɵelementStart(4, \"form\", 3);\r\n        i0.ɵɵlistener(\"ngSubmit\", function GenerateTokenComponent_Template_form_ngSubmit_4_listener() { return ctx.genToken(); });\r\n        i0.ɵɵelementStart(5, \"div\", 4);\r\n        i0.ɵɵelementStart(6, \"p\");\r\n        i0.ɵɵtext(7, \"Indiquez la langue \\u00E0 utiliser\");\r\n        i0.ɵɵelementEnd();\r\n        i0.ɵɵelementStart(8, \"div\", 5);\r\n        i0.ɵɵelementStart(9, \"input\", 6);\r\n        i0.ɵɵlistener(\"ngModelChange\", function GenerateTokenComponent_Template_input_ngModelChange_9_listener($event) { return ctx.generatetoken.langue = $event; });\r\n        i0.ɵɵelementEnd();\r\n        i0.ɵɵelementStart(10, \"label\", 7);\r\n        i0.ɵɵtext(11, \" EN \");\r\n        i0.ɵɵelementEnd();\r\n        i0.ɵɵelementEnd();\r\n        i0.ɵɵelementStart(12, \"div\", 5);\r\n        i0.ɵɵelementStart(13, \"input\", 8);\r\n        i0.ɵɵlistener(\"ngModelChange\", function GenerateTokenComponent_Template_input_ngModelChange_13_listener($event) { return ctx.generatetoken.langue = $event; });\r\n        i0.ɵɵelementEnd();\r\n        i0.ɵɵelementStart(14, \"label\", 9);\r\n        i0.ɵɵtext(15, \" FR \");\r\n        i0.ɵɵelementEnd();\r\n        i0.ɵɵelementEnd();\r\n        i0.ɵɵtemplate(16, GenerateTokenComponent_div_16_Template, 2, 1, \"div\", 10);\r\n        i0.ɵɵtemplate(17, GenerateTokenComponent_div_17_Template, 9, 3, \"div\", 11);\r\n        i0.ɵɵelement(18, \"br\");\r\n        i0.ɵɵtemplate(19, GenerateTokenComponent_div_19_Template, 6, 5, \"div\", 12);\r\n        i0.ɵɵtemplate(20, GenerateTokenComponent_div_20_Template, 6, 5, \"div\", 12);\r\n        i0.ɵɵelementStart(21, \"button\", 13);\r\n        i0.ɵɵtext(22, \"G\\u00E9n\\u00E9rer Token\");\r\n        i0.ɵɵelementEnd();\r\n        i0.ɵɵelementEnd();\r\n        i0.ɵɵelementEnd();\r\n        i0.ɵɵelementEnd();\r\n        i0.ɵɵelementEnd();\r\n        i0.ɵɵelement(23, \"br\");\r\n        i0.ɵɵtemplate(24, GenerateTokenComponent_div_24_Template, 24, 8, \"div\", 14);\r\n    } if (rf & 2) {\r\n        i0.ɵɵadvance(4);\r\n        i0.ɵɵproperty(\"formGroup\", ctx.form);\r\n        i0.ɵɵadvance(5);\r\n        i0.ɵɵproperty(\"ngModel\", ctx.generatetoken.langue);\r\n        i0.ɵɵadvance(4);\r\n        i0.ɵɵproperty(\"ngModel\", ctx.generatetoken.langue)(\"checked\", true);\r\n        i0.ɵɵadvance(3);\r\n        i0.ɵɵproperty(\"ngIf\", ctx.f[\"lang\"].touched && ctx.f[\"lang\"].invalid);\r\n        i0.ɵɵadvance(1);\r\n        i0.ɵɵproperty(\"ngIf\", ctx.afficher);\r\n        i0.ɵɵadvance(2);\r\n        i0.ɵɵproperty(\"ngIf\", ctx.afficher);\r\n        i0.ɵɵadvance(1);\r\n        i0.ɵɵproperty(\"ngIf\", ctx.afficher);\r\n        i0.ɵɵadvance(1);\r\n        i0.ɵɵproperty(\"disabled\", !ctx.form.valid);\r\n        i0.ɵɵadvance(3);\r\n        i0.ɵɵproperty(\"ngIf\", ctx.r > 0);\r\n    } }, directives: [i3.ɵNgNoValidate, i3.NgControlStatusGroup, i3.FormGroupDirective, i3.DefaultValueAccessor, i3.RadioControlValueAccessor, i3.NgControlStatus, i3.FormControlName, i4.NgIf, i5.ClipboardDirective], pipes: [i4.DatePipe], styles: [\"\\n/*# sourceMappingURL=data:application/json;base64,eyJ2ZXJzaW9uIjozLCJzb3VyY2VzIjpbXSwibmFtZXMiOltdLCJtYXBwaW5ncyI6IiIsImZpbGUiOiJnZW5lcmF0ZS10b2tlbi5jb21wb25lbnQuY3NzIn0= */\"] });\r\n"
    ]
  },
  "metadata": {},
  "sourceType": "module"
}
